<?xml version='1.0' encoding='UTF-8' ?>
<svg xmlns='http://www.w3.org/2000/svg' xmlns:xlink='http://www.w3.org/1999/xlink' class='svglite' width='566.93pt' height='340.16pt' viewBox='0 0 566.93 340.16'>
<defs>
  <style type='text/css'><![CDATA[
    .svglite line, .svglite polyline, .svglite polygon, .svglite path, .svglite rect, .svglite circle {
      fill: none;
      stroke: #000000;
      stroke-linecap: round;
      stroke-linejoin: round;
      stroke-miterlimit: 10.00;
    }
  ]]></style>
</defs>
<rect width='100%' height='100%' style='stroke: none; fill: none;'/>
<defs>
  <clipPath id='cpMC4wMHw1NjYuOTN8MC4wMHwzNDAuMTY='>
    <rect x='0.00' y='0.00' width='566.93' height='340.16' />
  </clipPath>
</defs>
<g clip-path='url(#cpMC4wMHw1NjYuOTN8MC4wMHwzNDAuMTY=)'>
</g>
<defs>
  <clipPath id='cpMzcuODJ8NTYxLjQ1fDUuNDh8MjU5LjY0'>
    <rect x='37.82' y='5.48' width='523.63' height='254.16' />
  </clipPath>
</defs>
<g clip-path='url(#cpMzcuODJ8NTYxLjQ1fDUuNDh8MjU5LjY0)'>
<polyline points='121.13,259.64 121.13,5.48 ' style='stroke-width: 0.53; stroke: #EBEBEB; stroke-linecap: butt;' />
<polyline points='240.13,259.64 240.13,5.48 ' style='stroke-width: 0.53; stroke: #EBEBEB; stroke-linecap: butt;' />
<polyline points='359.14,259.64 359.14,5.48 ' style='stroke-width: 0.53; stroke: #EBEBEB; stroke-linecap: butt;' />
<polyline points='478.15,259.64 478.15,5.48 ' style='stroke-width: 0.53; stroke: #EBEBEB; stroke-linecap: butt;' />
<polyline points='37.82,132.56 561.45,132.56 ' style='stroke-width: 1.07; stroke: #EBEBEB; stroke-linecap: butt;' />
<polyline points='61.62,259.64 61.62,5.48 ' style='stroke-width: 1.07; stroke: #EBEBEB; stroke-linecap: butt;' />
<polyline points='180.63,259.64 180.63,5.48 ' style='stroke-width: 1.07; stroke: #EBEBEB; stroke-linecap: butt;' />
<polyline points='299.64,259.64 299.64,5.48 ' style='stroke-width: 1.07; stroke: #EBEBEB; stroke-linecap: butt;' />
<polyline points='418.64,259.64 418.64,5.48 ' style='stroke-width: 1.07; stroke: #EBEBEB; stroke-linecap: butt;' />
<polyline points='537.65,259.64 537.65,5.48 ' style='stroke-width: 1.07; stroke: #EBEBEB; stroke-linecap: butt;' />
<rect x='61.62' y='37.25' width='0.00' height='190.62' style='stroke-width: 1.07; stroke: none; stroke-linecap: square; stroke-linejoin: miter; fill: #440154;' />
<rect x='61.62' y='37.25' width='228.99' height='190.62' style='stroke-width: 1.07; stroke: none; stroke-linecap: square; stroke-linejoin: miter; fill: #31688E;' />
<rect x='290.61' y='37.25' width='245.91' height='190.62' style='stroke-width: 1.07; stroke: none; stroke-linecap: square; stroke-linejoin: miter; fill: #35B779;' />
<rect x='536.52' y='37.25' width='1.13' height='190.62' style='stroke-width: 1.07; stroke: none; stroke-linecap: square; stroke-linejoin: miter; fill: #FDE725;' />
<text x='176.12' y='130.50' text-anchor='middle' style='font-size: 5.69px; fill: #FFFFFF; font-family: Arial;' textLength='9.48px' lengthAdjust='spacingAndGlyphs'>203</text>
<text x='176.12' y='138.69' text-anchor='middle' style='font-size: 5.69px; fill: #FFFFFF; font-family: Arial;' textLength='15.16px' lengthAdjust='spacingAndGlyphs'>(48%)</text>
<text x='413.57' y='130.50' text-anchor='middle' style='font-size: 5.69px; fill: #FFFFFF; font-family: Arial;' textLength='9.48px' lengthAdjust='spacingAndGlyphs'>218</text>
<text x='413.57' y='138.69' text-anchor='middle' style='font-size: 5.69px; fill: #FFFFFF; font-family: Arial;' textLength='15.16px' lengthAdjust='spacingAndGlyphs'>(52%)</text>
</g>
<g clip-path='url(#cpMC4wMHw1NjYuOTN8MC4wMHwzNDAuMTY=)'>
<text x='32.89' y='135.71' text-anchor='end' style='font-size: 8.80px; fill: #4D4D4D; font-family: Arial;' textLength='27.41px' lengthAdjust='spacingAndGlyphs'>gender</text>
<text x='61.62' y='270.87' text-anchor='middle' style='font-size: 8.80px; fill: #4D4D4D; font-family: Arial;' textLength='4.90px' lengthAdjust='spacingAndGlyphs'>0</text>
<text x='180.63' y='270.87' text-anchor='middle' style='font-size: 8.80px; fill: #4D4D4D; font-family: Arial;' textLength='9.79px' lengthAdjust='spacingAndGlyphs'>25</text>
<text x='299.64' y='270.87' text-anchor='middle' style='font-size: 8.80px; fill: #4D4D4D; font-family: Arial;' textLength='9.79px' lengthAdjust='spacingAndGlyphs'>50</text>
<text x='418.64' y='270.87' text-anchor='middle' style='font-size: 8.80px; fill: #4D4D4D; font-family: Arial;' textLength='9.79px' lengthAdjust='spacingAndGlyphs'>75</text>
<text x='537.65' y='270.87' text-anchor='middle' style='font-size: 8.80px; fill: #4D4D4D; font-family: Arial;' textLength='14.69px' lengthAdjust='spacingAndGlyphs'>100</text>
<rect x='172.38' y='289.87' width='15.86' height='15.86' style='stroke-width: 1.07; stroke: none; stroke-linecap: square; stroke-linejoin: miter; fill: #440154;' />
<rect x='270.57' y='289.87' width='15.86' height='15.86' style='stroke-width: 1.07; stroke: none; stroke-linecap: square; stroke-linejoin: miter; fill: #31688E;' />
<rect x='172.38' y='312.63' width='15.86' height='15.86' style='stroke-width: 1.07; stroke: none; stroke-linecap: square; stroke-linejoin: miter; fill: #35B779;' />
<rect x='270.57' y='312.63' width='15.86' height='15.86' style='stroke-width: 1.07; stroke: none; stroke-linecap: square; stroke-linejoin: miter; fill: #FDE725;' />
<text x='194.43' y='300.95' style='font-size: 8.80px; font-family: Arial;' textLength='69.95px' lengthAdjust='spacingAndGlyphs'>Decline to answer</text>
<text x='292.62' y='300.95' style='font-size: 8.80px; font-family: Arial;' textLength='19.07px' lengthAdjust='spacingAndGlyphs'>Male</text>
<text x='194.43' y='323.71' style='font-size: 8.80px; font-family: Arial;' textLength='29.34px' lengthAdjust='spacingAndGlyphs'>Female</text>
<text x='292.62' y='323.71' style='font-size: 8.80px; font-family: Arial;' textLength='140.46px' lengthAdjust='spacingAndGlyphs'>Other (e.g. genderqueer, nonbinary)</text>
</g>
</svg>
