<?xml version='1.0' encoding='UTF-8' ?>
<svg xmlns='http://www.w3.org/2000/svg' xmlns:xlink='http://www.w3.org/1999/xlink' class='svglite' width='576.00pt' height='180.00pt' viewBox='0 0 576.00 180.00'>
<defs>
  <style type='text/css'><![CDATA[
    .svglite line, .svglite polyline, .svglite polygon, .svglite path, .svglite rect, .svglite circle {
      fill: none;
      stroke: #000000;
      stroke-linecap: round;
      stroke-linejoin: round;
      stroke-miterlimit: 10.00;
    }
  ]]></style>
</defs>
<rect width='100%' height='100%' style='stroke: none; fill: none;'/>
<defs>
  <clipPath id='cpMC4wMHw1NzYuMDB8MC4wMHwxODAuMDA='>
    <rect x='0.00' y='0.00' width='576.00' height='180.00' />
  </clipPath>
</defs>
<g clip-path='url(#cpMC4wMHw1NzYuMDB8MC4wMHwxODAuMDA=)'>
</g>
<defs>
  <clipPath id='cpMC4wMHw1NzYuMDB8MC4wMHw5MC4wMA=='>
    <rect x='0.000000000000050' y='0.00' width='576.00' height='90.00' />
  </clipPath>
</defs>
<g clip-path='url(#cpMC4wMHw1NzYuMDB8MC4wMHw5MC4wMA==)'>
</g>
<g clip-path='url(#cpMC4wMHw1NzYuMDB8MC4wMHwxODAuMDA=)'>
</g>
<defs>
  <clipPath id='cpMTAuNDF8NTcwLjUyfDUuNDh8NzEuNDk='>
    <rect x='10.41' y='5.48' width='560.11' height='66.01' />
  </clipPath>
</defs>
<g clip-path='url(#cpMTAuNDF8NTcwLjUyfDUuNDh8NzEuNDk=)'>
<polyline points='78.30,71.49 78.30,5.48 ' style='stroke-width: 0.53; stroke: #EBEBEB; stroke-linecap: butt;' />
<polyline points='163.17,71.49 163.17,5.48 ' style='stroke-width: 0.53; stroke: #EBEBEB; stroke-linecap: butt;' />
<polyline points='248.03,71.49 248.03,5.48 ' style='stroke-width: 0.53; stroke: #EBEBEB; stroke-linecap: butt;' />
<polyline points='332.90,71.49 332.90,5.48 ' style='stroke-width: 0.53; stroke: #EBEBEB; stroke-linecap: butt;' />
<polyline points='417.76,71.49 417.76,5.48 ' style='stroke-width: 0.53; stroke: #EBEBEB; stroke-linecap: butt;' />
<polyline points='502.63,71.49 502.63,5.48 ' style='stroke-width: 0.53; stroke: #EBEBEB; stroke-linecap: butt;' />
<polyline points='10.41,66.28 570.52,66.28 ' style='stroke-width: 1.07; stroke: #EBEBEB; stroke-linecap: butt;' />
<polyline points='35.87,71.49 35.87,5.48 ' style='stroke-width: 1.07; stroke: #EBEBEB; stroke-linecap: butt;' />
<polyline points='120.74,71.49 120.74,5.48 ' style='stroke-width: 1.07; stroke: #EBEBEB; stroke-linecap: butt;' />
<polyline points='205.60,71.49 205.60,5.48 ' style='stroke-width: 1.07; stroke: #EBEBEB; stroke-linecap: butt;' />
<polyline points='290.47,71.49 290.47,5.48 ' style='stroke-width: 1.07; stroke: #EBEBEB; stroke-linecap: butt;' />
<polyline points='375.33,71.49 375.33,5.48 ' style='stroke-width: 1.07; stroke: #EBEBEB; stroke-linecap: butt;' />
<polyline points='460.20,71.49 460.20,5.48 ' style='stroke-width: 1.07; stroke: #EBEBEB; stroke-linecap: butt;' />
<polyline points='545.06,71.49 545.06,5.48 ' style='stroke-width: 1.07; stroke: #EBEBEB; stroke-linecap: butt;' />
<polygon points='24.31,66.27 25.36,66.26 26.40,66.25 27.44,66.22 28.48,66.18 29.52,66.12 30.56,66.04 31.61,65.95 32.65,65.85 33.69,65.77 34.73,65.71 35.77,65.68 36.81,65.70 37.86,65.75 38.90,65.84 39.94,65.93 40.98,66.02 42.02,66.11 43.06,66.17 44.11,66.21 45.15,66.24 46.19,66.26 47.23,66.27 48.27,66.27 49.31,66.28 50.36,66.28 51.40,66.28 52.44,66.28 53.48,66.28 54.52,66.28 55.56,66.28 56.61,66.28 57.65,66.28 58.69,66.28 59.73,66.28 60.77,66.28 61.82,66.28 62.86,66.28 63.90,66.28 64.94,66.28 65.98,66.28 67.02,66.28 68.07,66.28 69.11,66.28 70.15,66.28 71.19,66.28 72.23,66.28 73.27,66.28 74.32,66.28 75.36,66.28 76.40,66.28 77.44,66.28 78.48,66.28 79.52,66.28 80.57,66.28 81.61,66.28 82.65,66.28 83.69,66.28 84.73,66.28 85.77,66.28 86.82,66.28 87.86,66.28 88.90,66.28 89.94,66.28 90.98,66.28 92.02,66.28 93.07,66.28 94.11,66.28 95.15,66.28 96.19,66.28 97.23,66.28 98.27,66.28 99.32,66.28 100.36,66.28 101.40,66.28 102.44,66.28 103.48,66.28 104.52,66.28 105.57,66.28 106.61,66.28 107.65,66.28 108.69,66.28 109.73,66.28 110.77,66.28 111.82,66.28 112.86,66.28 113.90,66.28 114.94,66.28 115.98,66.28 117.02,66.28 118.07,66.28 119.11,66.28 120.15,66.28 121.19,66.28 122.23,66.28 123.27,66.28 124.32,66.28 125.36,66.28 126.40,66.28 127.44,66.28 128.48,66.28 129.52,66.28 130.57,66.28 131.61,66.28 132.65,66.28 133.69,66.28 134.73,66.28 135.78,66.28 136.82,66.28 137.86,66.28 138.90,66.28 139.94,66.28 140.98,66.28 142.03,66.27 143.07,66.27 144.11,66.26 145.15,66.25 146.19,66.22 147.23,66.18 148.28,66.12 149.32,66.04 150.36,65.95 151.40,65.86 152.44,65.77 153.48,65.71 154.53,65.68 155.57,65.69 156.61,65.75 157.65,65.83 158.69,65.93 159.73,66.02 160.78,66.10 161.82,66.16 162.86,66.21 163.90,66.24 164.94,66.26 165.98,66.27 167.03,66.27 168.07,66.28 169.11,66.28 170.15,66.28 171.19,66.28 172.23,66.28 173.28,66.28 174.32,66.28 175.36,66.28 176.40,66.27 177.44,66.27 178.48,66.26 179.53,66.24 180.57,66.21 181.61,66.16 182.65,66.09 183.69,66.01 184.73,65.91 185.78,65.82 186.82,65.74 187.86,65.69 188.90,65.68 189.94,65.71 190.98,65.78 192.03,65.87 193.07,65.96 194.11,66.04 195.15,66.10 196.19,66.12 197.23,66.11 198.28,66.04 199.32,65.93 200.36,65.78 201.40,65.60 202.44,65.42 203.48,65.25 204.53,65.13 205.57,65.09 206.61,65.13 207.65,65.24 208.69,65.41 209.73,65.59 210.78,65.78 211.82,65.94 212.86,66.07 213.90,66.15 214.94,66.21 215.99,66.24 217.03,66.26 218.07,66.27 219.11,66.27 220.15,66.28 221.19,66.28 222.24,66.28 223.28,66.28 224.32,66.28 225.36,66.28 226.40,66.28 227.44,66.27 228.49,66.27 229.53,66.26 230.57,66.24 231.61,66.20 232.65,66.15 233.69,66.08 234.74,66.00 235.78,65.90 236.82,65.81 237.86,65.73 238.90,65.69 239.94,65.69 240.99,65.72 242.03,65.79 243.07,65.88 244.11,65.98 245.15,66.06 246.19,66.14 247.24,66.19 248.28,66.23 249.32,66.25 250.36,66.26 251.40,66.27 252.44,66.28 253.49,66.28 254.53,66.28 255.57,66.28 256.61,66.28 257.65,66.28 258.69,66.28 259.74,66.28 260.78,66.27 261.82,66.26 262.86,66.25 263.90,66.22 264.94,66.17 265.99,66.09 267.03,65.98 268.07,65.82 269.11,65.64 270.15,65.45 271.19,65.27 272.24,65.13 273.28,65.08 274.32,65.10 275.36,65.21 276.40,65.37 277.44,65.55 278.49,65.72 279.53,65.85 280.57,65.92 281.61,65.90 282.65,65.79 283.69,65.56 284.74,65.23 285.78,64.81 286.82,64.34 287.86,63.89 288.90,63.52 289.94,63.31 290.99,63.31 292.03,63.52 293.07,63.89 294.11,64.35 295.15,64.82 296.20,65.25 297.24,65.60 298.28,65.87 299.32,66.04 300.36,66.15 301.40,66.22 302.45,66.25 303.49,66.27 304.53,66.27 305.57,66.28 306.61,66.28 307.65,66.28 308.70,66.28 309.74,66.28 310.78,66.28 311.82,66.27 312.86,66.27 313.90,66.26 314.95,66.25 315.99,66.22 317.03,66.18 318.07,66.12 319.11,66.04 320.15,65.95 321.20,65.85 322.24,65.77 323.28,65.71 324.32,65.68 325.36,65.70 326.40,65.75 327.45,65.83 328.49,65.92 329.53,66.00 330.57,66.05 331.61,66.06 332.65,66.01 333.70,65.89 334.74,65.69 335.78,65.41 336.82,65.06 337.86,64.69 338.90,64.33 339.95,64.06 340.99,63.91 342.03,63.93 343.07,64.10 344.11,64.40 345.15,64.77 346.20,65.14 347.24,65.46 348.28,65.70 349.32,65.82 350.36,65.82 351.40,65.70 352.45,65.47 353.49,65.16 354.53,64.79 355.57,64.42 356.61,64.11 357.65,63.93 358.70,63.90 359.74,64.03 360.78,64.30 361.82,64.65 362.86,65.02 363.90,65.35 364.95,65.59 365.99,65.69 367.03,65.65 368.07,65.43 369.11,65.04 370.15,64.51 371.20,63.87 372.24,63.22 373.28,62.65 374.32,62.26 375.36,62.12 376.41,62.28 377.45,62.68 378.49,63.25 379.53,63.90 380.57,64.50 381.61,64.97 382.66,65.25 383.70,65.29 384.74,65.06 385.78,64.56 386.82,63.79 387.86,62.81 388.91,61.76 389.95,60.78 390.99,60.06 392.03,59.72 393.07,59.83 394.11,60.37 395.16,61.23 396.20,62.25 397.24,63.25 398.28,64.09 399.32,64.67 400.36,64.92 401.41,64.83 402.45,64.38 403.49,63.59 404.53,62.53 405.57,61.30 406.61,60.10 407.66,59.15 408.70,58.61 409.74,58.59 410.78,59.09 411.82,60.01 412.86,61.16 413.91,62.35 414.95,63.39 415.99,64.15 417.03,64.54 418.07,64.50 419.11,64.02 420.16,63.10 421.20,61.81 422.24,60.26 423.28,58.65 424.32,57.26 425.36,56.36 426.41,56.12 427.45,56.58 428.49,57.63 429.53,59.02 430.57,60.45 431.61,61.57 432.66,62.05 433.70,61.51 434.74,59.58 435.78,55.91 436.82,50.25 437.86,42.62 438.91,33.47 439.95,23.75 440.99,14.83 442.03,8.28 443.07,5.48 444.11,7.16 445.16,12.75 446.20,21.11 447.24,30.71 448.28,40.09 449.32,48.17 450.36,54.33 451.41,58.44 452.45,60.66 453.49,61.30 454.53,60.73 455.57,59.33 456.62,57.49 457.66,55.60 458.70,54.07 459.74,53.23 460.78,53.26 461.82,54.19 462.87,55.86 463.91,57.89 464.95,59.94 465.99,61.75 467.03,63.12 468.07,63.97 469.12,64.28 470.16,64.08 471.20,63.42 472.24,62.39 473.28,61.13 474.32,59.84 475.37,58.75 476.41,58.05 477.45,57.90 478.49,58.33 479.53,59.27 480.57,60.53 481.62,61.90 482.66,63.14 483.70,64.14 484.74,64.85 485.78,65.24 486.82,65.36 487.87,65.25 488.91,64.96 489.95,64.56 490.99,64.11 492.03,63.70 493.07,63.41 494.12,63.30 495.16,63.40 496.20,63.68 497.24,64.09 498.28,64.56 499.32,65.02 500.37,65.39 501.41,65.64 502.45,65.76 503.49,65.75 504.53,65.61 505.57,65.36 506.62,65.03 507.66,64.66 508.70,64.31 509.74,64.04 510.78,63.91 511.82,63.94 512.87,64.12 513.91,64.42 514.95,64.79 515.99,65.15 517.03,65.45 518.07,65.64 519.12,65.70 520.16,65.59 521.20,65.32 522.24,64.88 523.28,64.29 524.32,63.64 525.37,62.99 526.41,62.46 527.45,62.16 528.49,62.12 529.53,62.38 530.57,62.86 531.62,63.49 532.66,64.15 533.70,64.75 534.74,65.23 535.78,65.54 536.83,65.68 537.87,65.67 538.91,65.50 539.95,65.22 540.99,64.87 542.03,64.50 543.08,64.18 544.12,63.97 545.16,63.90 546.20,64.00 547.24,64.24 548.28,64.58 549.33,64.96 550.37,65.32 551.41,65.63 552.45,65.87 553.49,66.04 554.53,66.15 555.58,66.21 556.62,66.25 556.62,66.28 555.58,66.28 554.53,66.28 553.49,66.28 552.45,66.28 551.41,66.28 550.37,66.28 549.33,66.28 548.28,66.28 547.24,66.28 546.20,66.28 545.16,66.28 544.12,66.28 543.08,66.28 542.03,66.28 540.99,66.28 539.95,66.28 538.91,66.28 537.87,66.28 536.83,66.28 535.78,66.28 534.74,66.28 533.70,66.28 532.66,66.28 531.62,66.28 530.57,66.28 529.53,66.28 528.49,66.28 527.45,66.28 526.41,66.28 525.37,66.28 524.32,66.28 523.28,66.28 522.24,66.28 521.20,66.28 520.16,66.28 519.12,66.28 518.07,66.28 517.03,66.28 515.99,66.28 514.95,66.28 513.91,66.28 512.87,66.28 511.82,66.28 510.78,66.28 509.74,66.28 508.70,66.28 507.66,66.28 506.62,66.28 505.57,66.28 504.53,66.28 503.49,66.28 502.45,66.28 501.41,66.28 500.37,66.28 499.32,66.28 498.28,66.28 497.24,66.28 496.20,66.28 495.16,66.28 494.12,66.28 493.07,66.28 492.03,66.28 490.99,66.28 489.95,66.28 488.91,66.28 487.87,66.28 486.82,66.28 485.78,66.28 484.74,66.28 483.70,66.28 482.66,66.28 481.62,66.28 480.57,66.28 479.53,66.28 478.49,66.28 477.45,66.28 476.41,66.28 475.37,66.28 474.32,66.28 473.28,66.28 472.24,66.28 471.20,66.28 470.16,66.28 469.12,66.28 468.07,66.28 467.03,66.28 465.99,66.28 464.95,66.28 463.91,66.28 462.87,66.28 461.82,66.28 460.78,66.28 459.74,66.28 458.70,66.28 457.66,66.28 456.62,66.28 455.57,66.28 454.53,66.28 453.49,66.28 452.45,66.28 451.41,66.28 450.36,66.28 449.32,66.28 448.28,66.28 447.24,66.28 446.20,66.28 445.16,66.28 444.11,66.28 443.07,66.28 442.03,66.28 440.99,66.28 439.95,66.28 438.91,66.28 437.86,66.28 436.82,66.28 435.78,66.28 434.74,66.28 433.70,66.28 432.66,66.28 431.61,66.28 430.57,66.28 429.53,66.28 428.49,66.28 427.45,66.28 426.41,66.28 425.36,66.28 424.32,66.28 423.28,66.28 422.24,66.28 421.20,66.28 420.16,66.28 419.11,66.28 418.07,66.28 417.03,66.28 415.99,66.28 414.95,66.28 413.91,66.28 412.86,66.28 411.82,66.28 410.78,66.28 409.74,66.28 408.70,66.28 407.66,66.28 406.61,66.28 405.57,66.28 404.53,66.28 403.49,66.28 402.45,66.28 401.41,66.28 400.36,66.28 399.32,66.28 398.28,66.28 397.24,66.28 396.20,66.28 395.16,66.28 394.11,66.28 393.07,66.28 392.03,66.28 390.99,66.28 389.95,66.28 388.91,66.28 387.86,66.28 386.82,66.28 385.78,66.28 384.74,66.28 383.70,66.28 382.66,66.28 381.61,66.28 380.57,66.28 379.53,66.28 378.49,66.28 377.45,66.28 376.41,66.28 375.36,66.28 374.32,66.28 373.28,66.28 372.24,66.28 371.20,66.28 370.15,66.28 369.11,66.28 368.07,66.28 367.03,66.28 365.99,66.28 364.95,66.28 363.90,66.28 362.86,66.28 361.82,66.28 360.78,66.28 359.74,66.28 358.70,66.28 357.65,66.28 356.61,66.28 355.57,66.28 354.53,66.28 353.49,66.28 352.45,66.28 351.40,66.28 350.36,66.28 349.32,66.28 348.28,66.28 347.24,66.28 346.20,66.28 345.15,66.28 344.11,66.28 343.07,66.28 342.03,66.28 340.99,66.28 339.95,66.28 338.90,66.28 337.86,66.28 336.82,66.28 335.78,66.28 334.74,66.28 333.70,66.28 332.65,66.28 331.61,66.28 330.57,66.28 329.53,66.28 328.49,66.28 327.45,66.28 326.40,66.28 325.36,66.28 324.32,66.28 323.28,66.28 322.24,66.28 321.20,66.28 320.15,66.28 319.11,66.28 318.07,66.28 317.03,66.28 315.99,66.28 314.95,66.28 313.90,66.28 312.86,66.28 311.82,66.28 310.78,66.28 309.74,66.28 308.70,66.28 307.65,66.28 306.61,66.28 305.57,66.28 304.53,66.28 303.49,66.28 302.45,66.28 301.40,66.28 300.36,66.28 299.32,66.28 298.28,66.28 297.24,66.28 296.20,66.28 295.15,66.28 294.11,66.28 293.07,66.28 292.03,66.28 290.99,66.28 289.94,66.28 288.90,66.28 287.86,66.28 286.82,66.28 285.78,66.28 284.74,66.28 283.69,66.28 282.65,66.28 281.61,66.28 280.57,66.28 279.53,66.28 278.49,66.28 277.44,66.28 276.40,66.28 275.36,66.28 274.32,66.28 273.28,66.28 272.24,66.28 271.19,66.28 270.15,66.28 269.11,66.28 268.07,66.28 267.03,66.28 265.99,66.28 264.94,66.28 263.90,66.28 262.86,66.28 261.82,66.28 260.78,66.28 259.74,66.28 258.69,66.28 257.65,66.28 256.61,66.28 255.57,66.28 254.53,66.28 253.49,66.28 252.44,66.28 251.40,66.28 250.36,66.28 249.32,66.28 248.28,66.28 247.24,66.28 246.19,66.28 245.15,66.28 244.11,66.28 243.07,66.28 242.03,66.28 240.99,66.28 239.94,66.28 238.90,66.28 237.86,66.28 236.82,66.28 235.78,66.28 234.74,66.28 233.69,66.28 232.65,66.28 231.61,66.28 230.57,66.28 229.53,66.28 228.49,66.28 227.44,66.28 226.40,66.28 225.36,66.28 224.32,66.28 223.28,66.28 222.24,66.28 221.19,66.28 220.15,66.28 219.11,66.28 218.07,66.28 217.03,66.28 215.99,66.28 214.94,66.28 213.90,66.28 212.86,66.28 211.82,66.28 210.78,66.28 209.73,66.28 208.69,66.28 207.65,66.28 206.61,66.28 205.57,66.28 204.53,66.28 203.48,66.28 202.44,66.28 201.40,66.28 200.36,66.28 199.32,66.28 198.28,66.28 197.23,66.28 196.19,66.28 195.15,66.28 194.11,66.28 193.07,66.28 192.03,66.28 190.98,66.28 189.94,66.28 188.90,66.28 187.86,66.28 186.82,66.28 185.78,66.28 184.73,66.28 183.69,66.28 182.65,66.28 181.61,66.28 180.57,66.28 179.53,66.28 178.48,66.28 177.44,66.28 176.40,66.28 175.36,66.28 174.32,66.28 173.28,66.28 172.23,66.28 171.19,66.28 170.15,66.28 169.11,66.28 168.07,66.28 167.03,66.28 165.98,66.28 164.94,66.28 163.90,66.28 162.86,66.28 161.82,66.28 160.78,66.28 159.73,66.28 158.69,66.28 157.65,66.28 156.61,66.28 155.57,66.28 154.53,66.28 153.48,66.28 152.44,66.28 151.40,66.28 150.36,66.28 149.32,66.28 148.28,66.28 147.23,66.28 146.19,66.28 145.15,66.28 144.11,66.28 143.07,66.28 142.03,66.28 140.98,66.28 139.94,66.28 138.90,66.28 137.86,66.28 136.82,66.28 135.78,66.28 134.73,66.28 133.69,66.28 132.65,66.28 131.61,66.28 130.57,66.28 129.52,66.28 128.48,66.28 127.44,66.28 126.40,66.28 125.36,66.28 124.32,66.28 123.27,66.28 122.23,66.28 121.19,66.28 120.15,66.28 119.11,66.28 118.07,66.28 117.02,66.28 115.98,66.28 114.94,66.28 113.90,66.28 112.86,66.28 111.82,66.28 110.77,66.28 109.73,66.28 108.69,66.28 107.65,66.28 106.61,66.28 105.57,66.28 104.52,66.28 103.48,66.28 102.44,66.28 101.40,66.28 100.36,66.28 99.32,66.28 98.27,66.28 97.23,66.28 96.19,66.28 95.15,66.28 94.11,66.28 93.07,66.28 92.02,66.28 90.98,66.28 89.94,66.28 88.90,66.28 87.86,66.28 86.82,66.28 85.77,66.28 84.73,66.28 83.69,66.28 82.65,66.28 81.61,66.28 80.57,66.28 79.52,66.28 78.48,66.28 77.44,66.28 76.40,66.28 75.36,66.28 74.32,66.28 73.27,66.28 72.23,66.28 71.19,66.28 70.15,66.28 69.11,66.28 68.07,66.28 67.02,66.28 65.98,66.28 64.94,66.28 63.90,66.28 62.86,66.28 61.82,66.28 60.77,66.28 59.73,66.28 58.69,66.28 57.65,66.28 56.61,66.28 55.56,66.28 54.52,66.28 53.48,66.28 52.44,66.28 51.40,66.28 50.36,66.28 49.31,66.28 48.27,66.28 47.23,66.28 46.19,66.28 45.15,66.28 44.11,66.28 43.06,66.28 42.02,66.28 40.98,66.28 39.94,66.28 38.90,66.28 37.86,66.28 36.81,66.28 35.77,66.28 34.73,66.28 33.69,66.28 32.65,66.28 31.61,66.28 30.56,66.28 29.52,66.28 28.48,66.28 27.44,66.28 26.40,66.28 25.36,66.28 24.31,66.28 ' style='stroke-width: 0.75; stroke: none; fill: #B3B3B3; fill-opacity: 0.25;' />
<polyline points='24.31,66.27 25.36,66.26 26.40,66.25 27.44,66.22 28.48,66.18 29.52,66.12 30.56,66.04 31.61,65.95 32.65,65.85 33.69,65.77 34.73,65.71 35.77,65.68 36.81,65.70 37.86,65.75 38.90,65.84 39.94,65.93 40.98,66.02 42.02,66.11 43.06,66.17 44.11,66.21 45.15,66.24 46.19,66.26 47.23,66.27 48.27,66.27 49.31,66.28 50.36,66.28 51.40,66.28 52.44,66.28 53.48,66.28 54.52,66.28 55.56,66.28 56.61,66.28 57.65,66.28 58.69,66.28 59.73,66.28 60.77,66.28 61.82,66.28 62.86,66.28 63.90,66.28 64.94,66.28 65.98,66.28 67.02,66.28 68.07,66.28 69.11,66.28 70.15,66.28 71.19,66.28 72.23,66.28 73.27,66.28 74.32,66.28 75.36,66.28 76.40,66.28 77.44,66.28 78.48,66.28 79.52,66.28 80.57,66.28 81.61,66.28 82.65,66.28 83.69,66.28 84.73,66.28 85.77,66.28 86.82,66.28 87.86,66.28 88.90,66.28 89.94,66.28 90.98,66.28 92.02,66.28 93.07,66.28 94.11,66.28 95.15,66.28 96.19,66.28 97.23,66.28 98.27,66.28 99.32,66.28 100.36,66.28 101.40,66.28 102.44,66.28 103.48,66.28 104.52,66.28 105.57,66.28 106.61,66.28 107.65,66.28 108.69,66.28 109.73,66.28 110.77,66.28 111.82,66.28 112.86,66.28 113.90,66.28 114.94,66.28 115.98,66.28 117.02,66.28 118.07,66.28 119.11,66.28 120.15,66.28 121.19,66.28 122.23,66.28 123.27,66.28 124.32,66.28 125.36,66.28 126.40,66.28 127.44,66.28 128.48,66.28 129.52,66.28 130.57,66.28 131.61,66.28 132.65,66.28 133.69,66.28 134.73,66.28 135.78,66.28 136.82,66.28 137.86,66.28 138.90,66.28 139.94,66.28 140.98,66.28 142.03,66.27 143.07,66.27 144.11,66.26 145.15,66.25 146.19,66.22 147.23,66.18 148.28,66.12 149.32,66.04 150.36,65.95 151.40,65.86 152.44,65.77 153.48,65.71 154.53,65.68 155.57,65.69 156.61,65.75 157.65,65.83 158.69,65.93 159.73,66.02 160.78,66.10 161.82,66.16 162.86,66.21 163.90,66.24 164.94,66.26 165.98,66.27 167.03,66.27 168.07,66.28 169.11,66.28 170.15,66.28 171.19,66.28 172.23,66.28 173.28,66.28 174.32,66.28 175.36,66.28 176.40,66.27 177.44,66.27 178.48,66.26 179.53,66.24 180.57,66.21 181.61,66.16 182.65,66.09 183.69,66.01 184.73,65.91 185.78,65.82 186.82,65.74 187.86,65.69 188.90,65.68 189.94,65.71 190.98,65.78 192.03,65.87 193.07,65.96 194.11,66.04 195.15,66.10 196.19,66.12 197.23,66.11 198.28,66.04 199.32,65.93 200.36,65.78 201.40,65.60 202.44,65.42 203.48,65.25 204.53,65.13 205.57,65.09 206.61,65.13 207.65,65.24 208.69,65.41 209.73,65.59 210.78,65.78 211.82,65.94 212.86,66.07 213.90,66.15 214.94,66.21 215.99,66.24 217.03,66.26 218.07,66.27 219.11,66.27 220.15,66.28 221.19,66.28 222.24,66.28 223.28,66.28 224.32,66.28 225.36,66.28 226.40,66.28 227.44,66.27 228.49,66.27 229.53,66.26 230.57,66.24 231.61,66.20 232.65,66.15 233.69,66.08 234.74,66.00 235.78,65.90 236.82,65.81 237.86,65.73 238.90,65.69 239.94,65.69 240.99,65.72 242.03,65.79 243.07,65.88 244.11,65.98 245.15,66.06 246.19,66.14 247.24,66.19 248.28,66.23 249.32,66.25 250.36,66.26 251.40,66.27 252.44,66.28 253.49,66.28 254.53,66.28 255.57,66.28 256.61,66.28 257.65,66.28 258.69,66.28 259.74,66.28 260.78,66.27 261.82,66.26 262.86,66.25 263.90,66.22 264.94,66.17 265.99,66.09 267.03,65.98 268.07,65.82 269.11,65.64 270.15,65.45 271.19,65.27 272.24,65.13 273.28,65.08 274.32,65.10 275.36,65.21 276.40,65.37 277.44,65.55 278.49,65.72 279.53,65.85 280.57,65.92 281.61,65.90 282.65,65.79 283.69,65.56 284.74,65.23 285.78,64.81 286.82,64.34 287.86,63.89 288.90,63.52 289.94,63.31 290.99,63.31 292.03,63.52 293.07,63.89 294.11,64.35 295.15,64.82 296.20,65.25 297.24,65.60 298.28,65.87 299.32,66.04 300.36,66.15 301.40,66.22 302.45,66.25 303.49,66.27 304.53,66.27 305.57,66.28 306.61,66.28 307.65,66.28 308.70,66.28 309.74,66.28 310.78,66.28 311.82,66.27 312.86,66.27 313.90,66.26 314.95,66.25 315.99,66.22 317.03,66.18 318.07,66.12 319.11,66.04 320.15,65.95 321.20,65.85 322.24,65.77 323.28,65.71 324.32,65.68 325.36,65.70 326.40,65.75 327.45,65.83 328.49,65.92 329.53,66.00 330.57,66.05 331.61,66.06 332.65,66.01 333.70,65.89 334.74,65.69 335.78,65.41 336.82,65.06 337.86,64.69 338.90,64.33 339.95,64.06 340.99,63.91 342.03,63.93 343.07,64.10 344.11,64.40 345.15,64.77 346.20,65.14 347.24,65.46 348.28,65.70 349.32,65.82 350.36,65.82 351.40,65.70 352.45,65.47 353.49,65.16 354.53,64.79 355.57,64.42 356.61,64.11 357.65,63.93 358.70,63.90 359.74,64.03 360.78,64.30 361.82,64.65 362.86,65.02 363.90,65.35 364.95,65.59 365.99,65.69 367.03,65.65 368.07,65.43 369.11,65.04 370.15,64.51 371.20,63.87 372.24,63.22 373.28,62.65 374.32,62.26 375.36,62.12 376.41,62.28 377.45,62.68 378.49,63.25 379.53,63.90 380.57,64.50 381.61,64.97 382.66,65.25 383.70,65.29 384.74,65.06 385.78,64.56 386.82,63.79 387.86,62.81 388.91,61.76 389.95,60.78 390.99,60.06 392.03,59.72 393.07,59.83 394.11,60.37 395.16,61.23 396.20,62.25 397.24,63.25 398.28,64.09 399.32,64.67 400.36,64.92 401.41,64.83 402.45,64.38 403.49,63.59 404.53,62.53 405.57,61.30 406.61,60.10 407.66,59.15 408.70,58.61 409.74,58.59 410.78,59.09 411.82,60.01 412.86,61.16 413.91,62.35 414.95,63.39 415.99,64.15 417.03,64.54 418.07,64.50 419.11,64.02 420.16,63.10 421.20,61.81 422.24,60.26 423.28,58.65 424.32,57.26 425.36,56.36 426.41,56.12 427.45,56.58 428.49,57.63 429.53,59.02 430.57,60.45 431.61,61.57 432.66,62.05 433.70,61.51 434.74,59.58 435.78,55.91 436.82,50.25 437.86,42.62 438.91,33.47 439.95,23.75 440.99,14.83 442.03,8.28 443.07,5.48 444.11,7.16 445.16,12.75 446.20,21.11 447.24,30.71 448.28,40.09 449.32,48.17 450.36,54.33 451.41,58.44 452.45,60.66 453.49,61.30 454.53,60.73 455.57,59.33 456.62,57.49 457.66,55.60 458.70,54.07 459.74,53.23 460.78,53.26 461.82,54.19 462.87,55.86 463.91,57.89 464.95,59.94 465.99,61.75 467.03,63.12 468.07,63.97 469.12,64.28 470.16,64.08 471.20,63.42 472.24,62.39 473.28,61.13 474.32,59.84 475.37,58.75 476.41,58.05 477.45,57.90 478.49,58.33 479.53,59.27 480.57,60.53 481.62,61.90 482.66,63.14 483.70,64.14 484.74,64.85 485.78,65.24 486.82,65.36 487.87,65.25 488.91,64.96 489.95,64.56 490.99,64.11 492.03,63.70 493.07,63.41 494.12,63.30 495.16,63.40 496.20,63.68 497.24,64.09 498.28,64.56 499.32,65.02 500.37,65.39 501.41,65.64 502.45,65.76 503.49,65.75 504.53,65.61 505.57,65.36 506.62,65.03 507.66,64.66 508.70,64.31 509.74,64.04 510.78,63.91 511.82,63.94 512.87,64.12 513.91,64.42 514.95,64.79 515.99,65.15 517.03,65.45 518.07,65.64 519.12,65.70 520.16,65.59 521.20,65.32 522.24,64.88 523.28,64.29 524.32,63.64 525.37,62.99 526.41,62.46 527.45,62.16 528.49,62.12 529.53,62.38 530.57,62.86 531.62,63.49 532.66,64.15 533.70,64.75 534.74,65.23 535.78,65.54 536.83,65.68 537.87,65.67 538.91,65.50 539.95,65.22 540.99,64.87 542.03,64.50 543.08,64.18 544.12,63.97 545.16,63.90 546.20,64.00 547.24,64.24 548.28,64.58 549.33,64.96 550.37,65.32 551.41,65.63 552.45,65.87 553.49,66.04 554.53,66.15 555.58,66.21 556.62,66.25 ' style='stroke-width: 1.07;' />
</g>
<g clip-path='url(#cpMC4wMHw1NzYuMDB8MC4wMHwxODAuMDA=)'>
<polyline points='35.87,74.23 35.87,71.49 ' style='stroke-width: 1.07; stroke-linecap: butt;' />
<polyline points='120.74,74.23 120.74,71.49 ' style='stroke-width: 1.07; stroke-linecap: butt;' />
<polyline points='205.60,74.23 205.60,71.49 ' style='stroke-width: 1.07; stroke-linecap: butt;' />
<polyline points='290.47,74.23 290.47,71.49 ' style='stroke-width: 1.07; stroke-linecap: butt;' />
<polyline points='375.33,74.23 375.33,71.49 ' style='stroke-width: 1.07; stroke-linecap: butt;' />
<polyline points='460.20,74.23 460.20,71.49 ' style='stroke-width: 1.07; stroke-linecap: butt;' />
<polyline points='545.06,74.23 545.06,71.49 ' style='stroke-width: 1.07; stroke-linecap: butt;' />
<text x='35.87' y='82.72' text-anchor='middle' style='font-size: 8.80px; fill: #4D4D4D; font-family: Arial;' textLength='4.90px' lengthAdjust='spacingAndGlyphs'>1</text>
<text x='120.74' y='82.72' text-anchor='middle' style='font-size: 8.80px; fill: #4D4D4D; font-family: Arial;' textLength='4.90px' lengthAdjust='spacingAndGlyphs'>2</text>
<text x='205.60' y='82.72' text-anchor='middle' style='font-size: 8.80px; fill: #4D4D4D; font-family: Arial;' textLength='4.90px' lengthAdjust='spacingAndGlyphs'>3</text>
<text x='290.47' y='82.72' text-anchor='middle' style='font-size: 8.80px; fill: #4D4D4D; font-family: Arial;' textLength='4.90px' lengthAdjust='spacingAndGlyphs'>4</text>
<text x='375.33' y='82.72' text-anchor='middle' style='font-size: 8.80px; fill: #4D4D4D; font-family: Arial;' textLength='4.90px' lengthAdjust='spacingAndGlyphs'>5</text>
<text x='460.20' y='82.72' text-anchor='middle' style='font-size: 8.80px; fill: #4D4D4D; font-family: Arial;' textLength='4.90px' lengthAdjust='spacingAndGlyphs'>6</text>
<text x='545.06' y='82.72' text-anchor='middle' style='font-size: 8.80px; fill: #4D4D4D; font-family: Arial;' textLength='4.90px' lengthAdjust='spacingAndGlyphs'>7</text>
</g>
<defs>
  <clipPath id='cpMC4wMHw1NzYuMDB8OTAuMDB8MTgwLjAw'>
    <rect x='0.000000000000050' y='90.00' width='576.00' height='90.00' />
  </clipPath>
</defs>
<g clip-path='url(#cpMC4wMHw1NzYuMDB8OTAuMDB8MTgwLjAw)'>
<rect x='0.000000000000064' y='90.00' width='576.00' height='90.00' style='stroke-width: 1.07; stroke: #FFFFFF; fill: #FFFFFF;' />
</g>
<g clip-path='url(#cpMC4wMHw1NzYuMDB8MC4wMHwxODAuMDA=)'>
</g>
<defs>
  <clipPath id='cpMTAuNDF8NTcwLjUyfDk1LjQ4fDE0OC43MQ=='>
    <rect x='10.41' y='95.48' width='560.11' height='53.23' />
  </clipPath>
</defs>
<g clip-path='url(#cpMTAuNDF8NTcwLjUyfDk1LjQ4fDE0OC43MQ==)'>
<rect x='10.41' y='95.48' width='560.11' height='53.23' style='stroke-width: 1.07; stroke: none; fill: #FFFFFF;' />
<polyline points='78.30,148.71 78.30,95.48 ' style='stroke-width: 0.53; stroke: #EBEBEB; stroke-linecap: butt;' />
<polyline points='163.17,148.71 163.17,95.48 ' style='stroke-width: 0.53; stroke: #EBEBEB; stroke-linecap: butt;' />
<polyline points='248.03,148.71 248.03,95.48 ' style='stroke-width: 0.53; stroke: #EBEBEB; stroke-linecap: butt;' />
<polyline points='332.90,148.71 332.90,95.48 ' style='stroke-width: 0.53; stroke: #EBEBEB; stroke-linecap: butt;' />
<polyline points='417.76,148.71 417.76,95.48 ' style='stroke-width: 0.53; stroke: #EBEBEB; stroke-linecap: butt;' />
<polyline points='502.63,148.71 502.63,95.48 ' style='stroke-width: 0.53; stroke: #EBEBEB; stroke-linecap: butt;' />
<polyline points='10.41,121.91 570.52,121.91 ' style='stroke-width: 1.07; stroke: #EBEBEB; stroke-linecap: butt;' />
<polyline points='35.87,148.71 35.87,95.48 ' style='stroke-width: 1.07; stroke: #EBEBEB; stroke-linecap: butt;' />
<polyline points='120.74,148.71 120.74,95.48 ' style='stroke-width: 1.07; stroke: #EBEBEB; stroke-linecap: butt;' />
<polyline points='205.60,148.71 205.60,95.48 ' style='stroke-width: 1.07; stroke: #EBEBEB; stroke-linecap: butt;' />
<polyline points='290.47,148.71 290.47,95.48 ' style='stroke-width: 1.07; stroke: #EBEBEB; stroke-linecap: butt;' />
<polyline points='375.33,148.71 375.33,95.48 ' style='stroke-width: 1.07; stroke: #EBEBEB; stroke-linecap: butt;' />
<polyline points='460.20,148.71 460.20,95.48 ' style='stroke-width: 1.07; stroke: #EBEBEB; stroke-linecap: butt;' />
<polyline points='545.06,148.71 545.06,95.48 ' style='stroke-width: 1.07; stroke: #EBEBEB; stroke-linecap: butt;' />
<circle cx='416.29' cy='127.23' r='3.20' style='stroke-width: 0.00; stroke: #444444; stroke-opacity: 0.10; fill: #444444; fill-opacity: 0.10;' />
<circle cx='491.88' cy='109.31' r='3.20' style='stroke-width: 0.00; stroke: #444444; stroke-opacity: 0.10; fill: #444444; fill-opacity: 0.10;' />
<circle cx='468.13' cy='107.45' r='3.20' style='stroke-width: 0.00; stroke: #444444; stroke-opacity: 0.10; fill: #444444; fill-opacity: 0.10;' />
<circle cx='525.56' cy='120.10' r='3.20' style='stroke-width: 0.00; stroke: #444444; stroke-opacity: 0.10; fill: #444444; fill-opacity: 0.10;' />
<circle cx='407.31' cy='131.51' r='3.20' style='stroke-width: 0.00; stroke: #444444; stroke-opacity: 0.10; fill: #444444; fill-opacity: 0.10;' />
<circle cx='431.26' cy='127.70' r='3.20' style='stroke-width: 0.00; stroke: #444444; stroke-opacity: 0.10; fill: #444444; fill-opacity: 0.10;' />
<circle cx='510.15' cy='102.19' r='3.20' style='stroke-width: 0.00; stroke: #444444; stroke-opacity: 0.10; fill: #444444; fill-opacity: 0.10;' />
<circle cx='490.49' cy='131.12' r='3.20' style='stroke-width: 0.00; stroke: #444444; stroke-opacity: 0.10; fill: #444444; fill-opacity: 0.10;' />
<circle cx='467.29' cy='130.19' r='3.20' style='stroke-width: 0.00; stroke: #444444; stroke-opacity: 0.10; fill: #444444; fill-opacity: 0.10;' />
<circle cx='449.04' cy='146.29' r='3.20' style='stroke-width: 0.00; stroke: #444444; stroke-opacity: 0.10; fill: #444444; fill-opacity: 0.10;' />
<circle cx='418.25' cy='144.49' r='3.20' style='stroke-width: 0.00; stroke: #444444; stroke-opacity: 0.10; fill: #444444; fill-opacity: 0.10;' />
<circle cx='423.44' cy='144.60' r='3.20' style='stroke-width: 0.00; stroke: #444444; stroke-opacity: 0.10; fill: #444444; fill-opacity: 0.10;' />
<circle cx='450.17' cy='120.97' r='3.20' style='stroke-width: 0.00; stroke: #444444; stroke-opacity: 0.10; fill: #444444; fill-opacity: 0.10;' />
<circle cx='435.78' cy='102.71' r='3.20' style='stroke-width: 0.00; stroke: #444444; stroke-opacity: 0.10; fill: #444444; fill-opacity: 0.10;' />
<circle cx='439.38' cy='103.08' r='3.20' style='stroke-width: 0.00; stroke: #444444; stroke-opacity: 0.10; fill: #444444; fill-opacity: 0.10;' />
<circle cx='442.25' cy='119.31' r='3.20' style='stroke-width: 0.00; stroke: #444444; stroke-opacity: 0.10; fill: #444444; fill-opacity: 0.10;' />
<circle cx='462.63' cy='100.48' r='3.20' style='stroke-width: 0.00; stroke: #444444; stroke-opacity: 0.10; fill: #444444; fill-opacity: 0.10;' />
<circle cx='407.55' cy='119.21' r='3.20' style='stroke-width: 0.00; stroke: #444444; stroke-opacity: 0.10; fill: #444444; fill-opacity: 0.10;' />
<circle cx='586.82' cy='111.70' r='3.20' style='stroke-width: 0.00; stroke: #444444; stroke-opacity: 0.10; fill: #444444; fill-opacity: 0.10;' />
<circle cx='463.49' cy='132.13' r='3.20' style='stroke-width: 0.00; stroke: #444444; stroke-opacity: 0.10; fill: #444444; fill-opacity: 0.10;' />
<circle cx='378.26' cy='106.39' r='3.20' style='stroke-width: 0.00; stroke: #444444; stroke-opacity: 0.10; fill: #444444; fill-opacity: 0.10;' />
<circle cx='462.19' cy='129.38' r='3.20' style='stroke-width: 0.00; stroke: #444444; stroke-opacity: 0.10; fill: #444444; fill-opacity: 0.10;' />
<circle cx='407.76' cy='111.92' r='3.20' style='stroke-width: 0.00; stroke: #444444; stroke-opacity: 0.10; fill: #444444; fill-opacity: 0.10;' />
<circle cx='440.73' cy='132.31' r='3.20' style='stroke-width: 0.00; stroke: #444444; stroke-opacity: 0.10; fill: #444444; fill-opacity: 0.10;' />
<circle cx='398.51' cy='100.09' r='3.20' style='stroke-width: 0.00; stroke: #444444; stroke-opacity: 0.10; fill: #444444; fill-opacity: 0.10;' />
<circle cx='431.20' cy='101.42' r='3.20' style='stroke-width: 0.00; stroke: #444444; stroke-opacity: 0.10; fill: #444444; fill-opacity: 0.10;' />
<circle cx='403.05' cy='98.24' r='3.20' style='stroke-width: 0.00; stroke: #444444; stroke-opacity: 0.10; fill: #444444; fill-opacity: 0.10;' />
<circle cx='389.65' cy='141.37' r='3.20' style='stroke-width: 0.00; stroke: #444444; stroke-opacity: 0.10; fill: #444444; fill-opacity: 0.10;' />
<circle cx='450.92' cy='130.45' r='3.20' style='stroke-width: 0.00; stroke: #444444; stroke-opacity: 0.10; fill: #444444; fill-opacity: 0.10;' />
<circle cx='525.09' cy='134.05' r='3.20' style='stroke-width: 0.00; stroke: #444444; stroke-opacity: 0.10; fill: #444444; fill-opacity: 0.10;' />
<circle cx='476.97' cy='118.00' r='3.20' style='stroke-width: 0.00; stroke: #444444; stroke-opacity: 0.10; fill: #444444; fill-opacity: 0.10;' />
<circle cx='428.09' cy='132.23' r='3.20' style='stroke-width: 0.00; stroke: #444444; stroke-opacity: 0.10; fill: #444444; fill-opacity: 0.10;' />
<circle cx='471.00' cy='112.14' r='3.20' style='stroke-width: 0.00; stroke: #444444; stroke-opacity: 0.10; fill: #444444; fill-opacity: 0.10;' />
<circle cx='347.84' cy='116.86' r='3.20' style='stroke-width: 0.00; stroke: #444444; stroke-opacity: 0.10; fill: #444444; fill-opacity: 0.10;' />
<circle cx='412.27' cy='108.06' r='3.20' style='stroke-width: 0.00; stroke: #444444; stroke-opacity: 0.10; fill: #444444; fill-opacity: 0.10;' />
<circle cx='441.22' cy='123.16' r='3.20' style='stroke-width: 0.00; stroke: #444444; stroke-opacity: 0.10; fill: #444444; fill-opacity: 0.10;' />
<circle cx='461.22' cy='139.88' r='3.20' style='stroke-width: 0.00; stroke: #444444; stroke-opacity: 0.10; fill: #444444; fill-opacity: 0.10;' />
<circle cx='469.70' cy='111.08' r='3.20' style='stroke-width: 0.00; stroke: #444444; stroke-opacity: 0.10; fill: #444444; fill-opacity: 0.10;' />
<circle cx='414.40' cy='110.72' r='3.20' style='stroke-width: 0.00; stroke: #444444; stroke-opacity: 0.10; fill: #444444; fill-opacity: 0.10;' />
<circle cx='468.01' cy='103.80' r='3.20' style='stroke-width: 0.00; stroke: #444444; stroke-opacity: 0.10; fill: #444444; fill-opacity: 0.10;' />
<circle cx='458.98' cy='108.21' r='3.20' style='stroke-width: 0.00; stroke: #444444; stroke-opacity: 0.10; fill: #444444; fill-opacity: 0.10;' />
<circle cx='516.82' cy='110.14' r='3.20' style='stroke-width: 0.00; stroke: #444444; stroke-opacity: 0.10; fill: #444444; fill-opacity: 0.10;' />
<circle cx='442.65' cy='117.76' r='3.20' style='stroke-width: 0.00; stroke: #444444; stroke-opacity: 0.10; fill: #444444; fill-opacity: 0.10;' />
<circle cx='467.14' cy='109.64' r='3.20' style='stroke-width: 0.00; stroke: #444444; stroke-opacity: 0.10; fill: #444444; fill-opacity: 0.10;' />
<circle cx='317.11' cy='106.35' r='3.20' style='stroke-width: 0.00; stroke: #444444; stroke-opacity: 0.10; fill: #444444; fill-opacity: 0.10;' />
<circle cx='447.28' cy='134.91' r='3.20' style='stroke-width: 0.00; stroke: #444444; stroke-opacity: 0.10; fill: #444444; fill-opacity: 0.10;' />
<circle cx='395.10' cy='99.45' r='3.20' style='stroke-width: 0.00; stroke: #444444; stroke-opacity: 0.10; fill: #444444; fill-opacity: 0.10;' />
<circle cx='419.47' cy='131.66' r='3.20' style='stroke-width: 0.00; stroke: #444444; stroke-opacity: 0.10; fill: #444444; fill-opacity: 0.10;' />
<circle cx='501.54' cy='131.30' r='3.20' style='stroke-width: 0.00; stroke: #444444; stroke-opacity: 0.10; fill: #444444; fill-opacity: 0.10;' />
<circle cx='441.26' cy='145.82' r='3.20' style='stroke-width: 0.00; stroke: #444444; stroke-opacity: 0.10; fill: #444444; fill-opacity: 0.10;' />
<circle cx='410.53' cy='135.11' r='3.20' style='stroke-width: 0.00; stroke: #444444; stroke-opacity: 0.10; fill: #444444; fill-opacity: 0.10;' />
<circle cx='451.64' cy='138.17' r='3.20' style='stroke-width: 0.00; stroke: #444444; stroke-opacity: 0.10; fill: #444444; fill-opacity: 0.10;' />
<circle cx='453.11' cy='107.96' r='3.20' style='stroke-width: 0.00; stroke: #444444; stroke-opacity: 0.10; fill: #444444; fill-opacity: 0.10;' />
<circle cx='409.85' cy='112.18' r='3.20' style='stroke-width: 0.00; stroke: #444444; stroke-opacity: 0.10; fill: #444444; fill-opacity: 0.10;' />
<circle cx='448.04' cy='130.33' r='3.20' style='stroke-width: 0.00; stroke: #444444; stroke-opacity: 0.10; fill: #444444; fill-opacity: 0.10;' />
<circle cx='480.18' cy='99.77' r='3.20' style='stroke-width: 0.00; stroke: #444444; stroke-opacity: 0.10; fill: #444444; fill-opacity: 0.10;' />
<circle cx='447.20' cy='102.81' r='3.20' style='stroke-width: 0.00; stroke: #444444; stroke-opacity: 0.10; fill: #444444; fill-opacity: 0.10;' />
<circle cx='354.72' cy='111.05' r='3.20' style='stroke-width: 0.00; stroke: #444444; stroke-opacity: 0.10; fill: #444444; fill-opacity: 0.10;' />
<circle cx='299.39' cy='138.56' r='3.20' style='stroke-width: 0.00; stroke: #444444; stroke-opacity: 0.10; fill: #444444; fill-opacity: 0.10;' />
<circle cx='284.26' cy='135.96' r='3.20' style='stroke-width: 0.00; stroke: #444444; stroke-opacity: 0.10; fill: #444444; fill-opacity: 0.10;' />
<circle cx='458.14' cy='110.66' r='3.20' style='stroke-width: 0.00; stroke: #444444; stroke-opacity: 0.10; fill: #444444; fill-opacity: 0.10;' />
<circle cx='176.04' cy='106.44' r='3.20' style='stroke-width: 0.00; stroke: #444444; stroke-opacity: 0.10; fill: #444444; fill-opacity: 0.10;' />
<circle cx='382.45' cy='127.66' r='3.20' style='stroke-width: 0.00; stroke: #444444; stroke-opacity: 0.10; fill: #444444; fill-opacity: 0.10;' />
<circle cx='509.56' cy='99.59' r='3.20' style='stroke-width: 0.00; stroke: #444444; stroke-opacity: 0.10; fill: #444444; fill-opacity: 0.10;' />
<circle cx='388.57' cy='141.80' r='3.20' style='stroke-width: 0.00; stroke: #444444; stroke-opacity: 0.10; fill: #444444; fill-opacity: 0.10;' />
<circle cx='323.21' cy='138.59' r='3.20' style='stroke-width: 0.00; stroke: #444444; stroke-opacity: 0.10; fill: #444444; fill-opacity: 0.10;' />
<circle cx='305.78' cy='125.37' r='3.20' style='stroke-width: 0.00; stroke: #444444; stroke-opacity: 0.10; fill: #444444; fill-opacity: 0.10;' />
<circle cx='229.76' cy='102.53' r='3.20' style='stroke-width: 0.00; stroke: #444444; stroke-opacity: 0.10; fill: #444444; fill-opacity: 0.10;' />
<circle cx='392.65' cy='99.39' r='3.20' style='stroke-width: 0.00; stroke: #444444; stroke-opacity: 0.10; fill: #444444; fill-opacity: 0.10;' />
<circle cx='421.26' cy='124.82' r='3.20' style='stroke-width: 0.00; stroke: #444444; stroke-opacity: 0.10; fill: #444444; fill-opacity: 0.10;' />
<circle cx='419.39' cy='133.80' r='3.20' style='stroke-width: 0.00; stroke: #444444; stroke-opacity: 0.10; fill: #444444; fill-opacity: 0.10;' />
<circle cx='472.93' cy='99.54' r='3.20' style='stroke-width: 0.00; stroke: #444444; stroke-opacity: 0.10; fill: #444444; fill-opacity: 0.10;' />
<circle cx='455.09' cy='134.71' r='3.20' style='stroke-width: 0.00; stroke: #444444; stroke-opacity: 0.10; fill: #444444; fill-opacity: 0.10;' />
<circle cx='531.85' cy='141.83' r='3.20' style='stroke-width: 0.00; stroke: #444444; stroke-opacity: 0.10; fill: #444444; fill-opacity: 0.10;' />
<circle cx='475.46' cy='142.30' r='3.20' style='stroke-width: 0.00; stroke: #444444; stroke-opacity: 0.10; fill: #444444; fill-opacity: 0.10;' />
<circle cx='485.22' cy='132.60' r='3.20' style='stroke-width: 0.00; stroke: #444444; stroke-opacity: 0.10; fill: #444444; fill-opacity: 0.10;' />
<circle cx='479.33' cy='111.06' r='3.20' style='stroke-width: 0.00; stroke: #444444; stroke-opacity: 0.10; fill: #444444; fill-opacity: 0.10;' />
<circle cx='370.72' cy='123.51' r='3.20' style='stroke-width: 0.00; stroke: #444444; stroke-opacity: 0.10; fill: #444444; fill-opacity: 0.10;' />
<circle cx='471.14' cy='125.61' r='3.20' style='stroke-width: 0.00; stroke: #444444; stroke-opacity: 0.10; fill: #444444; fill-opacity: 0.10;' />
<circle cx='402.01' cy='98.39' r='3.20' style='stroke-width: 0.00; stroke: #444444; stroke-opacity: 0.10; fill: #444444; fill-opacity: 0.10;' />
<circle cx='522.26' cy='140.30' r='3.20' style='stroke-width: 0.00; stroke: #444444; stroke-opacity: 0.10; fill: #444444; fill-opacity: 0.10;' />
<circle cx='405.02' cy='105.25' r='3.20' style='stroke-width: 0.00; stroke: #444444; stroke-opacity: 0.10; fill: #444444; fill-opacity: 0.10;' />
<circle cx='460.03' cy='109.86' r='3.20' style='stroke-width: 0.00; stroke: #444444; stroke-opacity: 0.10; fill: #444444; fill-opacity: 0.10;' />
<circle cx='297.97' cy='126.39' r='3.20' style='stroke-width: 0.00; stroke: #444444; stroke-opacity: 0.10; fill: #444444; fill-opacity: 0.10;' />
<circle cx='517.39' cy='122.79' r='3.20' style='stroke-width: 0.00; stroke: #444444; stroke-opacity: 0.10; fill: #444444; fill-opacity: 0.10;' />
<circle cx='423.06' cy='144.22' r='3.20' style='stroke-width: 0.00; stroke: #444444; stroke-opacity: 0.10; fill: #444444; fill-opacity: 0.10;' />
<circle cx='529.42' cy='101.26' r='3.20' style='stroke-width: 0.00; stroke: #444444; stroke-opacity: 0.10; fill: #444444; fill-opacity: 0.10;' />
<circle cx='429.54' cy='121.62' r='3.20' style='stroke-width: 0.00; stroke: #444444; stroke-opacity: 0.10; fill: #444444; fill-opacity: 0.10;' />
<circle cx='435.42' cy='116.94' r='3.20' style='stroke-width: 0.00; stroke: #444444; stroke-opacity: 0.10; fill: #444444; fill-opacity: 0.10;' />
<circle cx='489.37' cy='121.77' r='3.20' style='stroke-width: 0.00; stroke: #444444; stroke-opacity: 0.10; fill: #444444; fill-opacity: 0.10;' />
<circle cx='346.41' cy='139.84' r='3.20' style='stroke-width: 0.00; stroke: #444444; stroke-opacity: 0.10; fill: #444444; fill-opacity: 0.10;' />
<circle cx='449.07' cy='98.82' r='3.20' style='stroke-width: 0.00; stroke: #444444; stroke-opacity: 0.10; fill: #444444; fill-opacity: 0.10;' />
<circle cx='411.84' cy='116.79' r='3.20' style='stroke-width: 0.00; stroke: #444444; stroke-opacity: 0.10; fill: #444444; fill-opacity: 0.10;' />
<circle cx='402.48' cy='126.74' r='3.20' style='stroke-width: 0.00; stroke: #444444; stroke-opacity: 0.10; fill: #444444; fill-opacity: 0.10;' />
<circle cx='480.88' cy='130.41' r='3.20' style='stroke-width: 0.00; stroke: #444444; stroke-opacity: 0.10; fill: #444444; fill-opacity: 0.10;' />
<circle cx='463.68' cy='99.32' r='3.20' style='stroke-width: 0.00; stroke: #444444; stroke-opacity: 0.10; fill: #444444; fill-opacity: 0.10;' />
<circle cx='454.24' cy='128.13' r='3.20' style='stroke-width: 0.00; stroke: #444444; stroke-opacity: 0.10; fill: #444444; fill-opacity: 0.10;' />
<circle cx='438.82' cy='102.06' r='3.20' style='stroke-width: 0.00; stroke: #444444; stroke-opacity: 0.10; fill: #444444; fill-opacity: 0.10;' />
<circle cx='445.77' cy='123.19' r='3.20' style='stroke-width: 0.00; stroke: #444444; stroke-opacity: 0.10; fill: #444444; fill-opacity: 0.10;' />
<circle cx='477.69' cy='113.99' r='3.20' style='stroke-width: 0.00; stroke: #444444; stroke-opacity: 0.10; fill: #444444; fill-opacity: 0.10;' />
<circle cx='497.07' cy='128.28' r='3.20' style='stroke-width: 0.00; stroke: #444444; stroke-opacity: 0.10; fill: #444444; fill-opacity: 0.10;' />
<circle cx='488.28' cy='142.09' r='3.20' style='stroke-width: 0.00; stroke: #444444; stroke-opacity: 0.10; fill: #444444; fill-opacity: 0.10;' />
<circle cx='377.25' cy='122.07' r='3.20' style='stroke-width: 0.00; stroke: #444444; stroke-opacity: 0.10; fill: #444444; fill-opacity: 0.10;' />
<circle cx='411.36' cy='139.99' r='3.20' style='stroke-width: 0.00; stroke: #444444; stroke-opacity: 0.10; fill: #444444; fill-opacity: 0.10;' />
<circle cx='510.29' cy='124.28' r='3.20' style='stroke-width: 0.00; stroke: #444444; stroke-opacity: 0.10; fill: #444444; fill-opacity: 0.10;' />
<circle cx='414.77' cy='121.79' r='3.20' style='stroke-width: 0.00; stroke: #444444; stroke-opacity: 0.10; fill: #444444; fill-opacity: 0.10;' />
<circle cx='438.11' cy='105.01' r='3.20' style='stroke-width: 0.00; stroke: #444444; stroke-opacity: 0.10; fill: #444444; fill-opacity: 0.10;' />
<circle cx='381.37' cy='136.01' r='3.20' style='stroke-width: 0.00; stroke: #444444; stroke-opacity: 0.10; fill: #444444; fill-opacity: 0.10;' />
<circle cx='480.51' cy='125.42' r='3.20' style='stroke-width: 0.00; stroke: #444444; stroke-opacity: 0.10; fill: #444444; fill-opacity: 0.10;' />
<circle cx='418.80' cy='123.03' r='3.20' style='stroke-width: 0.00; stroke: #444444; stroke-opacity: 0.10; fill: #444444; fill-opacity: 0.10;' />
<circle cx='-4.77' cy='129.07' r='3.20' style='stroke-width: 0.00; stroke: #444444; stroke-opacity: 0.10; fill: #444444; fill-opacity: 0.10;' />
<circle cx='355.02' cy='119.42' r='3.20' style='stroke-width: 0.00; stroke: #444444; stroke-opacity: 0.10; fill: #444444; fill-opacity: 0.10;' />
<circle cx='418.65' cy='139.07' r='3.20' style='stroke-width: 0.00; stroke: #444444; stroke-opacity: 0.10; fill: #444444; fill-opacity: 0.10;' />
<circle cx='226.77' cy='119.43' r='3.20' style='stroke-width: 0.00; stroke: #444444; stroke-opacity: 0.10; fill: #444444; fill-opacity: 0.10;' />
<circle cx='357.10' cy='133.45' r='3.20' style='stroke-width: 0.00; stroke: #444444; stroke-opacity: 0.10; fill: #444444; fill-opacity: 0.10;' />
<circle cx='417.39' cy='101.91' r='3.20' style='stroke-width: 0.00; stroke: #444444; stroke-opacity: 0.10; fill: #444444; fill-opacity: 0.10;' />
<circle cx='490.29' cy='136.58' r='3.20' style='stroke-width: 0.00; stroke: #444444; stroke-opacity: 0.10; fill: #444444; fill-opacity: 0.10;' />
<circle cx='372.15' cy='112.43' r='3.20' style='stroke-width: 0.00; stroke: #444444; stroke-opacity: 0.10; fill: #444444; fill-opacity: 0.10;' />
<circle cx='469.38' cy='139.25' r='3.20' style='stroke-width: 0.00; stroke: #444444; stroke-opacity: 0.10; fill: #444444; fill-opacity: 0.10;' />
<circle cx='493.25' cy='107.99' r='3.20' style='stroke-width: 0.00; stroke: #444444; stroke-opacity: 0.10; fill: #444444; fill-opacity: 0.10;' />
<circle cx='500.33' cy='129.41' r='3.20' style='stroke-width: 0.00; stroke: #444444; stroke-opacity: 0.10; fill: #444444; fill-opacity: 0.10;' />
<circle cx='444.04' cy='126.46' r='3.20' style='stroke-width: 0.00; stroke: #444444; stroke-opacity: 0.10; fill: #444444; fill-opacity: 0.10;' />
<circle cx='455.73' cy='121.77' r='3.20' style='stroke-width: 0.00; stroke: #444444; stroke-opacity: 0.10; fill: #444444; fill-opacity: 0.10;' />
<circle cx='498.33' cy='107.77' r='3.20' style='stroke-width: 0.00; stroke: #444444; stroke-opacity: 0.10; fill: #444444; fill-opacity: 0.10;' />
<circle cx='470.88' cy='115.65' r='3.20' style='stroke-width: 0.00; stroke: #444444; stroke-opacity: 0.10; fill: #444444; fill-opacity: 0.10;' />
<circle cx='346.58' cy='124.90' r='3.20' style='stroke-width: 0.00; stroke: #444444; stroke-opacity: 0.10; fill: #444444; fill-opacity: 0.10;' />
<circle cx='446.14' cy='133.79' r='3.20' style='stroke-width: 0.00; stroke: #444444; stroke-opacity: 0.10; fill: #444444; fill-opacity: 0.10;' />
<circle cx='480.80' cy='131.21' r='3.20' style='stroke-width: 0.00; stroke: #444444; stroke-opacity: 0.10; fill: #444444; fill-opacity: 0.10;' />
<circle cx='467.10' cy='103.88' r='3.20' style='stroke-width: 0.00; stroke: #444444; stroke-opacity: 0.10; fill: #444444; fill-opacity: 0.10;' />
<circle cx='409.87' cy='142.58' r='3.20' style='stroke-width: 0.00; stroke: #444444; stroke-opacity: 0.10; fill: #444444; fill-opacity: 0.10;' />
<circle cx='471.01' cy='101.10' r='3.20' style='stroke-width: 0.00; stroke: #444444; stroke-opacity: 0.10; fill: #444444; fill-opacity: 0.10;' />
<circle cx='465.98' cy='104.31' r='3.20' style='stroke-width: 0.00; stroke: #444444; stroke-opacity: 0.10; fill: #444444; fill-opacity: 0.10;' />
<circle cx='431.02' cy='102.20' r='3.20' style='stroke-width: 0.00; stroke: #444444; stroke-opacity: 0.10; fill: #444444; fill-opacity: 0.10;' />
<circle cx='363.90' cy='135.22' r='3.20' style='stroke-width: 0.00; stroke: #444444; stroke-opacity: 0.10; fill: #444444; fill-opacity: 0.10;' />
<circle cx='483.00' cy='101.76' r='3.20' style='stroke-width: 0.00; stroke: #444444; stroke-opacity: 0.10; fill: #444444; fill-opacity: 0.10;' />
<circle cx='183.09' cy='139.63' r='3.20' style='stroke-width: 0.00; stroke: #444444; stroke-opacity: 0.10; fill: #444444; fill-opacity: 0.10;' />
<circle cx='469.34' cy='142.38' r='3.20' style='stroke-width: 0.00; stroke: #444444; stroke-opacity: 0.10; fill: #444444; fill-opacity: 0.10;' />
<circle cx='505.24' cy='112.59' r='3.20' style='stroke-width: 0.00; stroke: #444444; stroke-opacity: 0.10; fill: #444444; fill-opacity: 0.10;' />
<circle cx='450.52' cy='143.59' r='3.20' style='stroke-width: 0.00; stroke: #444444; stroke-opacity: 0.10; fill: #444444; fill-opacity: 0.10;' />
<circle cx='434.06' cy='111.46' r='3.20' style='stroke-width: 0.00; stroke: #444444; stroke-opacity: 0.10; fill: #444444; fill-opacity: 0.10;' />
<circle cx='443.90' cy='130.00' r='3.20' style='stroke-width: 0.00; stroke: #444444; stroke-opacity: 0.10; fill: #444444; fill-opacity: 0.10;' />
<circle cx='475.31' cy='129.61' r='3.20' style='stroke-width: 0.00; stroke: #444444; stroke-opacity: 0.10; fill: #444444; fill-opacity: 0.10;' />
<circle cx='415.69' cy='129.01' r='3.20' style='stroke-width: 0.00; stroke: #444444; stroke-opacity: 0.10; fill: #444444; fill-opacity: 0.10;' />
<circle cx='410.11' cy='104.92' r='3.20' style='stroke-width: 0.00; stroke: #444444; stroke-opacity: 0.10; fill: #444444; fill-opacity: 0.10;' />
<circle cx='469.80' cy='104.80' r='3.20' style='stroke-width: 0.00; stroke: #444444; stroke-opacity: 0.10; fill: #444444; fill-opacity: 0.10;' />
<circle cx='453.34' cy='108.72' r='3.20' style='stroke-width: 0.00; stroke: #444444; stroke-opacity: 0.10; fill: #444444; fill-opacity: 0.10;' />
<circle cx='398.08' cy='98.25' r='3.20' style='stroke-width: 0.00; stroke: #444444; stroke-opacity: 0.10; fill: #444444; fill-opacity: 0.10;' />
<circle cx='424.18' cy='136.81' r='3.20' style='stroke-width: 0.00; stroke: #444444; stroke-opacity: 0.10; fill: #444444; fill-opacity: 0.10;' />
<circle cx='459.65' cy='105.43' r='3.20' style='stroke-width: 0.00; stroke: #444444; stroke-opacity: 0.10; fill: #444444; fill-opacity: 0.10;' />
<circle cx='423.29' cy='113.44' r='3.20' style='stroke-width: 0.00; stroke: #444444; stroke-opacity: 0.10; fill: #444444; fill-opacity: 0.10;' />
<circle cx='408.82' cy='112.93' r='3.20' style='stroke-width: 0.00; stroke: #444444; stroke-opacity: 0.10; fill: #444444; fill-opacity: 0.10;' />
<circle cx='453.73' cy='104.53' r='3.20' style='stroke-width: 0.00; stroke: #444444; stroke-opacity: 0.10; fill: #444444; fill-opacity: 0.10;' />
<circle cx='407.44' cy='99.66' r='3.20' style='stroke-width: 0.00; stroke: #444444; stroke-opacity: 0.10; fill: #444444; fill-opacity: 0.10;' />
<circle cx='399.91' cy='100.02' r='3.20' style='stroke-width: 0.00; stroke: #444444; stroke-opacity: 0.10; fill: #444444; fill-opacity: 0.10;' />
<circle cx='447.72' cy='140.59' r='3.20' style='stroke-width: 0.00; stroke: #444444; stroke-opacity: 0.10; fill: #444444; fill-opacity: 0.10;' />
<circle cx='483.43' cy='123.60' r='3.20' style='stroke-width: 0.00; stroke: #444444; stroke-opacity: 0.10; fill: #444444; fill-opacity: 0.10;' />
<circle cx='310.39' cy='122.90' r='3.20' style='stroke-width: 0.00; stroke: #444444; stroke-opacity: 0.10; fill: #444444; fill-opacity: 0.10;' />
<circle cx='405.33' cy='144.30' r='3.20' style='stroke-width: 0.00; stroke: #444444; stroke-opacity: 0.10; fill: #444444; fill-opacity: 0.10;' />
<circle cx='406.36' cy='113.24' r='3.20' style='stroke-width: 0.00; stroke: #444444; stroke-opacity: 0.10; fill: #444444; fill-opacity: 0.10;' />
<circle cx='469.16' cy='109.27' r='3.20' style='stroke-width: 0.00; stroke: #444444; stroke-opacity: 0.10; fill: #444444; fill-opacity: 0.10;' />
<circle cx='560.51' cy='117.40' r='3.20' style='stroke-width: 0.00; stroke: #444444; stroke-opacity: 0.10; fill: #444444; fill-opacity: 0.10;' />
<circle cx='507.15' cy='143.02' r='3.20' style='stroke-width: 0.00; stroke: #444444; stroke-opacity: 0.10; fill: #444444; fill-opacity: 0.10;' />
<circle cx='371.44' cy='112.10' r='3.20' style='stroke-width: 0.00; stroke: #444444; stroke-opacity: 0.10; fill: #444444; fill-opacity: 0.10;' />
<circle cx='401.69' cy='104.95' r='3.20' style='stroke-width: 0.00; stroke: #444444; stroke-opacity: 0.10; fill: #444444; fill-opacity: 0.10;' />
<circle cx='419.63' cy='97.99' r='3.20' style='stroke-width: 0.00; stroke: #444444; stroke-opacity: 0.10; fill: #444444; fill-opacity: 0.10;' />
<circle cx='474.79' cy='137.35' r='3.20' style='stroke-width: 0.00; stroke: #444444; stroke-opacity: 0.10; fill: #444444; fill-opacity: 0.10;' />
<circle cx='421.91' cy='137.54' r='3.20' style='stroke-width: 0.00; stroke: #444444; stroke-opacity: 0.10; fill: #444444; fill-opacity: 0.10;' />
<circle cx='473.63' cy='136.34' r='3.20' style='stroke-width: 0.00; stroke: #444444; stroke-opacity: 0.10; fill: #444444; fill-opacity: 0.10;' />
<circle cx='433.54' cy='145.27' r='3.20' style='stroke-width: 0.00; stroke: #444444; stroke-opacity: 0.10; fill: #444444; fill-opacity: 0.10;' />
<circle cx='450.07' cy='140.09' r='3.20' style='stroke-width: 0.00; stroke: #444444; stroke-opacity: 0.10; fill: #444444; fill-opacity: 0.10;' />
<circle cx='493.05' cy='140.51' r='3.20' style='stroke-width: 0.00; stroke: #444444; stroke-opacity: 0.10; fill: #444444; fill-opacity: 0.10;' />
<circle cx='363.65' cy='110.38' r='3.20' style='stroke-width: 0.00; stroke: #444444; stroke-opacity: 0.10; fill: #444444; fill-opacity: 0.10;' />
<circle cx='402.83' cy='123.82' r='3.20' style='stroke-width: 0.00; stroke: #444444; stroke-opacity: 0.10; fill: #444444; fill-opacity: 0.10;' />
<circle cx='411.36' cy='127.55' r='3.20' style='stroke-width: 0.00; stroke: #444444; stroke-opacity: 0.10; fill: #444444; fill-opacity: 0.10;' />
<circle cx='460.67' cy='119.13' r='3.20' style='stroke-width: 0.00; stroke: #444444; stroke-opacity: 0.10; fill: #444444; fill-opacity: 0.10;' />
<circle cx='428.75' cy='124.37' r='3.20' style='stroke-width: 0.00; stroke: #444444; stroke-opacity: 0.10; fill: #444444; fill-opacity: 0.10;' />
<circle cx='384.62' cy='116.52' r='3.20' style='stroke-width: 0.00; stroke: #444444; stroke-opacity: 0.10; fill: #444444; fill-opacity: 0.10;' />
<circle cx='346.94' cy='141.90' r='3.20' style='stroke-width: 0.00; stroke: #444444; stroke-opacity: 0.10; fill: #444444; fill-opacity: 0.10;' />
<circle cx='455.92' cy='128.53' r='3.20' style='stroke-width: 0.00; stroke: #444444; stroke-opacity: 0.10; fill: #444444; fill-opacity: 0.10;' />
<circle cx='433.25' cy='97.90' r='3.20' style='stroke-width: 0.00; stroke: #444444; stroke-opacity: 0.10; fill: #444444; fill-opacity: 0.10;' />
<circle cx='462.90' cy='129.89' r='3.20' style='stroke-width: 0.00; stroke: #444444; stroke-opacity: 0.10; fill: #444444; fill-opacity: 0.10;' />
<circle cx='439.26' cy='127.93' r='3.20' style='stroke-width: 0.00; stroke: #444444; stroke-opacity: 0.10; fill: #444444; fill-opacity: 0.10;' />
<circle cx='531.19' cy='112.94' r='3.20' style='stroke-width: 0.00; stroke: #444444; stroke-opacity: 0.10; fill: #444444; fill-opacity: 0.10;' />
<circle cx='417.78' cy='110.27' r='3.20' style='stroke-width: 0.00; stroke: #444444; stroke-opacity: 0.10; fill: #444444; fill-opacity: 0.10;' />
<circle cx='434.96' cy='121.77' r='3.20' style='stroke-width: 0.00; stroke: #444444; stroke-opacity: 0.10; fill: #444444; fill-opacity: 0.10;' />
<circle cx='534.59' cy='140.06' r='3.20' style='stroke-width: 0.00; stroke: #444444; stroke-opacity: 0.10; fill: #444444; fill-opacity: 0.10;' />
<circle cx='496.22' cy='99.77' r='3.20' style='stroke-width: 0.00; stroke: #444444; stroke-opacity: 0.10; fill: #444444; fill-opacity: 0.10;' />
<circle cx='420.54' cy='113.47' r='3.20' style='stroke-width: 0.00; stroke: #444444; stroke-opacity: 0.10; fill: #444444; fill-opacity: 0.10;' />
<circle cx='386.86' cy='118.39' r='3.20' style='stroke-width: 0.00; stroke: #444444; stroke-opacity: 0.10; fill: #444444; fill-opacity: 0.10;' />
<circle cx='401.60' cy='112.15' r='3.20' style='stroke-width: 0.00; stroke: #444444; stroke-opacity: 0.10; fill: #444444; fill-opacity: 0.10;' />
<circle cx='449.70' cy='101.19' r='3.20' style='stroke-width: 0.00; stroke: #444444; stroke-opacity: 0.10; fill: #444444; fill-opacity: 0.10;' />
<circle cx='423.54' cy='125.75' r='3.20' style='stroke-width: 0.00; stroke: #444444; stroke-opacity: 0.10; fill: #444444; fill-opacity: 0.10;' />
<circle cx='440.64' cy='125.14' r='3.20' style='stroke-width: 0.00; stroke: #444444; stroke-opacity: 0.10; fill: #444444; fill-opacity: 0.10;' />
<circle cx='441.29' cy='124.02' r='3.20' style='stroke-width: 0.00; stroke: #444444; stroke-opacity: 0.10; fill: #444444; fill-opacity: 0.10;' />
<circle cx='454.30' cy='137.42' r='3.20' style='stroke-width: 0.00; stroke: #444444; stroke-opacity: 0.10; fill: #444444; fill-opacity: 0.10;' />
<circle cx='432.63' cy='124.00' r='3.20' style='stroke-width: 0.00; stroke: #444444; stroke-opacity: 0.10; fill: #444444; fill-opacity: 0.10;' />
<circle cx='475.99' cy='124.88' r='3.20' style='stroke-width: 0.00; stroke: #444444; stroke-opacity: 0.10; fill: #444444; fill-opacity: 0.10;' />
<circle cx='462.24' cy='145.61' r='3.20' style='stroke-width: 0.00; stroke: #444444; stroke-opacity: 0.10; fill: #444444; fill-opacity: 0.10;' />
<circle cx='397.39' cy='124.30' r='3.20' style='stroke-width: 0.00; stroke: #444444; stroke-opacity: 0.10; fill: #444444; fill-opacity: 0.10;' />
<circle cx='277.68' cy='109.45' r='3.20' style='stroke-width: 0.00; stroke: #444444; stroke-opacity: 0.10; fill: #444444; fill-opacity: 0.10;' />
<circle cx='478.54' cy='109.64' r='3.20' style='stroke-width: 0.00; stroke: #444444; stroke-opacity: 0.10; fill: #444444; fill-opacity: 0.10;' />
<circle cx='428.35' cy='139.31' r='3.20' style='stroke-width: 0.00; stroke: #444444; stroke-opacity: 0.10; fill: #444444; fill-opacity: 0.10;' />
<circle cx='187.84' cy='118.05' r='3.20' style='stroke-width: 0.00; stroke: #444444; stroke-opacity: 0.10; fill: #444444; fill-opacity: 0.10;' />
<circle cx='411.65' cy='120.05' r='3.20' style='stroke-width: 0.00; stroke: #444444; stroke-opacity: 0.10; fill: #444444; fill-opacity: 0.10;' />
<circle cx='473.81' cy='126.44' r='3.20' style='stroke-width: 0.00; stroke: #444444; stroke-opacity: 0.10; fill: #444444; fill-opacity: 0.10;' />
<circle cx='445.59' cy='129.16' r='3.20' style='stroke-width: 0.00; stroke: #444444; stroke-opacity: 0.10; fill: #444444; fill-opacity: 0.10;' />
<circle cx='422.31' cy='105.10' r='3.20' style='stroke-width: 0.00; stroke: #444444; stroke-opacity: 0.10; fill: #444444; fill-opacity: 0.10;' />
<circle cx='431.86' cy='127.60' r='3.20' style='stroke-width: 0.00; stroke: #444444; stroke-opacity: 0.10; fill: #444444; fill-opacity: 0.10;' />
<circle cx='457.82' cy='105.95' r='3.20' style='stroke-width: 0.00; stroke: #444444; stroke-opacity: 0.10; fill: #444444; fill-opacity: 0.10;' />
<circle cx='409.67' cy='130.44' r='3.20' style='stroke-width: 0.00; stroke: #444444; stroke-opacity: 0.10; fill: #444444; fill-opacity: 0.10;' />
<circle cx='511.15' cy='124.66' r='3.20' style='stroke-width: 0.00; stroke: #444444; stroke-opacity: 0.10; fill: #444444; fill-opacity: 0.10;' />
<circle cx='489.74' cy='141.49' r='3.20' style='stroke-width: 0.00; stroke: #444444; stroke-opacity: 0.10; fill: #444444; fill-opacity: 0.10;' />
<circle cx='409.87' cy='134.66' r='3.20' style='stroke-width: 0.00; stroke: #444444; stroke-opacity: 0.10; fill: #444444; fill-opacity: 0.10;' />
<circle cx='485.42' cy='143.35' r='3.20' style='stroke-width: 0.00; stroke: #444444; stroke-opacity: 0.10; fill: #444444; fill-opacity: 0.10;' />
<circle cx='398.34' cy='140.20' r='3.20' style='stroke-width: 0.00; stroke: #444444; stroke-opacity: 0.10; fill: #444444; fill-opacity: 0.10;' />
<circle cx='496.13' cy='116.66' r='3.20' style='stroke-width: 0.00; stroke: #444444; stroke-opacity: 0.10; fill: #444444; fill-opacity: 0.10;' />
<circle cx='466.12' cy='144.63' r='3.20' style='stroke-width: 0.00; stroke: #444444; stroke-opacity: 0.10; fill: #444444; fill-opacity: 0.10;' />
<circle cx='468.29' cy='135.68' r='3.20' style='stroke-width: 0.00; stroke: #444444; stroke-opacity: 0.10; fill: #444444; fill-opacity: 0.10;' />
<circle cx='423.03' cy='116.44' r='3.20' style='stroke-width: 0.00; stroke: #444444; stroke-opacity: 0.10; fill: #444444; fill-opacity: 0.10;' />
<circle cx='410.96' cy='145.39' r='3.20' style='stroke-width: 0.00; stroke: #444444; stroke-opacity: 0.10; fill: #444444; fill-opacity: 0.10;' />
<circle cx='441.94' cy='101.32' r='3.20' style='stroke-width: 0.00; stroke: #444444; stroke-opacity: 0.10; fill: #444444; fill-opacity: 0.10;' />
<circle cx='483.09' cy='140.45' r='3.20' style='stroke-width: 0.00; stroke: #444444; stroke-opacity: 0.10; fill: #444444; fill-opacity: 0.10;' />
<circle cx='406.81' cy='132.31' r='3.20' style='stroke-width: 0.00; stroke: #444444; stroke-opacity: 0.10; fill: #444444; fill-opacity: 0.10;' />
<circle cx='442.32' cy='146.17' r='3.20' style='stroke-width: 0.00; stroke: #444444; stroke-opacity: 0.10; fill: #444444; fill-opacity: 0.10;' />
<circle cx='478.20' cy='143.65' r='3.20' style='stroke-width: 0.00; stroke: #444444; stroke-opacity: 0.10; fill: #444444; fill-opacity: 0.10;' />
<circle cx='420.02' cy='99.18' r='3.20' style='stroke-width: 0.00; stroke: #444444; stroke-opacity: 0.10; fill: #444444; fill-opacity: 0.10;' />
<circle cx='434.79' cy='108.88' r='3.20' style='stroke-width: 0.00; stroke: #444444; stroke-opacity: 0.10; fill: #444444; fill-opacity: 0.10;' />
<polygon points='421.74,121.91 430.06,131.07 438.38,121.91 430.06,112.74 421.74,121.91 ' style='stroke-width: 1.07; fill: #000000;' />
<rect x='10.41' y='95.48' width='560.11' height='53.23' style='stroke-width: 1.07; stroke: #333333;' />
</g>
<g clip-path='url(#cpMC4wMHw1NzYuMDB8MC4wMHwxODAuMDA=)'>
<polyline points='7.67,121.91 10.41,121.91 ' style='stroke-width: 1.07; stroke: #333333; stroke-linecap: butt;' />
<polyline points='35.87,151.45 35.87,148.71 ' style='stroke-width: 1.07; stroke: #333333; stroke-linecap: butt;' />
<polyline points='120.74,151.45 120.74,148.71 ' style='stroke-width: 1.07; stroke: #333333; stroke-linecap: butt;' />
<polyline points='205.60,151.45 205.60,148.71 ' style='stroke-width: 1.07; stroke: #333333; stroke-linecap: butt;' />
<polyline points='290.47,151.45 290.47,148.71 ' style='stroke-width: 1.07; stroke: #333333; stroke-linecap: butt;' />
<polyline points='375.33,151.45 375.33,148.71 ' style='stroke-width: 1.07; stroke: #333333; stroke-linecap: butt;' />
<polyline points='460.20,151.45 460.20,148.71 ' style='stroke-width: 1.07; stroke: #333333; stroke-linecap: butt;' />
<polyline points='545.06,151.45 545.06,148.71 ' style='stroke-width: 1.07; stroke: #333333; stroke-linecap: butt;' />
<text x='35.87' y='159.94' text-anchor='middle' style='font-size: 8.80px; fill: #4D4D4D; font-family: Arial;' textLength='4.90px' lengthAdjust='spacingAndGlyphs'>1</text>
<text x='120.74' y='159.94' text-anchor='middle' style='font-size: 8.80px; fill: #4D4D4D; font-family: Arial;' textLength='4.90px' lengthAdjust='spacingAndGlyphs'>2</text>
<text x='205.60' y='159.94' text-anchor='middle' style='font-size: 8.80px; fill: #4D4D4D; font-family: Arial;' textLength='4.90px' lengthAdjust='spacingAndGlyphs'>3</text>
<text x='290.47' y='159.94' text-anchor='middle' style='font-size: 8.80px; fill: #4D4D4D; font-family: Arial;' textLength='4.90px' lengthAdjust='spacingAndGlyphs'>4</text>
<text x='375.33' y='159.94' text-anchor='middle' style='font-size: 8.80px; fill: #4D4D4D; font-family: Arial;' textLength='4.90px' lengthAdjust='spacingAndGlyphs'>5</text>
<text x='460.20' y='159.94' text-anchor='middle' style='font-size: 8.80px; fill: #4D4D4D; font-family: Arial;' textLength='4.90px' lengthAdjust='spacingAndGlyphs'>6</text>
<text x='545.06' y='159.94' text-anchor='middle' style='font-size: 8.80px; fill: #4D4D4D; font-family: Arial;' textLength='4.90px' lengthAdjust='spacingAndGlyphs'>7</text>
<text x='290.47' y='172.36' text-anchor='middle' style='font-size: 11.00px; font-family: Arial;' textLength='91.75px' lengthAdjust='spacingAndGlyphs'>Scores and means</text>
</g>
</svg>
