<?xml version='1.0' encoding='UTF-8' ?>
<svg xmlns='http://www.w3.org/2000/svg' xmlns:xlink='http://www.w3.org/1999/xlink' class='svglite' width='566.93pt' height='340.16pt' viewBox='0 0 566.93 340.16'>
<defs>
  <style type='text/css'><![CDATA[
    .svglite line, .svglite polyline, .svglite polygon, .svglite path, .svglite rect, .svglite circle {
      fill: none;
      stroke: #000000;
      stroke-linecap: round;
      stroke-linejoin: round;
      stroke-miterlimit: 10.00;
    }
  ]]></style>
</defs>
<rect width='100%' height='100%' style='stroke: none; fill: none;'/>
<defs>
  <clipPath id='cpMC4wMHw1NjYuOTN8MC4wMHwzNDAuMTY='>
    <rect x='0.00' y='0.00' width='566.93' height='340.16' />
  </clipPath>
</defs>
<g clip-path='url(#cpMC4wMHw1NjYuOTN8MC4wMHwzNDAuMTY=)'>
</g>
<defs>
  <clipPath id='cpMTQwLjUzfDU2MS40NXw1LjQ4fDI1OS42NA=='>
    <rect x='140.53' y='5.48' width='420.92' height='254.16' />
  </clipPath>
</defs>
<g clip-path='url(#cpMTQwLjUzfDU2MS40NXw1LjQ4fDI1OS42NA==)'>
<polyline points='207.49,259.64 207.49,5.48 ' style='stroke-width: 0.53; stroke: #EBEBEB; stroke-linecap: butt;' />
<polyline points='303.16,259.64 303.16,5.48 ' style='stroke-width: 0.53; stroke: #EBEBEB; stroke-linecap: butt;' />
<polyline points='398.82,259.64 398.82,5.48 ' style='stroke-width: 0.53; stroke: #EBEBEB; stroke-linecap: butt;' />
<polyline points='494.49,259.64 494.49,5.48 ' style='stroke-width: 0.53; stroke: #EBEBEB; stroke-linecap: butt;' />
<polyline points='140.53,241.04 561.45,241.04 ' style='stroke-width: 1.07; stroke: #EBEBEB; stroke-linecap: butt;' />
<polyline points='140.53,210.05 561.45,210.05 ' style='stroke-width: 1.07; stroke: #EBEBEB; stroke-linecap: butt;' />
<polyline points='140.53,179.05 561.45,179.05 ' style='stroke-width: 1.07; stroke: #EBEBEB; stroke-linecap: butt;' />
<polyline points='140.53,148.06 561.45,148.06 ' style='stroke-width: 1.07; stroke: #EBEBEB; stroke-linecap: butt;' />
<polyline points='140.53,117.06 561.45,117.06 ' style='stroke-width: 1.07; stroke: #EBEBEB; stroke-linecap: butt;' />
<polyline points='140.53,86.07 561.45,86.07 ' style='stroke-width: 1.07; stroke: #EBEBEB; stroke-linecap: butt;' />
<polyline points='140.53,55.07 561.45,55.07 ' style='stroke-width: 1.07; stroke: #EBEBEB; stroke-linecap: butt;' />
<polyline points='140.53,24.08 561.45,24.08 ' style='stroke-width: 1.07; stroke: #EBEBEB; stroke-linecap: butt;' />
<polyline points='159.66,259.64 159.66,5.48 ' style='stroke-width: 1.07; stroke: #EBEBEB; stroke-linecap: butt;' />
<polyline points='255.33,259.64 255.33,5.48 ' style='stroke-width: 1.07; stroke: #EBEBEB; stroke-linecap: butt;' />
<polyline points='350.99,259.64 350.99,5.48 ' style='stroke-width: 1.07; stroke: #EBEBEB; stroke-linecap: butt;' />
<polyline points='446.65,259.64 446.65,5.48 ' style='stroke-width: 1.07; stroke: #EBEBEB; stroke-linecap: butt;' />
<polyline points='542.32,259.64 542.32,5.48 ' style='stroke-width: 1.07; stroke: #EBEBEB; stroke-linecap: butt;' />
<rect x='159.66' y='227.09' width='16.45' height='27.90' style='stroke-width: 1.07; stroke: none; stroke-linecap: square; stroke-linejoin: miter; fill: #440154;' />
<rect x='176.11' y='227.09' width='17.65' height='27.90' style='stroke-width: 1.07; stroke: none; stroke-linecap: square; stroke-linejoin: miter; fill: #460C5F;' />
<rect x='193.76' y='227.09' width='35.30' height='27.90' style='stroke-width: 1.07; stroke: none; stroke-linecap: square; stroke-linejoin: miter; fill: #481769;' />
<rect x='229.05' y='227.09' width='28.88' height='27.90' style='stroke-width: 1.07; stroke: none; stroke-linecap: square; stroke-linejoin: miter; fill: #482071;' />
<rect x='257.93' y='227.09' width='21.66' height='27.90' style='stroke-width: 1.07; stroke: none; stroke-linecap: square; stroke-linejoin: miter; fill: #482979;' />
<rect x='279.59' y='227.09' width='16.04' height='27.90' style='stroke-width: 1.07; stroke: none; stroke-linecap: square; stroke-linejoin: miter; fill: #46337E;' />
<rect x='295.64' y='227.09' width='95.46' height='27.90' style='stroke-width: 1.07; stroke: none; stroke-linecap: square; stroke-linejoin: miter; fill: #443B84;' />
<rect x='391.10' y='227.09' width='2.41' height='27.90' style='stroke-width: 1.07; stroke: none; stroke-linecap: square; stroke-linejoin: miter; fill: #414487;' />
<rect x='393.51' y='227.09' width='3.21' height='27.90' style='stroke-width: 1.07; stroke: none; stroke-linecap: square; stroke-linejoin: miter; fill: #3E4C8A;' />
<rect x='396.72' y='227.09' width='0.80' height='27.90' style='stroke-width: 1.07; stroke: none; stroke-linecap: square; stroke-linejoin: miter; fill: #3A548C;' />
<rect x='397.52' y='227.09' width='3.61' height='27.90' style='stroke-width: 1.07; stroke: none; stroke-linecap: square; stroke-linejoin: miter; fill: #365C8D;' />
<rect x='401.13' y='227.09' width='0.40' height='27.90' style='stroke-width: 1.07; stroke: none; stroke-linecap: square; stroke-linejoin: miter; fill: #33638D;' />
<rect x='401.53' y='227.09' width='65.78' height='27.90' style='stroke-width: 1.07; stroke: none; stroke-linecap: square; stroke-linejoin: miter; fill: #306A8E;' />
<rect x='467.31' y='227.09' width='1.20' height='27.90' style='stroke-width: 1.07; stroke: none; stroke-linecap: square; stroke-linejoin: miter; fill: #2C718E;' />
<rect x='468.51' y='227.09' width='0.40' height='27.90' style='stroke-width: 1.07; stroke: none; stroke-linecap: square; stroke-linejoin: miter; fill: #2A788E;' />
<rect x='468.91' y='227.09' width='21.66' height='27.90' style='stroke-width: 1.07; stroke: none; stroke-linecap: square; stroke-linejoin: miter; fill: #277F8E;' />
<rect x='490.57' y='227.09' width='0.40' height='27.90' style='stroke-width: 1.07; stroke: none; stroke-linecap: square; stroke-linejoin: miter; fill: #24868E;' />
<rect x='490.98' y='227.09' width='8.02' height='27.90' style='stroke-width: 1.07; stroke: none; stroke-linecap: square; stroke-linejoin: miter; fill: #228D8D;' />
<rect x='499.00' y='227.09' width='26.47' height='27.90' style='stroke-width: 1.07; stroke: none; stroke-linecap: square; stroke-linejoin: miter; fill: #20938C;' />
<rect x='525.47' y='227.09' width='4.41' height='27.90' style='stroke-width: 1.07; stroke: none; stroke-linecap: square; stroke-linejoin: miter; fill: #1F9A8A;' />
<rect x='529.88' y='227.09' width='0.40' height='27.90' style='stroke-width: 1.07; stroke: none; stroke-linecap: square; stroke-linejoin: miter; fill: #1FA187;' />
<rect x='530.28' y='227.09' width='2.81' height='27.90' style='stroke-width: 1.07; stroke: none; stroke-linecap: square; stroke-linejoin: miter; fill: #22A884;' />
<rect x='533.09' y='227.09' width='0.40' height='27.90' style='stroke-width: 1.07; stroke: none; stroke-linecap: square; stroke-linejoin: miter; fill: #28AE80;' />
<rect x='533.49' y='227.09' width='6.02' height='27.90' style='stroke-width: 1.07; stroke: none; stroke-linecap: square; stroke-linejoin: miter; fill: #32B67A;' />
<rect x='539.51' y='227.09' width='0.40' height='27.90' style='stroke-width: 1.07; stroke: none; stroke-linecap: square; stroke-linejoin: miter; fill: #3DBC74;' />
<rect x='539.91' y='227.09' width='1.60' height='27.90' style='stroke-width: 1.07; stroke: none; stroke-linecap: square; stroke-linejoin: miter; fill: #4AC16D;' />
<rect x='541.51' y='227.09' width='0.40' height='27.90' style='stroke-width: 1.07; stroke: none; stroke-linecap: square; stroke-linejoin: miter; fill: #59C864;' />
<rect x='541.92' y='227.09' width='0.40' height='27.90' style='stroke-width: 1.07; stroke: none; stroke-linecap: square; stroke-linejoin: miter; fill: #68CD5B;' />
<rect x='159.66' y='196.10' width='52.71' height='27.90' style='stroke-width: 1.07; stroke: none; stroke-linecap: square; stroke-linejoin: miter; fill: #440154;' />
<rect x='539.50' y='196.10' width='0.40' height='27.90' style='stroke-width: 1.07; stroke: none; stroke-linecap: square; stroke-linejoin: miter; fill: #7AD151;' />
<rect x='212.37' y='196.10' width='37.82' height='27.90' style='stroke-width: 1.07; stroke: none; stroke-linecap: square; stroke-linejoin: miter; fill: #460C5F;' />
<rect x='250.20' y='196.10' width='27.76' height='27.90' style='stroke-width: 1.07; stroke: none; stroke-linecap: square; stroke-linejoin: miter; fill: #481769;' />
<rect x='277.96' y='196.10' width='20.92' height='27.90' style='stroke-width: 1.07; stroke: none; stroke-linecap: square; stroke-linejoin: miter; fill: #482071;' />
<rect x='298.88' y='196.10' width='9.25' height='27.90' style='stroke-width: 1.07; stroke: none; stroke-linecap: square; stroke-linejoin: miter; fill: #482979;' />
<rect x='308.14' y='196.10' width='5.23' height='27.90' style='stroke-width: 1.07; stroke: none; stroke-linecap: square; stroke-linejoin: miter; fill: #46337E;' />
<rect x='313.37' y='196.10' width='56.73' height='27.90' style='stroke-width: 1.07; stroke: none; stroke-linecap: square; stroke-linejoin: miter; fill: #443B84;' />
<rect x='370.10' y='196.10' width='2.41' height='27.90' style='stroke-width: 1.07; stroke: none; stroke-linecap: square; stroke-linejoin: miter; fill: #414487;' />
<rect x='372.52' y='196.10' width='2.01' height='27.90' style='stroke-width: 1.07; stroke: none; stroke-linecap: square; stroke-linejoin: miter; fill: #3E4C8A;' />
<rect x='374.53' y='196.10' width='7.65' height='27.90' style='stroke-width: 1.07; stroke: none; stroke-linecap: square; stroke-linejoin: miter; fill: #365C8D;' />
<rect x='382.17' y='196.10' width='43.86' height='27.90' style='stroke-width: 1.07; stroke: none; stroke-linecap: square; stroke-linejoin: miter; fill: #306A8E;' />
<rect x='539.90' y='196.10' width='0.40' height='27.90' style='stroke-width: 1.07; stroke: none; stroke-linecap: square; stroke-linejoin: miter; fill: #8CD646;' />
<rect x='540.31' y='196.10' width='0.40' height='27.90' style='stroke-width: 1.07; stroke: none; stroke-linecap: square; stroke-linejoin: miter; fill: #9FDA3A;' />
<rect x='426.03' y='196.10' width='1.21' height='27.90' style='stroke-width: 1.07; stroke: none; stroke-linecap: square; stroke-linejoin: miter; fill: #2C718E;' />
<rect x='427.24' y='196.10' width='19.72' height='27.90' style='stroke-width: 1.07; stroke: none; stroke-linecap: square; stroke-linejoin: miter; fill: #277F8E;' />
<rect x='446.96' y='196.10' width='2.01' height='27.90' style='stroke-width: 1.07; stroke: none; stroke-linecap: square; stroke-linejoin: miter; fill: #24868E;' />
<rect x='448.97' y='196.10' width='11.27' height='27.90' style='stroke-width: 1.07; stroke: none; stroke-linecap: square; stroke-linejoin: miter; fill: #228D8D;' />
<rect x='460.23' y='196.10' width='47.88' height='27.90' style='stroke-width: 1.07; stroke: none; stroke-linecap: square; stroke-linejoin: miter; fill: #20938C;' />
<rect x='508.12' y='196.10' width='3.62' height='27.90' style='stroke-width: 1.07; stroke: none; stroke-linecap: square; stroke-linejoin: miter; fill: #1F9A8A;' />
<rect x='511.74' y='196.10' width='2.82' height='27.90' style='stroke-width: 1.07; stroke: none; stroke-linecap: square; stroke-linejoin: miter; fill: #22A884;' />
<rect x='514.55' y='196.10' width='0.40' height='27.90' style='stroke-width: 1.07; stroke: none; stroke-linecap: square; stroke-linejoin: miter; fill: #28AE80;' />
<rect x='540.71' y='196.10' width='0.80' height='27.90' style='stroke-width: 1.07; stroke: none; stroke-linecap: square; stroke-linejoin: miter; fill: #B2DD2D;' />
<rect x='514.96' y='196.10' width='18.11' height='27.90' style='stroke-width: 1.07; stroke: none; stroke-linecap: square; stroke-linejoin: miter; fill: #32B67A;' />
<rect x='533.06' y='196.10' width='0.80' height='27.90' style='stroke-width: 1.07; stroke: none; stroke-linecap: square; stroke-linejoin: miter; fill: #3DBC74;' />
<rect x='533.87' y='196.10' width='4.83' height='27.90' style='stroke-width: 1.07; stroke: none; stroke-linecap: square; stroke-linejoin: miter; fill: #4AC16D;' />
<rect x='541.51' y='196.10' width='0.40' height='27.90' style='stroke-width: 1.07; stroke: none; stroke-linecap: square; stroke-linejoin: miter; fill: #C5E021;' />
<rect x='541.91' y='196.10' width='0.40' height='27.90' style='stroke-width: 1.07; stroke: none; stroke-linecap: square; stroke-linejoin: miter; fill: #D9E219;' />
<rect x='538.70' y='196.10' width='0.80' height='27.90' style='stroke-width: 1.07; stroke: none; stroke-linecap: square; stroke-linejoin: miter; fill: #59C864;' />
<rect x='159.66' y='165.10' width='121.11' height='27.90' style='stroke-width: 1.07; stroke: none; stroke-linecap: square; stroke-linejoin: miter; fill: #440154;' />
<rect x='541.51' y='165.10' width='0.40' height='27.90' style='stroke-width: 1.07; stroke: none; stroke-linecap: square; stroke-linejoin: miter; fill: #7AD151;' />
<rect x='280.78' y='165.10' width='41.85' height='27.90' style='stroke-width: 1.07; stroke: none; stroke-linecap: square; stroke-linejoin: miter; fill: #460C5F;' />
<rect x='322.62' y='165.10' width='30.98' height='27.90' style='stroke-width: 1.07; stroke: none; stroke-linecap: square; stroke-linejoin: miter; fill: #481769;' />
<rect x='353.60' y='165.10' width='20.92' height='27.90' style='stroke-width: 1.07; stroke: none; stroke-linecap: square; stroke-linejoin: miter; fill: #482071;' />
<rect x='374.53' y='165.10' width='15.29' height='27.90' style='stroke-width: 1.07; stroke: none; stroke-linecap: square; stroke-linejoin: miter; fill: #482979;' />
<rect x='389.82' y='165.10' width='8.05' height='27.90' style='stroke-width: 1.07; stroke: none; stroke-linecap: square; stroke-linejoin: miter; fill: #46337E;' />
<rect x='397.87' y='165.10' width='63.57' height='27.90' style='stroke-width: 1.07; stroke: none; stroke-linecap: square; stroke-linejoin: miter; fill: #443B84;' />
<rect x='461.44' y='165.10' width='0.40' height='27.90' style='stroke-width: 1.07; stroke: none; stroke-linecap: square; stroke-linejoin: miter; fill: #414487;' />
<rect x='461.84' y='165.10' width='2.01' height='27.90' style='stroke-width: 1.07; stroke: none; stroke-linecap: square; stroke-linejoin: miter; fill: #3E4C8A;' />
<rect x='463.85' y='165.10' width='3.22' height='27.90' style='stroke-width: 1.07; stroke: none; stroke-linecap: square; stroke-linejoin: miter; fill: #365C8D;' />
<rect x='467.07' y='165.10' width='34.60' height='27.90' style='stroke-width: 1.07; stroke: none; stroke-linecap: square; stroke-linejoin: miter; fill: #306A8E;' />
<rect x='501.68' y='165.10' width='13.28' height='27.90' style='stroke-width: 1.07; stroke: none; stroke-linecap: square; stroke-linejoin: miter; fill: #277F8E;' />
<rect x='514.96' y='165.10' width='0.40' height='27.90' style='stroke-width: 1.07; stroke: none; stroke-linecap: square; stroke-linejoin: miter; fill: #24868E;' />
<rect x='515.36' y='165.10' width='2.41' height='27.90' style='stroke-width: 1.07; stroke: none; stroke-linecap: square; stroke-linejoin: miter; fill: #228D8D;' />
<rect x='517.77' y='165.10' width='16.90' height='27.90' style='stroke-width: 1.07; stroke: none; stroke-linecap: square; stroke-linejoin: miter; fill: #20938C;' />
<rect x='534.67' y='165.10' width='0.40' height='27.90' style='stroke-width: 1.07; stroke: none; stroke-linecap: square; stroke-linejoin: miter; fill: #1F9A8A;' />
<rect x='535.07' y='165.10' width='0.80' height='27.90' style='stroke-width: 1.07; stroke: none; stroke-linecap: square; stroke-linejoin: miter; fill: #22A884;' />
<rect x='541.91' y='165.10' width='0.40' height='27.90' style='stroke-width: 1.07; stroke: none; stroke-linecap: square; stroke-linejoin: miter; fill: #B2DD2D;' />
<rect x='535.88' y='165.10' width='4.43' height='27.90' style='stroke-width: 1.07; stroke: none; stroke-linecap: square; stroke-linejoin: miter; fill: #32B67A;' />
<rect x='540.31' y='165.10' width='0.40' height='27.90' style='stroke-width: 1.07; stroke: none; stroke-linecap: square; stroke-linejoin: miter; fill: #4AC16D;' />
<rect x='540.71' y='165.10' width='0.40' height='27.90' style='stroke-width: 1.07; stroke: none; stroke-linecap: square; stroke-linejoin: miter; fill: #59C864;' />
<rect x='541.11' y='165.10' width='0.40' height='27.90' style='stroke-width: 1.07; stroke: none; stroke-linecap: square; stroke-linejoin: miter; fill: #68CD5B;' />
<rect x='159.66' y='134.11' width='185.87' height='27.90' style='stroke-width: 1.07; stroke: none; stroke-linecap: square; stroke-linejoin: miter; fill: #440154;' />
<rect x='541.10' y='134.11' width='0.40' height='27.90' style='stroke-width: 1.07; stroke: none; stroke-linecap: square; stroke-linejoin: miter; fill: #7AD151;' />
<rect x='345.53' y='134.11' width='80.81' height='27.90' style='stroke-width: 1.07; stroke: none; stroke-linecap: square; stroke-linejoin: miter; fill: #460C5F;' />
<rect x='426.35' y='134.11' width='44.85' height='27.90' style='stroke-width: 1.07; stroke: none; stroke-linecap: square; stroke-linejoin: miter; fill: #481769;' />
<rect x='471.20' y='134.11' width='16.16' height='27.90' style='stroke-width: 1.07; stroke: none; stroke-linecap: square; stroke-linejoin: miter; fill: #482071;' />
<rect x='487.36' y='134.11' width='6.87' height='27.90' style='stroke-width: 1.07; stroke: none; stroke-linecap: square; stroke-linejoin: miter; fill: #482979;' />
<rect x='494.23' y='134.11' width='3.64' height='27.90' style='stroke-width: 1.07; stroke: none; stroke-linecap: square; stroke-linejoin: miter; fill: #46337E;' />
<rect x='497.87' y='134.11' width='24.24' height='27.90' style='stroke-width: 1.07; stroke: none; stroke-linecap: square; stroke-linejoin: miter; fill: #443B84;' />
<rect x='522.11' y='134.11' width='0.40' height='27.90' style='stroke-width: 1.07; stroke: none; stroke-linecap: square; stroke-linejoin: miter; fill: #414487;' />
<rect x='522.52' y='134.11' width='0.81' height='27.90' style='stroke-width: 1.07; stroke: none; stroke-linecap: square; stroke-linejoin: miter; fill: #3E4C8A;' />
<rect x='523.33' y='134.11' width='0.81' height='27.90' style='stroke-width: 1.07; stroke: none; stroke-linecap: square; stroke-linejoin: miter; fill: #3A548C;' />
<rect x='524.13' y='134.11' width='0.81' height='27.90' style='stroke-width: 1.07; stroke: none; stroke-linecap: square; stroke-linejoin: miter; fill: #365C8D;' />
<rect x='524.94' y='134.11' width='10.91' height='27.90' style='stroke-width: 1.07; stroke: none; stroke-linecap: square; stroke-linejoin: miter; fill: #306A8E;' />
<rect x='535.85' y='134.11' width='1.62' height='27.90' style='stroke-width: 1.07; stroke: none; stroke-linecap: square; stroke-linejoin: miter; fill: #277F8E;' />
<rect x='537.47' y='134.11' width='1.21' height='27.90' style='stroke-width: 1.07; stroke: none; stroke-linecap: square; stroke-linejoin: miter; fill: #228D8D;' />
<rect x='538.68' y='134.11' width='1.21' height='27.90' style='stroke-width: 1.07; stroke: none; stroke-linecap: square; stroke-linejoin: miter; fill: #20938C;' />
<rect x='539.89' y='134.11' width='0.81' height='27.90' style='stroke-width: 1.07; stroke: none; stroke-linecap: square; stroke-linejoin: miter; fill: #1F9A8A;' />
<rect x='541.91' y='134.11' width='0.40' height='27.90' style='stroke-width: 1.07; stroke: none; stroke-linecap: square; stroke-linejoin: miter; fill: #EBE51B;' />
<rect x='541.51' y='134.11' width='0.40' height='27.90' style='stroke-width: 1.07; stroke: none; stroke-linecap: square; stroke-linejoin: miter; fill: #B2DD2D;' />
<rect x='540.70' y='134.11' width='0.40' height='27.90' style='stroke-width: 1.07; stroke: none; stroke-linecap: square; stroke-linejoin: miter; fill: #32B67A;' />
<rect x='159.66' y='103.11' width='128.09' height='27.90' style='stroke-width: 1.07; stroke: none; stroke-linecap: square; stroke-linejoin: miter; fill: #440154;' />
<rect x='541.91' y='103.11' width='0.40' height='27.90' style='stroke-width: 1.07; stroke: none; stroke-linecap: square; stroke-linejoin: miter; fill: #7AD151;' />
<rect x='287.75' y='103.11' width='88.21' height='27.90' style='stroke-width: 1.07; stroke: none; stroke-linecap: square; stroke-linejoin: miter; fill: #460C5F;' />
<rect x='375.96' y='103.11' width='48.34' height='27.90' style='stroke-width: 1.07; stroke: none; stroke-linecap: square; stroke-linejoin: miter; fill: #481769;' />
<rect x='424.30' y='103.11' width='26.18' height='27.90' style='stroke-width: 1.07; stroke: none; stroke-linecap: square; stroke-linejoin: miter; fill: #482071;' />
<rect x='450.48' y='103.11' width='12.49' height='27.90' style='stroke-width: 1.07; stroke: none; stroke-linecap: square; stroke-linejoin: miter; fill: #482979;' />
<rect x='462.97' y='103.11' width='6.85' height='27.90' style='stroke-width: 1.07; stroke: none; stroke-linecap: square; stroke-linejoin: miter; fill: #46337E;' />
<rect x='469.81' y='103.11' width='45.92' height='27.90' style='stroke-width: 1.07; stroke: none; stroke-linecap: square; stroke-linejoin: miter; fill: #443B84;' />
<rect x='515.73' y='103.11' width='2.01' height='27.90' style='stroke-width: 1.07; stroke: none; stroke-linecap: square; stroke-linejoin: miter; fill: #3E4C8A;' />
<rect x='517.75' y='103.11' width='1.21' height='27.90' style='stroke-width: 1.07; stroke: none; stroke-linecap: square; stroke-linejoin: miter; fill: #365C8D;' />
<rect x='518.95' y='103.11' width='14.90' height='27.90' style='stroke-width: 1.07; stroke: none; stroke-linecap: square; stroke-linejoin: miter; fill: #306A8E;' />
<rect x='533.86' y='103.11' width='2.42' height='27.90' style='stroke-width: 1.07; stroke: none; stroke-linecap: square; stroke-linejoin: miter; fill: #277F8E;' />
<rect x='536.28' y='103.11' width='0.40' height='27.90' style='stroke-width: 1.07; stroke: none; stroke-linecap: square; stroke-linejoin: miter; fill: #24868E;' />
<rect x='536.68' y='103.11' width='2.01' height='27.90' style='stroke-width: 1.07; stroke: none; stroke-linecap: square; stroke-linejoin: miter; fill: #228D8D;' />
<rect x='538.69' y='103.11' width='1.61' height='27.90' style='stroke-width: 1.07; stroke: none; stroke-linecap: square; stroke-linejoin: miter; fill: #20938C;' />
<rect x='540.30' y='103.11' width='1.21' height='27.90' style='stroke-width: 1.07; stroke: none; stroke-linecap: square; stroke-linejoin: miter; fill: #1F9A8A;' />
<rect x='541.51' y='103.11' width='0.40' height='27.90' style='stroke-width: 1.07; stroke: none; stroke-linecap: square; stroke-linejoin: miter; fill: #3DBC74;' />
<rect x='159.66' y='72.12' width='165.32' height='27.90' style='stroke-width: 1.07; stroke: none; stroke-linecap: square; stroke-linejoin: miter; fill: #440154;' />
<rect x='324.98' y='72.12' width='96.37' height='27.90' style='stroke-width: 1.07; stroke: none; stroke-linecap: square; stroke-linejoin: miter; fill: #460C5F;' />
<rect x='421.35' y='72.12' width='34.27' height='27.90' style='stroke-width: 1.07; stroke: none; stroke-linecap: square; stroke-linejoin: miter; fill: #481769;' />
<rect x='455.62' y='72.12' width='22.98' height='27.90' style='stroke-width: 1.07; stroke: none; stroke-linecap: square; stroke-linejoin: miter; fill: #482071;' />
<rect x='478.61' y='72.12' width='10.08' height='27.90' style='stroke-width: 1.07; stroke: none; stroke-linecap: square; stroke-linejoin: miter; fill: #482979;' />
<rect x='488.69' y='72.12' width='6.05' height='27.90' style='stroke-width: 1.07; stroke: none; stroke-linecap: square; stroke-linejoin: miter; fill: #46337E;' />
<rect x='494.74' y='72.12' width='31.85' height='27.90' style='stroke-width: 1.07; stroke: none; stroke-linecap: square; stroke-linejoin: miter; fill: #443B84;' />
<rect x='526.59' y='72.12' width='0.40' height='27.90' style='stroke-width: 1.07; stroke: none; stroke-linecap: square; stroke-linejoin: miter; fill: #414487;' />
<rect x='526.99' y='72.12' width='0.40' height='27.90' style='stroke-width: 1.07; stroke: none; stroke-linecap: square; stroke-linejoin: miter; fill: #3E4C8A;' />
<rect x='527.40' y='72.12' width='0.40' height='27.90' style='stroke-width: 1.07; stroke: none; stroke-linecap: square; stroke-linejoin: miter; fill: #3A548C;' />
<rect x='527.80' y='72.12' width='0.40' height='27.90' style='stroke-width: 1.07; stroke: none; stroke-linecap: square; stroke-linejoin: miter; fill: #365C8D;' />
<rect x='528.20' y='72.12' width='9.27' height='27.90' style='stroke-width: 1.07; stroke: none; stroke-linecap: square; stroke-linejoin: miter; fill: #306A8E;' />
<rect x='537.48' y='72.12' width='2.42' height='27.90' style='stroke-width: 1.07; stroke: none; stroke-linecap: square; stroke-linejoin: miter; fill: #277F8E;' />
<rect x='539.90' y='72.12' width='0.40' height='27.90' style='stroke-width: 1.07; stroke: none; stroke-linecap: square; stroke-linejoin: miter; fill: #24868E;' />
<rect x='540.30' y='72.12' width='0.81' height='27.90' style='stroke-width: 1.07; stroke: none; stroke-linecap: square; stroke-linejoin: miter; fill: #228D8D;' />
<rect x='541.11' y='72.12' width='0.81' height='27.90' style='stroke-width: 1.07; stroke: none; stroke-linecap: square; stroke-linejoin: miter; fill: #20938C;' />
<rect x='541.91' y='72.12' width='0.40' height='27.90' style='stroke-width: 1.07; stroke: none; stroke-linecap: square; stroke-linejoin: miter; fill: #59C864;' />
<rect x='159.66' y='41.12' width='172.82' height='27.90' style='stroke-width: 1.07; stroke: none; stroke-linecap: square; stroke-linejoin: miter; fill: #440154;' />
<rect x='332.49' y='41.12' width='92.72' height='27.90' style='stroke-width: 1.07; stroke: none; stroke-linecap: square; stroke-linejoin: miter; fill: #460C5F;' />
<rect x='425.20' y='41.12' width='42.29' height='27.90' style='stroke-width: 1.07; stroke: none; stroke-linecap: square; stroke-linejoin: miter; fill: #481769;' />
<rect x='467.49' y='41.12' width='18.71' height='27.90' style='stroke-width: 1.07; stroke: none; stroke-linecap: square; stroke-linejoin: miter; fill: #482071;' />
<rect x='486.20' y='41.12' width='4.88' height='27.90' style='stroke-width: 1.07; stroke: none; stroke-linecap: square; stroke-linejoin: miter; fill: #482979;' />
<rect x='491.08' y='41.12' width='3.25' height='27.90' style='stroke-width: 1.07; stroke: none; stroke-linecap: square; stroke-linejoin: miter; fill: #46337E;' />
<rect x='494.33' y='41.12' width='31.31' height='27.90' style='stroke-width: 1.07; stroke: none; stroke-linecap: square; stroke-linejoin: miter; fill: #443B84;' />
<rect x='525.64' y='41.12' width='0.41' height='27.90' style='stroke-width: 1.07; stroke: none; stroke-linecap: square; stroke-linejoin: miter; fill: #414487;' />
<rect x='526.05' y='41.12' width='0.81' height='27.90' style='stroke-width: 1.07; stroke: none; stroke-linecap: square; stroke-linejoin: miter; fill: #3E4C8A;' />
<rect x='526.86' y='41.12' width='9.76' height='27.90' style='stroke-width: 1.07; stroke: none; stroke-linecap: square; stroke-linejoin: miter; fill: #306A8E;' />
<rect x='536.62' y='41.12' width='1.22' height='27.90' style='stroke-width: 1.07; stroke: none; stroke-linecap: square; stroke-linejoin: miter; fill: #277F8E;' />
<rect x='541.91' y='41.12' width='0.41' height='27.90' style='stroke-width: 1.07; stroke: none; stroke-linecap: square; stroke-linejoin: miter; fill: #FDE725;' />
<rect x='537.84' y='41.12' width='0.41' height='27.90' style='stroke-width: 1.07; stroke: none; stroke-linecap: square; stroke-linejoin: miter; fill: #24868E;' />
<rect x='538.25' y='41.12' width='1.22' height='27.90' style='stroke-width: 1.07; stroke: none; stroke-linecap: square; stroke-linejoin: miter; fill: #228D8D;' />
<rect x='539.47' y='41.12' width='2.03' height='27.90' style='stroke-width: 1.07; stroke: none; stroke-linecap: square; stroke-linejoin: miter; fill: #20938C;' />
<rect x='541.50' y='41.12' width='0.41' height='27.90' style='stroke-width: 1.07; stroke: none; stroke-linecap: square; stroke-linejoin: miter; fill: #1F9A8A;' />
<rect x='159.66' y='10.13' width='133.08' height='27.90' style='stroke-width: 1.07; stroke: none; stroke-linecap: square; stroke-linejoin: miter; fill: #440154;' />
<rect x='292.74' y='10.13' width='100.32' height='27.90' style='stroke-width: 1.07; stroke: none; stroke-linecap: square; stroke-linejoin: miter; fill: #460C5F;' />
<rect x='393.06' y='10.13' width='54.20' height='27.90' style='stroke-width: 1.07; stroke: none; stroke-linecap: square; stroke-linejoin: miter; fill: #481769;' />
<rect x='447.26' y='10.13' width='21.84' height='27.90' style='stroke-width: 1.07; stroke: none; stroke-linecap: square; stroke-linejoin: miter; fill: #482071;' />
<rect x='469.10' y='10.13' width='14.16' height='27.90' style='stroke-width: 1.07; stroke: none; stroke-linecap: square; stroke-linejoin: miter; fill: #482979;' />
<rect x='483.26' y='10.13' width='8.09' height='27.90' style='stroke-width: 1.07; stroke: none; stroke-linecap: square; stroke-linejoin: miter; fill: #46337E;' />
<rect x='491.35' y='10.13' width='31.55' height='27.90' style='stroke-width: 1.07; stroke: none; stroke-linecap: square; stroke-linejoin: miter; fill: #443B84;' />
<rect x='522.90' y='10.13' width='1.21' height='27.90' style='stroke-width: 1.07; stroke: none; stroke-linecap: square; stroke-linejoin: miter; fill: #414487;' />
<rect x='524.11' y='10.13' width='2.02' height='27.90' style='stroke-width: 1.07; stroke: none; stroke-linecap: square; stroke-linejoin: miter; fill: #3E4C8A;' />
<rect x='526.14' y='10.13' width='1.21' height='27.90' style='stroke-width: 1.07; stroke: none; stroke-linecap: square; stroke-linejoin: miter; fill: #365C8D;' />
<rect x='527.35' y='10.13' width='9.71' height='27.90' style='stroke-width: 1.07; stroke: none; stroke-linecap: square; stroke-linejoin: miter; fill: #306A8E;' />
<rect x='537.06' y='10.13' width='4.04' height='27.90' style='stroke-width: 1.07; stroke: none; stroke-linecap: square; stroke-linejoin: miter; fill: #277F8E;' />
<rect x='541.10' y='10.13' width='0.81' height='27.90' style='stroke-width: 1.07; stroke: none; stroke-linecap: square; stroke-linejoin: miter; fill: #228D8D;' />
<rect x='541.91' y='10.13' width='0.40' height='27.90' style='stroke-width: 1.07; stroke: none; stroke-linecap: square; stroke-linejoin: miter; fill: #20938C;' />
<text x='167.88' y='238.98' text-anchor='middle' style='font-size: 5.69px; fill: #FFFFFF; font-family: Arial;' textLength='6.32px' lengthAdjust='spacingAndGlyphs'>41</text>
<text x='167.88' y='247.18' text-anchor='middle' style='font-size: 5.69px; fill: #FFFFFF; font-family: Arial;' textLength='12.00px' lengthAdjust='spacingAndGlyphs'>(4%)</text>
<text x='184.93' y='238.98' text-anchor='middle' style='font-size: 5.69px; fill: #FFFFFF; font-family: Arial;' textLength='6.32px' lengthAdjust='spacingAndGlyphs'>44</text>
<text x='184.93' y='247.18' text-anchor='middle' style='font-size: 5.69px; fill: #FFFFFF; font-family: Arial;' textLength='12.00px' lengthAdjust='spacingAndGlyphs'>(5%)</text>
<text x='211.40' y='238.98' text-anchor='middle' style='font-size: 5.69px; fill: #FFFFFF; font-family: Arial;' textLength='6.32px' lengthAdjust='spacingAndGlyphs'>88</text>
<text x='211.40' y='247.18' text-anchor='middle' style='font-size: 5.69px; fill: #FFFFFF; font-family: Arial;' textLength='12.00px' lengthAdjust='spacingAndGlyphs'>(9%)</text>
<text x='243.49' y='238.98' text-anchor='middle' style='font-size: 5.69px; fill: #FFFFFF; font-family: Arial;' textLength='6.32px' lengthAdjust='spacingAndGlyphs'>72</text>
<text x='243.49' y='247.18' text-anchor='middle' style='font-size: 5.69px; fill: #FFFFFF; font-family: Arial;' textLength='12.00px' lengthAdjust='spacingAndGlyphs'>(8%)</text>
<text x='268.76' y='238.98' text-anchor='middle' style='font-size: 5.69px; fill: #FFFFFF; font-family: Arial;' textLength='6.32px' lengthAdjust='spacingAndGlyphs'>54</text>
<text x='268.76' y='247.18' text-anchor='middle' style='font-size: 5.69px; fill: #FFFFFF; font-family: Arial;' textLength='12.00px' lengthAdjust='spacingAndGlyphs'>(6%)</text>
<text x='287.61' y='238.98' text-anchor='middle' style='font-size: 5.69px; fill: #FFFFFF; font-family: Arial;' textLength='6.32px' lengthAdjust='spacingAndGlyphs'>40</text>
<text x='287.61' y='247.18' text-anchor='middle' style='font-size: 5.69px; fill: #FFFFFF; font-family: Arial;' textLength='12.00px' lengthAdjust='spacingAndGlyphs'>(4%)</text>
<text x='343.37' y='238.98' text-anchor='middle' style='font-size: 5.69px; fill: #FFFFFF; font-family: Arial;' textLength='9.48px' lengthAdjust='spacingAndGlyphs'>238</text>
<text x='343.37' y='247.18' text-anchor='middle' style='font-size: 5.69px; fill: #FFFFFF; font-family: Arial;' textLength='15.16px' lengthAdjust='spacingAndGlyphs'>(25%)</text>
<text x='392.30' y='238.98' text-anchor='middle' style='font-size: 5.69px; fill: #FFFFFF; font-family: Arial;' textLength='3.16px' lengthAdjust='spacingAndGlyphs'>6</text>
<text x='392.30' y='247.18' text-anchor='middle' style='font-size: 5.69px; fill: #FFFFFF; font-family: Arial;' textLength='12.00px' lengthAdjust='spacingAndGlyphs'>(1%)</text>
<text x='395.11' y='238.98' text-anchor='middle' style='font-size: 5.69px; fill: #FFFFFF; font-family: Arial;' textLength='3.16px' lengthAdjust='spacingAndGlyphs'>8</text>
<text x='395.11' y='247.18' text-anchor='middle' style='font-size: 5.69px; fill: #FFFFFF; font-family: Arial;' textLength='12.00px' lengthAdjust='spacingAndGlyphs'>(1%)</text>
<text x='399.32' y='238.98' text-anchor='middle' style='font-size: 5.69px; fill: #FFFFFF; font-family: Arial;' textLength='3.16px' lengthAdjust='spacingAndGlyphs'>9</text>
<text x='399.32' y='247.18' text-anchor='middle' style='font-size: 5.69px; fill: #FFFFFF; font-family: Arial;' textLength='12.00px' lengthAdjust='spacingAndGlyphs'>(1%)</text>
<text x='434.42' y='238.98' text-anchor='middle' style='font-size: 5.69px; fill: #FFFFFF; font-family: Arial;' textLength='9.48px' lengthAdjust='spacingAndGlyphs'>164</text>
<text x='434.42' y='247.18' text-anchor='middle' style='font-size: 5.69px; fill: #FFFFFF; font-family: Arial;' textLength='15.16px' lengthAdjust='spacingAndGlyphs'>(17%)</text>
<text x='479.74' y='238.98' text-anchor='middle' style='font-size: 5.69px; fill: #FFFFFF; font-family: Arial;' textLength='6.32px' lengthAdjust='spacingAndGlyphs'>54</text>
<text x='479.74' y='247.18' text-anchor='middle' style='font-size: 5.69px; fill: #FFFFFF; font-family: Arial;' textLength='12.00px' lengthAdjust='spacingAndGlyphs'>(6%)</text>
<text x='494.99' y='238.98' text-anchor='middle' style='font-size: 5.69px; fill: #FFFFFF; font-family: Arial;' textLength='6.32px' lengthAdjust='spacingAndGlyphs'>20</text>
<text x='494.99' y='247.18' text-anchor='middle' style='font-size: 5.69px; fill: #FFFFFF; font-family: Arial;' textLength='12.00px' lengthAdjust='spacingAndGlyphs'>(2%)</text>
<text x='512.23' y='238.98' text-anchor='middle' style='font-size: 5.69px; fill: #FFFFFF; font-family: Arial;' textLength='6.32px' lengthAdjust='spacingAndGlyphs'>66</text>
<text x='512.23' y='247.18' text-anchor='middle' style='font-size: 5.69px; fill: #FFFFFF; font-family: Arial;' textLength='12.00px' lengthAdjust='spacingAndGlyphs'>(7%)</text>
<text x='527.68' y='238.98' text-anchor='middle' style='font-size: 5.69px; fill: #FFFFFF; font-family: Arial;' textLength='5.90px' lengthAdjust='spacingAndGlyphs'>11</text>
<text x='527.68' y='247.18' text-anchor='middle' style='font-size: 5.69px; fill: #FFFFFF; font-family: Arial;' textLength='12.00px' lengthAdjust='spacingAndGlyphs'>(1%)</text>
<text x='531.69' y='238.98' text-anchor='middle' style='font-size: 5.69px; fill: #FFFFFF; font-family: Arial;' textLength='3.16px' lengthAdjust='spacingAndGlyphs'>7</text>
<text x='531.69' y='247.18' text-anchor='middle' style='font-size: 5.69px; fill: #FFFFFF; font-family: Arial;' textLength='12.00px' lengthAdjust='spacingAndGlyphs'>(1%)</text>
<text x='536.50' y='238.98' text-anchor='middle' style='font-size: 5.69px; fill: #FFFFFF; font-family: Arial;' textLength='6.32px' lengthAdjust='spacingAndGlyphs'>15</text>
<text x='536.50' y='247.18' text-anchor='middle' style='font-size: 5.69px; fill: #FFFFFF; font-family: Arial;' textLength='12.00px' lengthAdjust='spacingAndGlyphs'>(2%)</text>
<text x='186.02' y='207.99' text-anchor='middle' style='font-size: 5.69px; fill: #FFFFFF; font-family: Arial;' textLength='9.48px' lengthAdjust='spacingAndGlyphs'>131</text>
<text x='186.02' y='216.18' text-anchor='middle' style='font-size: 5.69px; fill: #FFFFFF; font-family: Arial;' textLength='15.16px' lengthAdjust='spacingAndGlyphs'>(14%)</text>
<text x='231.28' y='207.99' text-anchor='middle' style='font-size: 5.69px; fill: #FFFFFF; font-family: Arial;' textLength='6.32px' lengthAdjust='spacingAndGlyphs'>94</text>
<text x='231.28' y='216.18' text-anchor='middle' style='font-size: 5.69px; fill: #FFFFFF; font-family: Arial;' textLength='15.16px' lengthAdjust='spacingAndGlyphs'>(10%)</text>
<text x='264.08' y='207.99' text-anchor='middle' style='font-size: 5.69px; fill: #FFFFFF; font-family: Arial;' textLength='6.32px' lengthAdjust='spacingAndGlyphs'>69</text>
<text x='264.08' y='216.18' text-anchor='middle' style='font-size: 5.69px; fill: #FFFFFF; font-family: Arial;' textLength='12.00px' lengthAdjust='spacingAndGlyphs'>(7%)</text>
<text x='288.42' y='207.99' text-anchor='middle' style='font-size: 5.69px; fill: #FFFFFF; font-family: Arial;' textLength='6.32px' lengthAdjust='spacingAndGlyphs'>52</text>
<text x='288.42' y='216.18' text-anchor='middle' style='font-size: 5.69px; fill: #FFFFFF; font-family: Arial;' textLength='12.00px' lengthAdjust='spacingAndGlyphs'>(5%)</text>
<text x='303.51' y='207.99' text-anchor='middle' style='font-size: 5.69px; fill: #FFFFFF; font-family: Arial;' textLength='6.32px' lengthAdjust='spacingAndGlyphs'>23</text>
<text x='303.51' y='216.18' text-anchor='middle' style='font-size: 5.69px; fill: #FFFFFF; font-family: Arial;' textLength='12.00px' lengthAdjust='spacingAndGlyphs'>(2%)</text>
<text x='310.75' y='207.99' text-anchor='middle' style='font-size: 5.69px; fill: #FFFFFF; font-family: Arial;' textLength='6.32px' lengthAdjust='spacingAndGlyphs'>13</text>
<text x='310.75' y='216.18' text-anchor='middle' style='font-size: 5.69px; fill: #FFFFFF; font-family: Arial;' textLength='12.00px' lengthAdjust='spacingAndGlyphs'>(1%)</text>
<text x='341.73' y='207.99' text-anchor='middle' style='font-size: 5.69px; fill: #FFFFFF; font-family: Arial;' textLength='9.48px' lengthAdjust='spacingAndGlyphs'>141</text>
<text x='341.73' y='216.18' text-anchor='middle' style='font-size: 5.69px; fill: #FFFFFF; font-family: Arial;' textLength='15.16px' lengthAdjust='spacingAndGlyphs'>(15%)</text>
<text x='371.31' y='207.99' text-anchor='middle' style='font-size: 5.69px; fill: #FFFFFF; font-family: Arial;' textLength='3.16px' lengthAdjust='spacingAndGlyphs'>6</text>
<text x='371.31' y='216.18' text-anchor='middle' style='font-size: 5.69px; fill: #FFFFFF; font-family: Arial;' textLength='12.00px' lengthAdjust='spacingAndGlyphs'>(1%)</text>
<text x='373.52' y='207.99' text-anchor='middle' style='font-size: 5.69px; fill: #FFFFFF; font-family: Arial;' textLength='3.16px' lengthAdjust='spacingAndGlyphs'>5</text>
<text x='373.52' y='216.18' text-anchor='middle' style='font-size: 5.69px; fill: #FFFFFF; font-family: Arial;' textLength='12.00px' lengthAdjust='spacingAndGlyphs'>(1%)</text>
<text x='378.35' y='207.99' text-anchor='middle' style='font-size: 5.69px; fill: #FFFFFF; font-family: Arial;' textLength='6.32px' lengthAdjust='spacingAndGlyphs'>19</text>
<text x='378.35' y='216.18' text-anchor='middle' style='font-size: 5.69px; fill: #FFFFFF; font-family: Arial;' textLength='12.00px' lengthAdjust='spacingAndGlyphs'>(2%)</text>
<text x='404.10' y='207.99' text-anchor='middle' style='font-size: 5.69px; fill: #FFFFFF; font-family: Arial;' textLength='9.48px' lengthAdjust='spacingAndGlyphs'>109</text>
<text x='404.10' y='216.18' text-anchor='middle' style='font-size: 5.69px; fill: #FFFFFF; font-family: Arial;' textLength='14.74px' lengthAdjust='spacingAndGlyphs'>(11%)</text>
<text x='437.10' y='207.99' text-anchor='middle' style='font-size: 5.69px; fill: #FFFFFF; font-family: Arial;' textLength='6.32px' lengthAdjust='spacingAndGlyphs'>49</text>
<text x='437.10' y='216.18' text-anchor='middle' style='font-size: 5.69px; fill: #FFFFFF; font-family: Arial;' textLength='12.00px' lengthAdjust='spacingAndGlyphs'>(5%)</text>
<text x='447.96' y='207.99' text-anchor='middle' style='font-size: 5.69px; fill: #FFFFFF; font-family: Arial;' textLength='3.16px' lengthAdjust='spacingAndGlyphs'>5</text>
<text x='447.96' y='216.18' text-anchor='middle' style='font-size: 5.69px; fill: #FFFFFF; font-family: Arial;' textLength='12.00px' lengthAdjust='spacingAndGlyphs'>(1%)</text>
<text x='454.60' y='207.99' text-anchor='middle' style='font-size: 5.69px; fill: #FFFFFF; font-family: Arial;' textLength='6.32px' lengthAdjust='spacingAndGlyphs'>28</text>
<text x='454.60' y='216.18' text-anchor='middle' style='font-size: 5.69px; fill: #FFFFFF; font-family: Arial;' textLength='12.00px' lengthAdjust='spacingAndGlyphs'>(3%)</text>
<text x='484.17' y='207.99' text-anchor='middle' style='font-size: 5.69px; fill: #FFFFFF; font-family: Arial;' textLength='9.06px' lengthAdjust='spacingAndGlyphs'>119</text>
<text x='484.17' y='216.18' text-anchor='middle' style='font-size: 5.69px; fill: #FFFFFF; font-family: Arial;' textLength='15.16px' lengthAdjust='spacingAndGlyphs'>(13%)</text>
<text x='509.93' y='207.99' text-anchor='middle' style='font-size: 5.69px; fill: #FFFFFF; font-family: Arial;' textLength='3.16px' lengthAdjust='spacingAndGlyphs'>9</text>
<text x='509.93' y='216.18' text-anchor='middle' style='font-size: 5.69px; fill: #FFFFFF; font-family: Arial;' textLength='12.00px' lengthAdjust='spacingAndGlyphs'>(1%)</text>
<text x='513.15' y='207.99' text-anchor='middle' style='font-size: 5.69px; fill: #FFFFFF; font-family: Arial;' textLength='3.16px' lengthAdjust='spacingAndGlyphs'>7</text>
<text x='513.15' y='216.18' text-anchor='middle' style='font-size: 5.69px; fill: #FFFFFF; font-family: Arial;' textLength='12.00px' lengthAdjust='spacingAndGlyphs'>(1%)</text>
<text x='524.01' y='207.99' text-anchor='middle' style='font-size: 5.69px; fill: #FFFFFF; font-family: Arial;' textLength='6.32px' lengthAdjust='spacingAndGlyphs'>45</text>
<text x='524.01' y='216.18' text-anchor='middle' style='font-size: 5.69px; fill: #FFFFFF; font-family: Arial;' textLength='12.00px' lengthAdjust='spacingAndGlyphs'>(5%)</text>
<text x='536.28' y='207.99' text-anchor='middle' style='font-size: 5.69px; fill: #FFFFFF; font-family: Arial;' textLength='6.32px' lengthAdjust='spacingAndGlyphs'>12</text>
<text x='536.28' y='216.18' text-anchor='middle' style='font-size: 5.69px; fill: #FFFFFF; font-family: Arial;' textLength='12.00px' lengthAdjust='spacingAndGlyphs'>(1%)</text>
<text x='220.22' y='176.99' text-anchor='middle' style='font-size: 5.69px; fill: #FFFFFF; font-family: Arial;' textLength='9.48px' lengthAdjust='spacingAndGlyphs'>301</text>
<text x='220.22' y='185.19' text-anchor='middle' style='font-size: 5.69px; fill: #FFFFFF; font-family: Arial;' textLength='15.16px' lengthAdjust='spacingAndGlyphs'>(32%)</text>
<text x='301.70' y='176.99' text-anchor='middle' style='font-size: 5.69px; fill: #FFFFFF; font-family: Arial;' textLength='9.48px' lengthAdjust='spacingAndGlyphs'>104</text>
<text x='301.70' y='185.19' text-anchor='middle' style='font-size: 5.69px; fill: #FFFFFF; font-family: Arial;' textLength='14.74px' lengthAdjust='spacingAndGlyphs'>(11%)</text>
<text x='338.11' y='176.99' text-anchor='middle' style='font-size: 5.69px; fill: #FFFFFF; font-family: Arial;' textLength='6.32px' lengthAdjust='spacingAndGlyphs'>77</text>
<text x='338.11' y='185.19' text-anchor='middle' style='font-size: 5.69px; fill: #FFFFFF; font-family: Arial;' textLength='12.00px' lengthAdjust='spacingAndGlyphs'>(8%)</text>
<text x='364.07' y='176.99' text-anchor='middle' style='font-size: 5.69px; fill: #FFFFFF; font-family: Arial;' textLength='6.32px' lengthAdjust='spacingAndGlyphs'>52</text>
<text x='364.07' y='185.19' text-anchor='middle' style='font-size: 5.69px; fill: #FFFFFF; font-family: Arial;' textLength='12.00px' lengthAdjust='spacingAndGlyphs'>(5%)</text>
<text x='382.17' y='176.99' text-anchor='middle' style='font-size: 5.69px; fill: #FFFFFF; font-family: Arial;' textLength='6.32px' lengthAdjust='spacingAndGlyphs'>38</text>
<text x='382.17' y='185.19' text-anchor='middle' style='font-size: 5.69px; fill: #FFFFFF; font-family: Arial;' textLength='12.00px' lengthAdjust='spacingAndGlyphs'>(4%)</text>
<text x='393.84' y='176.99' text-anchor='middle' style='font-size: 5.69px; fill: #FFFFFF; font-family: Arial;' textLength='6.32px' lengthAdjust='spacingAndGlyphs'>20</text>
<text x='393.84' y='185.19' text-anchor='middle' style='font-size: 5.69px; fill: #FFFFFF; font-family: Arial;' textLength='12.00px' lengthAdjust='spacingAndGlyphs'>(2%)</text>
<text x='429.65' y='176.99' text-anchor='middle' style='font-size: 5.69px; fill: #FFFFFF; font-family: Arial;' textLength='9.48px' lengthAdjust='spacingAndGlyphs'>158</text>
<text x='429.65' y='185.19' text-anchor='middle' style='font-size: 5.69px; fill: #FFFFFF; font-family: Arial;' textLength='15.16px' lengthAdjust='spacingAndGlyphs'>(17%)</text>
<text x='462.85' y='176.99' text-anchor='middle' style='font-size: 5.69px; fill: #FFFFFF; font-family: Arial;' textLength='3.16px' lengthAdjust='spacingAndGlyphs'>5</text>
<text x='462.85' y='185.19' text-anchor='middle' style='font-size: 5.69px; fill: #FFFFFF; font-family: Arial;' textLength='12.00px' lengthAdjust='spacingAndGlyphs'>(1%)</text>
<text x='465.46' y='176.99' text-anchor='middle' style='font-size: 5.69px; fill: #FFFFFF; font-family: Arial;' textLength='3.16px' lengthAdjust='spacingAndGlyphs'>8</text>
<text x='465.46' y='185.19' text-anchor='middle' style='font-size: 5.69px; fill: #FFFFFF; font-family: Arial;' textLength='12.00px' lengthAdjust='spacingAndGlyphs'>(1%)</text>
<text x='484.38' y='176.99' text-anchor='middle' style='font-size: 5.69px; fill: #FFFFFF; font-family: Arial;' textLength='6.32px' lengthAdjust='spacingAndGlyphs'>86</text>
<text x='484.38' y='185.19' text-anchor='middle' style='font-size: 5.69px; fill: #FFFFFF; font-family: Arial;' textLength='12.00px' lengthAdjust='spacingAndGlyphs'>(9%)</text>
<text x='508.32' y='176.99' text-anchor='middle' style='font-size: 5.69px; fill: #FFFFFF; font-family: Arial;' textLength='6.32px' lengthAdjust='spacingAndGlyphs'>33</text>
<text x='508.32' y='185.19' text-anchor='middle' style='font-size: 5.69px; fill: #FFFFFF; font-family: Arial;' textLength='12.00px' lengthAdjust='spacingAndGlyphs'>(3%)</text>
<text x='516.57' y='176.99' text-anchor='middle' style='font-size: 5.69px; fill: #FFFFFF; font-family: Arial;' textLength='3.16px' lengthAdjust='spacingAndGlyphs'>6</text>
<text x='516.57' y='185.19' text-anchor='middle' style='font-size: 5.69px; fill: #FFFFFF; font-family: Arial;' textLength='12.00px' lengthAdjust='spacingAndGlyphs'>(1%)</text>
<text x='526.22' y='176.99' text-anchor='middle' style='font-size: 5.69px; fill: #FFFFFF; font-family: Arial;' textLength='6.32px' lengthAdjust='spacingAndGlyphs'>42</text>
<text x='526.22' y='185.19' text-anchor='middle' style='font-size: 5.69px; fill: #FFFFFF; font-family: Arial;' textLength='12.00px' lengthAdjust='spacingAndGlyphs'>(4%)</text>
<text x='538.09' y='176.99' text-anchor='middle' style='font-size: 5.69px; fill: #FFFFFF; font-family: Arial;' textLength='5.90px' lengthAdjust='spacingAndGlyphs'>11</text>
<text x='538.09' y='185.19' text-anchor='middle' style='font-size: 5.69px; fill: #FFFFFF; font-family: Arial;' textLength='12.00px' lengthAdjust='spacingAndGlyphs'>(1%)</text>
<text x='252.60' y='146.00' text-anchor='middle' style='font-size: 5.69px; fill: #FFFFFF; font-family: Arial;' textLength='9.48px' lengthAdjust='spacingAndGlyphs'>460</text>
<text x='252.60' y='154.19' text-anchor='middle' style='font-size: 5.69px; fill: #FFFFFF; font-family: Arial;' textLength='15.16px' lengthAdjust='spacingAndGlyphs'>(49%)</text>
<text x='385.94' y='146.00' text-anchor='middle' style='font-size: 5.69px; fill: #FFFFFF; font-family: Arial;' textLength='9.48px' lengthAdjust='spacingAndGlyphs'>200</text>
<text x='385.94' y='154.19' text-anchor='middle' style='font-size: 5.69px; fill: #FFFFFF; font-family: Arial;' textLength='15.16px' lengthAdjust='spacingAndGlyphs'>(21%)</text>
<text x='448.77' y='146.00' text-anchor='middle' style='font-size: 5.69px; fill: #FFFFFF; font-family: Arial;' textLength='8.63px' lengthAdjust='spacingAndGlyphs'>111</text>
<text x='448.77' y='154.19' text-anchor='middle' style='font-size: 5.69px; fill: #FFFFFF; font-family: Arial;' textLength='15.16px' lengthAdjust='spacingAndGlyphs'>(12%)</text>
<text x='479.28' y='146.00' text-anchor='middle' style='font-size: 5.69px; fill: #FFFFFF; font-family: Arial;' textLength='6.32px' lengthAdjust='spacingAndGlyphs'>40</text>
<text x='479.28' y='154.19' text-anchor='middle' style='font-size: 5.69px; fill: #FFFFFF; font-family: Arial;' textLength='12.00px' lengthAdjust='spacingAndGlyphs'>(4%)</text>
<text x='490.80' y='146.00' text-anchor='middle' style='font-size: 5.69px; fill: #FFFFFF; font-family: Arial;' textLength='6.32px' lengthAdjust='spacingAndGlyphs'>17</text>
<text x='490.80' y='154.19' text-anchor='middle' style='font-size: 5.69px; fill: #FFFFFF; font-family: Arial;' textLength='12.00px' lengthAdjust='spacingAndGlyphs'>(2%)</text>
<text x='496.05' y='146.00' text-anchor='middle' style='font-size: 5.69px; fill: #FFFFFF; font-family: Arial;' textLength='3.16px' lengthAdjust='spacingAndGlyphs'>9</text>
<text x='496.05' y='154.19' text-anchor='middle' style='font-size: 5.69px; fill: #FFFFFF; font-family: Arial;' textLength='12.00px' lengthAdjust='spacingAndGlyphs'>(1%)</text>
<text x='509.99' y='146.00' text-anchor='middle' style='font-size: 5.69px; fill: #FFFFFF; font-family: Arial;' textLength='6.32px' lengthAdjust='spacingAndGlyphs'>60</text>
<text x='509.99' y='154.19' text-anchor='middle' style='font-size: 5.69px; fill: #FFFFFF; font-family: Arial;' textLength='12.00px' lengthAdjust='spacingAndGlyphs'>(6%)</text>
<text x='530.40' y='146.00' text-anchor='middle' style='font-size: 5.69px; fill: #FFFFFF; font-family: Arial;' textLength='6.32px' lengthAdjust='spacingAndGlyphs'>27</text>
<text x='530.40' y='154.19' text-anchor='middle' style='font-size: 5.69px; fill: #FFFFFF; font-family: Arial;' textLength='12.00px' lengthAdjust='spacingAndGlyphs'>(3%)</text>
<text x='223.71' y='115.00' text-anchor='middle' style='font-size: 5.69px; fill: #FFFFFF; font-family: Arial;' textLength='9.48px' lengthAdjust='spacingAndGlyphs'>318</text>
<text x='223.71' y='123.20' text-anchor='middle' style='font-size: 5.69px; fill: #FFFFFF; font-family: Arial;' textLength='15.16px' lengthAdjust='spacingAndGlyphs'>(33%)</text>
<text x='331.86' y='115.00' text-anchor='middle' style='font-size: 5.69px; fill: #FFFFFF; font-family: Arial;' textLength='9.48px' lengthAdjust='spacingAndGlyphs'>219</text>
<text x='331.86' y='123.20' text-anchor='middle' style='font-size: 5.69px; fill: #FFFFFF; font-family: Arial;' textLength='15.16px' lengthAdjust='spacingAndGlyphs'>(23%)</text>
<text x='400.13' y='115.00' text-anchor='middle' style='font-size: 5.69px; fill: #FFFFFF; font-family: Arial;' textLength='9.48px' lengthAdjust='spacingAndGlyphs'>120</text>
<text x='400.13' y='123.20' text-anchor='middle' style='font-size: 5.69px; fill: #FFFFFF; font-family: Arial;' textLength='15.16px' lengthAdjust='spacingAndGlyphs'>(13%)</text>
<text x='437.39' y='115.00' text-anchor='middle' style='font-size: 5.69px; fill: #FFFFFF; font-family: Arial;' textLength='6.32px' lengthAdjust='spacingAndGlyphs'>65</text>
<text x='437.39' y='123.20' text-anchor='middle' style='font-size: 5.69px; fill: #FFFFFF; font-family: Arial;' textLength='12.00px' lengthAdjust='spacingAndGlyphs'>(7%)</text>
<text x='456.72' y='115.00' text-anchor='middle' style='font-size: 5.69px; fill: #FFFFFF; font-family: Arial;' textLength='6.32px' lengthAdjust='spacingAndGlyphs'>31</text>
<text x='456.72' y='123.20' text-anchor='middle' style='font-size: 5.69px; fill: #FFFFFF; font-family: Arial;' textLength='12.00px' lengthAdjust='spacingAndGlyphs'>(3%)</text>
<text x='466.39' y='115.00' text-anchor='middle' style='font-size: 5.69px; fill: #FFFFFF; font-family: Arial;' textLength='6.32px' lengthAdjust='spacingAndGlyphs'>17</text>
<text x='466.39' y='123.20' text-anchor='middle' style='font-size: 5.69px; fill: #FFFFFF; font-family: Arial;' textLength='12.00px' lengthAdjust='spacingAndGlyphs'>(2%)</text>
<text x='492.77' y='115.00' text-anchor='middle' style='font-size: 5.69px; fill: #FFFFFF; font-family: Arial;' textLength='9.06px' lengthAdjust='spacingAndGlyphs'>114</text>
<text x='492.77' y='123.20' text-anchor='middle' style='font-size: 5.69px; fill: #FFFFFF; font-family: Arial;' textLength='15.16px' lengthAdjust='spacingAndGlyphs'>(12%)</text>
<text x='516.74' y='115.00' text-anchor='middle' style='font-size: 5.69px; fill: #FFFFFF; font-family: Arial;' textLength='3.16px' lengthAdjust='spacingAndGlyphs'>5</text>
<text x='516.74' y='123.20' text-anchor='middle' style='font-size: 5.69px; fill: #FFFFFF; font-family: Arial;' textLength='12.00px' lengthAdjust='spacingAndGlyphs'>(1%)</text>
<text x='526.41' y='115.00' text-anchor='middle' style='font-size: 5.69px; fill: #FFFFFF; font-family: Arial;' textLength='6.32px' lengthAdjust='spacingAndGlyphs'>37</text>
<text x='526.41' y='123.20' text-anchor='middle' style='font-size: 5.69px; fill: #FFFFFF; font-family: Arial;' textLength='12.00px' lengthAdjust='spacingAndGlyphs'>(4%)</text>
<text x='535.07' y='115.00' text-anchor='middle' style='font-size: 5.69px; fill: #FFFFFF; font-family: Arial;' textLength='3.16px' lengthAdjust='spacingAndGlyphs'>6</text>
<text x='535.07' y='123.20' text-anchor='middle' style='font-size: 5.69px; fill: #FFFFFF; font-family: Arial;' textLength='12.00px' lengthAdjust='spacingAndGlyphs'>(1%)</text>
<text x='537.68' y='115.00' text-anchor='middle' style='font-size: 5.69px; fill: #FFFFFF; font-family: Arial;' textLength='3.16px' lengthAdjust='spacingAndGlyphs'>5</text>
<text x='537.68' y='123.20' text-anchor='middle' style='font-size: 5.69px; fill: #FFFFFF; font-family: Arial;' textLength='12.00px' lengthAdjust='spacingAndGlyphs'>(1%)</text>
<text x='242.32' y='84.01' text-anchor='middle' style='font-size: 5.69px; fill: #FFFFFF; font-family: Arial;' textLength='9.48px' lengthAdjust='spacingAndGlyphs'>410</text>
<text x='242.32' y='92.20' text-anchor='middle' style='font-size: 5.69px; fill: #FFFFFF; font-family: Arial;' textLength='15.16px' lengthAdjust='spacingAndGlyphs'>(43%)</text>
<text x='373.17' y='84.01' text-anchor='middle' style='font-size: 5.69px; fill: #FFFFFF; font-family: Arial;' textLength='9.48px' lengthAdjust='spacingAndGlyphs'>239</text>
<text x='373.17' y='92.20' text-anchor='middle' style='font-size: 5.69px; fill: #FFFFFF; font-family: Arial;' textLength='15.16px' lengthAdjust='spacingAndGlyphs'>(25%)</text>
<text x='438.49' y='84.01' text-anchor='middle' style='font-size: 5.69px; fill: #FFFFFF; font-family: Arial;' textLength='6.32px' lengthAdjust='spacingAndGlyphs'>85</text>
<text x='438.49' y='92.20' text-anchor='middle' style='font-size: 5.69px; fill: #FFFFFF; font-family: Arial;' textLength='12.00px' lengthAdjust='spacingAndGlyphs'>(9%)</text>
<text x='467.12' y='84.01' text-anchor='middle' style='font-size: 5.69px; fill: #FFFFFF; font-family: Arial;' textLength='6.32px' lengthAdjust='spacingAndGlyphs'>57</text>
<text x='467.12' y='92.20' text-anchor='middle' style='font-size: 5.69px; fill: #FFFFFF; font-family: Arial;' textLength='12.00px' lengthAdjust='spacingAndGlyphs'>(6%)</text>
<text x='483.65' y='84.01' text-anchor='middle' style='font-size: 5.69px; fill: #FFFFFF; font-family: Arial;' textLength='6.32px' lengthAdjust='spacingAndGlyphs'>25</text>
<text x='483.65' y='92.20' text-anchor='middle' style='font-size: 5.69px; fill: #FFFFFF; font-family: Arial;' textLength='12.00px' lengthAdjust='spacingAndGlyphs'>(3%)</text>
<text x='491.71' y='84.01' text-anchor='middle' style='font-size: 5.69px; fill: #FFFFFF; font-family: Arial;' textLength='6.32px' lengthAdjust='spacingAndGlyphs'>15</text>
<text x='491.71' y='92.20' text-anchor='middle' style='font-size: 5.69px; fill: #FFFFFF; font-family: Arial;' textLength='12.00px' lengthAdjust='spacingAndGlyphs'>(2%)</text>
<text x='510.66' y='84.01' text-anchor='middle' style='font-size: 5.69px; fill: #FFFFFF; font-family: Arial;' textLength='6.32px' lengthAdjust='spacingAndGlyphs'>79</text>
<text x='510.66' y='92.20' text-anchor='middle' style='font-size: 5.69px; fill: #FFFFFF; font-family: Arial;' textLength='12.00px' lengthAdjust='spacingAndGlyphs'>(8%)</text>
<text x='532.84' y='84.01' text-anchor='middle' style='font-size: 5.69px; fill: #FFFFFF; font-family: Arial;' textLength='6.32px' lengthAdjust='spacingAndGlyphs'>23</text>
<text x='532.84' y='92.20' text-anchor='middle' style='font-size: 5.69px; fill: #FFFFFF; font-family: Arial;' textLength='12.00px' lengthAdjust='spacingAndGlyphs'>(2%)</text>
<text x='538.69' y='84.01' text-anchor='middle' style='font-size: 5.69px; fill: #FFFFFF; font-family: Arial;' textLength='3.16px' lengthAdjust='spacingAndGlyphs'>6</text>
<text x='538.69' y='92.20' text-anchor='middle' style='font-size: 5.69px; fill: #FFFFFF; font-family: Arial;' textLength='12.00px' lengthAdjust='spacingAndGlyphs'>(1%)</text>
<text x='246.07' y='53.01' text-anchor='middle' style='font-size: 5.69px; fill: #FFFFFF; font-family: Arial;' textLength='9.48px' lengthAdjust='spacingAndGlyphs'>425</text>
<text x='246.07' y='61.21' text-anchor='middle' style='font-size: 5.69px; fill: #FFFFFF; font-family: Arial;' textLength='15.16px' lengthAdjust='spacingAndGlyphs'>(45%)</text>
<text x='378.84' y='53.01' text-anchor='middle' style='font-size: 5.69px; fill: #FFFFFF; font-family: Arial;' textLength='9.48px' lengthAdjust='spacingAndGlyphs'>228</text>
<text x='378.84' y='61.21' text-anchor='middle' style='font-size: 5.69px; fill: #FFFFFF; font-family: Arial;' textLength='15.16px' lengthAdjust='spacingAndGlyphs'>(24%)</text>
<text x='446.35' y='53.01' text-anchor='middle' style='font-size: 5.69px; fill: #FFFFFF; font-family: Arial;' textLength='9.48px' lengthAdjust='spacingAndGlyphs'>104</text>
<text x='446.35' y='61.21' text-anchor='middle' style='font-size: 5.69px; fill: #FFFFFF; font-family: Arial;' textLength='14.74px' lengthAdjust='spacingAndGlyphs'>(11%)</text>
<text x='476.85' y='53.01' text-anchor='middle' style='font-size: 5.69px; fill: #FFFFFF; font-family: Arial;' textLength='6.32px' lengthAdjust='spacingAndGlyphs'>46</text>
<text x='476.85' y='61.21' text-anchor='middle' style='font-size: 5.69px; fill: #FFFFFF; font-family: Arial;' textLength='12.00px' lengthAdjust='spacingAndGlyphs'>(5%)</text>
<text x='488.64' y='53.01' text-anchor='middle' style='font-size: 5.69px; fill: #FFFFFF; font-family: Arial;' textLength='6.32px' lengthAdjust='spacingAndGlyphs'>12</text>
<text x='488.64' y='61.21' text-anchor='middle' style='font-size: 5.69px; fill: #FFFFFF; font-family: Arial;' textLength='12.00px' lengthAdjust='spacingAndGlyphs'>(1%)</text>
<text x='492.71' y='53.01' text-anchor='middle' style='font-size: 5.69px; fill: #FFFFFF; font-family: Arial;' textLength='3.16px' lengthAdjust='spacingAndGlyphs'>8</text>
<text x='492.71' y='61.21' text-anchor='middle' style='font-size: 5.69px; fill: #FFFFFF; font-family: Arial;' textLength='12.00px' lengthAdjust='spacingAndGlyphs'>(1%)</text>
<text x='509.99' y='53.01' text-anchor='middle' style='font-size: 5.69px; fill: #FFFFFF; font-family: Arial;' textLength='6.32px' lengthAdjust='spacingAndGlyphs'>77</text>
<text x='509.99' y='61.21' text-anchor='middle' style='font-size: 5.69px; fill: #FFFFFF; font-family: Arial;' textLength='12.00px' lengthAdjust='spacingAndGlyphs'>(8%)</text>
<text x='531.74' y='53.01' text-anchor='middle' style='font-size: 5.69px; fill: #FFFFFF; font-family: Arial;' textLength='6.32px' lengthAdjust='spacingAndGlyphs'>24</text>
<text x='531.74' y='61.21' text-anchor='middle' style='font-size: 5.69px; fill: #FFFFFF; font-family: Arial;' textLength='12.00px' lengthAdjust='spacingAndGlyphs'>(3%)</text>
<text x='540.49' y='53.01' text-anchor='middle' style='font-size: 5.69px; fill: #FFFFFF; font-family: Arial;' textLength='3.16px' lengthAdjust='spacingAndGlyphs'>5</text>
<text x='540.49' y='61.21' text-anchor='middle' style='font-size: 5.69px; fill: #FFFFFF; font-family: Arial;' textLength='12.00px' lengthAdjust='spacingAndGlyphs'>(1%)</text>
<text x='226.20' y='22.02' text-anchor='middle' style='font-size: 5.69px; fill: #FFFFFF; font-family: Arial;' textLength='9.48px' lengthAdjust='spacingAndGlyphs'>329</text>
<text x='226.20' y='30.21' text-anchor='middle' style='font-size: 5.69px; fill: #FFFFFF; font-family: Arial;' textLength='15.16px' lengthAdjust='spacingAndGlyphs'>(35%)</text>
<text x='342.90' y='22.02' text-anchor='middle' style='font-size: 5.69px; fill: #FFFFFF; font-family: Arial;' textLength='9.48px' lengthAdjust='spacingAndGlyphs'>248</text>
<text x='342.90' y='30.21' text-anchor='middle' style='font-size: 5.69px; fill: #FFFFFF; font-family: Arial;' textLength='15.16px' lengthAdjust='spacingAndGlyphs'>(26%)</text>
<text x='420.16' y='22.02' text-anchor='middle' style='font-size: 5.69px; fill: #FFFFFF; font-family: Arial;' textLength='9.48px' lengthAdjust='spacingAndGlyphs'>134</text>
<text x='420.16' y='30.21' text-anchor='middle' style='font-size: 5.69px; fill: #FFFFFF; font-family: Arial;' textLength='15.16px' lengthAdjust='spacingAndGlyphs'>(14%)</text>
<text x='458.18' y='22.02' text-anchor='middle' style='font-size: 5.69px; fill: #FFFFFF; font-family: Arial;' textLength='6.32px' lengthAdjust='spacingAndGlyphs'>54</text>
<text x='458.18' y='30.21' text-anchor='middle' style='font-size: 5.69px; fill: #FFFFFF; font-family: Arial;' textLength='12.00px' lengthAdjust='spacingAndGlyphs'>(6%)</text>
<text x='476.18' y='22.02' text-anchor='middle' style='font-size: 5.69px; fill: #FFFFFF; font-family: Arial;' textLength='6.32px' lengthAdjust='spacingAndGlyphs'>35</text>
<text x='476.18' y='30.21' text-anchor='middle' style='font-size: 5.69px; fill: #FFFFFF; font-family: Arial;' textLength='12.00px' lengthAdjust='spacingAndGlyphs'>(4%)</text>
<text x='487.31' y='22.02' text-anchor='middle' style='font-size: 5.69px; fill: #FFFFFF; font-family: Arial;' textLength='6.32px' lengthAdjust='spacingAndGlyphs'>20</text>
<text x='487.31' y='30.21' text-anchor='middle' style='font-size: 5.69px; fill: #FFFFFF; font-family: Arial;' textLength='12.00px' lengthAdjust='spacingAndGlyphs'>(2%)</text>
<text x='507.13' y='22.02' text-anchor='middle' style='font-size: 5.69px; fill: #FFFFFF; font-family: Arial;' textLength='6.32px' lengthAdjust='spacingAndGlyphs'>78</text>
<text x='507.13' y='30.21' text-anchor='middle' style='font-size: 5.69px; fill: #FFFFFF; font-family: Arial;' textLength='12.00px' lengthAdjust='spacingAndGlyphs'>(8%)</text>
<text x='525.13' y='22.02' text-anchor='middle' style='font-size: 5.69px; fill: #FFFFFF; font-family: Arial;' textLength='3.16px' lengthAdjust='spacingAndGlyphs'>5</text>
<text x='525.13' y='30.21' text-anchor='middle' style='font-size: 5.69px; fill: #FFFFFF; font-family: Arial;' textLength='12.00px' lengthAdjust='spacingAndGlyphs'>(1%)</text>
<text x='532.20' y='22.02' text-anchor='middle' style='font-size: 5.69px; fill: #FFFFFF; font-family: Arial;' textLength='6.32px' lengthAdjust='spacingAndGlyphs'>24</text>
<text x='532.20' y='30.21' text-anchor='middle' style='font-size: 5.69px; fill: #FFFFFF; font-family: Arial;' textLength='12.00px' lengthAdjust='spacingAndGlyphs'>(3%)</text>
<text x='539.08' y='22.02' text-anchor='middle' style='font-size: 5.69px; fill: #FFFFFF; font-family: Arial;' textLength='6.32px' lengthAdjust='spacingAndGlyphs'>10</text>
<text x='539.08' y='30.21' text-anchor='middle' style='font-size: 5.69px; fill: #FFFFFF; font-family: Arial;' textLength='12.00px' lengthAdjust='spacingAndGlyphs'>(1%)</text>
</g>
<g clip-path='url(#cpMC4wMHw1NjYuOTN8MC4wMHwzNDAuMTY=)'>
<text x='135.60' y='244.19' text-anchor='end' style='font-size: 8.80px; fill: #4D4D4D; font-family: Arial;' textLength='102.27px' lengthAdjust='spacingAndGlyphs'>goingOutFreq_houseparty</text>
<text x='135.60' y='213.20' text-anchor='end' style='font-size: 8.80px; fill: #4D4D4D; font-family: Arial;' textLength='75.36px' lengthAdjust='spacingAndGlyphs'>goingOutFreq_cafe</text>
<text x='135.60' y='182.20' text-anchor='end' style='font-size: 8.80px; fill: #4D4D4D; font-family: Arial;' textLength='79.26px' lengthAdjust='spacingAndGlyphs'>goingOutFreq_disco</text>
<text x='135.60' y='151.21' text-anchor='end' style='font-size: 8.80px; fill: #4D4D4D; font-family: Arial;' textLength='78.30px' lengthAdjust='spacingAndGlyphs'>goingOutFreq_band</text>
<text x='135.60' y='120.21' text-anchor='end' style='font-size: 8.80px; fill: #4D4D4D; font-family: Arial;' textLength='123.27px' lengthAdjust='spacingAndGlyphs'>goingOutFreq_smallPartyInside</text>
<text x='135.60' y='89.22' text-anchor='end' style='font-size: 8.80px; fill: #4D4D4D; font-family: Arial;' textLength='114.49px' lengthAdjust='spacingAndGlyphs'>goingOutFreq_bigPartyInside</text>
<text x='135.60' y='58.22' text-anchor='end' style='font-size: 8.80px; fill: #4D4D4D; font-family: Arial;' textLength='130.12px' lengthAdjust='spacingAndGlyphs'>goingOutFreq_smallPartyOutside</text>
<text x='135.60' y='27.23' text-anchor='end' style='font-size: 8.80px; fill: #4D4D4D; font-family: Arial;' textLength='121.33px' lengthAdjust='spacingAndGlyphs'>goingOutFreq_bigPartyOutside</text>
<text x='159.66' y='270.87' text-anchor='middle' style='font-size: 8.80px; fill: #4D4D4D; font-family: Arial;' textLength='4.90px' lengthAdjust='spacingAndGlyphs'>0</text>
<text x='255.33' y='270.87' text-anchor='middle' style='font-size: 8.80px; fill: #4D4D4D; font-family: Arial;' textLength='9.79px' lengthAdjust='spacingAndGlyphs'>25</text>
<text x='350.99' y='270.87' text-anchor='middle' style='font-size: 8.80px; fill: #4D4D4D; font-family: Arial;' textLength='9.79px' lengthAdjust='spacingAndGlyphs'>50</text>
<text x='446.65' y='270.87' text-anchor='middle' style='font-size: 8.80px; fill: #4D4D4D; font-family: Arial;' textLength='9.79px' lengthAdjust='spacingAndGlyphs'>75</text>
<text x='542.32' y='270.87' text-anchor='middle' style='font-size: 8.80px; fill: #4D4D4D; font-family: Arial;' textLength='14.69px' lengthAdjust='spacingAndGlyphs'>100</text>
<rect x='6.33' y='289.87' width='15.86' height='15.86' style='stroke-width: 1.07; stroke: none; stroke-linecap: square; stroke-linejoin: miter; fill: #440154;' />
<rect x='44.36' y='289.87' width='15.86' height='15.86' style='stroke-width: 1.07; stroke: none; stroke-linecap: square; stroke-linejoin: miter; fill: #460C5F;' />
<rect x='82.39' y='289.87' width='15.86' height='15.86' style='stroke-width: 1.07; stroke: none; stroke-linecap: square; stroke-linejoin: miter; fill: #481769;' />
<rect x='120.42' y='289.87' width='15.86' height='15.86' style='stroke-width: 1.07; stroke: none; stroke-linecap: square; stroke-linejoin: miter; fill: #482071;' />
<rect x='158.46' y='289.87' width='15.86' height='15.86' style='stroke-width: 1.07; stroke: none; stroke-linecap: square; stroke-linejoin: miter; fill: #482979;' />
<rect x='196.49' y='289.87' width='15.86' height='15.86' style='stroke-width: 1.07; stroke: none; stroke-linecap: square; stroke-linejoin: miter; fill: #46337E;' />
<rect x='234.52' y='289.87' width='15.86' height='15.86' style='stroke-width: 1.07; stroke: none; stroke-linecap: square; stroke-linejoin: miter; fill: #443B84;' />
<rect x='272.55' y='289.87' width='15.86' height='15.86' style='stroke-width: 1.07; stroke: none; stroke-linecap: square; stroke-linejoin: miter; fill: #414487;' />
<rect x='310.58' y='289.87' width='15.86' height='15.86' style='stroke-width: 1.07; stroke: none; stroke-linecap: square; stroke-linejoin: miter; fill: #3E4C8A;' />
<rect x='353.51' y='289.87' width='15.86' height='15.86' style='stroke-width: 1.07; stroke: none; stroke-linecap: square; stroke-linejoin: miter; fill: #3A548C;' />
<rect x='396.43' y='289.87' width='15.86' height='15.86' style='stroke-width: 1.07; stroke: none; stroke-linecap: square; stroke-linejoin: miter; fill: #365C8D;' />
<rect x='436.91' y='289.87' width='15.86' height='15.86' style='stroke-width: 1.07; stroke: none; stroke-linecap: square; stroke-linejoin: miter; fill: #33638D;' />
<rect x='474.94' y='289.87' width='15.86' height='15.86' style='stroke-width: 1.07; stroke: none; stroke-linecap: square; stroke-linejoin: miter; fill: #306A8E;' />
<rect x='512.97' y='289.87' width='15.86' height='15.86' style='stroke-width: 1.07; stroke: none; stroke-linecap: square; stroke-linejoin: miter; fill: #2C718E;' />
<rect x='551.00' y='289.87' width='15.86' height='15.86' style='stroke-width: 1.07; stroke: none; stroke-linecap: square; stroke-linejoin: miter; fill: #2A788E;' />
<rect x='589.04' y='289.87' width='15.86' height='15.86' style='stroke-width: 1.07; stroke: none; stroke-linecap: square; stroke-linejoin: miter; fill: #277F8E;' />
<rect x='631.96' y='289.87' width='15.86' height='15.86' style='stroke-width: 1.07; stroke: none; stroke-linecap: square; stroke-linejoin: miter; fill: #24868E;' />
<rect x='669.99' y='289.87' width='15.86' height='15.86' style='stroke-width: 1.07; stroke: none; stroke-linecap: square; stroke-linejoin: miter; fill: #228D8D;' />
<rect x='6.33' y='312.63' width='15.86' height='15.86' style='stroke-width: 1.07; stroke: none; stroke-linecap: square; stroke-linejoin: miter; fill: #20938C;' />
<rect x='44.36' y='312.63' width='15.86' height='15.86' style='stroke-width: 1.07; stroke: none; stroke-linecap: square; stroke-linejoin: miter; fill: #1F9A8A;' />
<rect x='82.39' y='312.63' width='15.86' height='15.86' style='stroke-width: 1.07; stroke: none; stroke-linecap: square; stroke-linejoin: miter; fill: #1FA187;' />
<rect x='120.42' y='312.63' width='15.86' height='15.86' style='stroke-width: 1.07; stroke: none; stroke-linecap: square; stroke-linejoin: miter; fill: #22A884;' />
<rect x='158.46' y='312.63' width='15.86' height='15.86' style='stroke-width: 1.07; stroke: none; stroke-linecap: square; stroke-linejoin: miter; fill: #28AE80;' />
<rect x='196.49' y='312.63' width='15.86' height='15.86' style='stroke-width: 1.07; stroke: none; stroke-linecap: square; stroke-linejoin: miter; fill: #32B67A;' />
<rect x='234.52' y='312.63' width='15.86' height='15.86' style='stroke-width: 1.07; stroke: none; stroke-linecap: square; stroke-linejoin: miter; fill: #3DBC74;' />
<rect x='272.55' y='312.63' width='15.86' height='15.86' style='stroke-width: 1.07; stroke: none; stroke-linecap: square; stroke-linejoin: miter; fill: #4AC16D;' />
<rect x='310.58' y='312.63' width='15.86' height='15.86' style='stroke-width: 1.07; stroke: none; stroke-linecap: square; stroke-linejoin: miter; fill: #59C864;' />
<rect x='353.51' y='312.63' width='15.86' height='15.86' style='stroke-width: 1.07; stroke: none; stroke-linecap: square; stroke-linejoin: miter; fill: #68CD5B;' />
<rect x='396.43' y='312.63' width='15.86' height='15.86' style='stroke-width: 1.07; stroke: none; stroke-linecap: square; stroke-linejoin: miter; fill: #7AD151;' />
<rect x='436.91' y='312.63' width='15.86' height='15.86' style='stroke-width: 1.07; stroke: none; stroke-linecap: square; stroke-linejoin: miter; fill: #8CD646;' />
<rect x='474.94' y='312.63' width='15.86' height='15.86' style='stroke-width: 1.07; stroke: none; stroke-linecap: square; stroke-linejoin: miter; fill: #9FDA3A;' />
<rect x='512.97' y='312.63' width='15.86' height='15.86' style='stroke-width: 1.07; stroke: none; stroke-linecap: square; stroke-linejoin: miter; fill: #B2DD2D;' />
<rect x='551.00' y='312.63' width='15.86' height='15.86' style='stroke-width: 1.07; stroke: none; stroke-linecap: square; stroke-linejoin: miter; fill: #C5E021;' />
<rect x='589.04' y='312.63' width='15.86' height='15.86' style='stroke-width: 1.07; stroke: none; stroke-linecap: square; stroke-linejoin: miter; fill: #D9E219;' />
<rect x='631.96' y='312.63' width='15.86' height='15.86' style='stroke-width: 1.07; stroke: none; stroke-linecap: square; stroke-linejoin: miter; fill: #EBE51B;' />
<rect x='669.99' y='312.63' width='15.86' height='15.86' style='stroke-width: 1.07; stroke: none; stroke-linecap: square; stroke-linejoin: miter; fill: #FDE725;' />
<text x='28.38' y='300.95' style='font-size: 8.80px; font-family: Arial;' textLength='4.90px' lengthAdjust='spacingAndGlyphs'>0</text>
<text x='66.41' y='300.95' style='font-size: 8.80px; font-family: Arial;' textLength='4.90px' lengthAdjust='spacingAndGlyphs'>1</text>
<text x='104.44' y='300.95' style='font-size: 8.80px; font-family: Arial;' textLength='4.90px' lengthAdjust='spacingAndGlyphs'>2</text>
<text x='142.47' y='300.95' style='font-size: 8.80px; font-family: Arial;' textLength='4.90px' lengthAdjust='spacingAndGlyphs'>3</text>
<text x='180.51' y='300.95' style='font-size: 8.80px; font-family: Arial;' textLength='4.90px' lengthAdjust='spacingAndGlyphs'>4</text>
<text x='218.54' y='300.95' style='font-size: 8.80px; font-family: Arial;' textLength='4.90px' lengthAdjust='spacingAndGlyphs'>5</text>
<text x='256.57' y='300.95' style='font-size: 8.80px; font-family: Arial;' textLength='4.90px' lengthAdjust='spacingAndGlyphs'>6</text>
<text x='294.60' y='300.95' style='font-size: 8.80px; font-family: Arial;' textLength='4.90px' lengthAdjust='spacingAndGlyphs'>7</text>
<text x='332.63' y='300.95' style='font-size: 8.80px; font-family: Arial;' textLength='4.90px' lengthAdjust='spacingAndGlyphs'>8</text>
<text x='375.56' y='300.95' style='font-size: 8.80px; font-family: Arial;' textLength='4.90px' lengthAdjust='spacingAndGlyphs'>9</text>
<text x='418.48' y='300.95' style='font-size: 8.80px; font-family: Arial;' textLength='9.79px' lengthAdjust='spacingAndGlyphs'>10</text>
<text x='458.96' y='300.95' style='font-size: 8.80px; font-family: Arial;' textLength='9.14px' lengthAdjust='spacingAndGlyphs'>11</text>
<text x='496.99' y='300.95' style='font-size: 8.80px; font-family: Arial;' textLength='9.79px' lengthAdjust='spacingAndGlyphs'>12</text>
<text x='535.02' y='300.95' style='font-size: 8.80px; font-family: Arial;' textLength='9.79px' lengthAdjust='spacingAndGlyphs'>15</text>
<text x='573.05' y='300.95' style='font-size: 8.80px; font-family: Arial;' textLength='9.79px' lengthAdjust='spacingAndGlyphs'>16</text>
<text x='611.09' y='300.95' style='font-size: 8.80px; font-family: Arial;' textLength='9.79px' lengthAdjust='spacingAndGlyphs'>18</text>
<text x='654.01' y='300.95' style='font-size: 8.80px; font-family: Arial;' textLength='9.79px' lengthAdjust='spacingAndGlyphs'>20</text>
<text x='692.04' y='300.95' style='font-size: 8.80px; font-family: Arial;' textLength='9.79px' lengthAdjust='spacingAndGlyphs'>24</text>
<text x='28.38' y='323.71' style='font-size: 8.80px; font-family: Arial;' textLength='9.79px' lengthAdjust='spacingAndGlyphs'>26</text>
<text x='66.41' y='323.71' style='font-size: 8.80px; font-family: Arial;' textLength='9.79px' lengthAdjust='spacingAndGlyphs'>30</text>
<text x='104.44' y='323.71' style='font-size: 8.80px; font-family: Arial;' textLength='9.79px' lengthAdjust='spacingAndGlyphs'>31</text>
<text x='142.47' y='323.71' style='font-size: 8.80px; font-family: Arial;' textLength='9.79px' lengthAdjust='spacingAndGlyphs'>36</text>
<text x='180.51' y='323.71' style='font-size: 8.80px; font-family: Arial;' textLength='9.79px' lengthAdjust='spacingAndGlyphs'>42</text>
<text x='218.54' y='323.71' style='font-size: 8.80px; font-family: Arial;' textLength='9.79px' lengthAdjust='spacingAndGlyphs'>52</text>
<text x='256.57' y='323.71' style='font-size: 8.80px; font-family: Arial;' textLength='9.79px' lengthAdjust='spacingAndGlyphs'>60</text>
<text x='294.60' y='323.71' style='font-size: 8.80px; font-family: Arial;' textLength='9.79px' lengthAdjust='spacingAndGlyphs'>78</text>
<text x='332.63' y='323.71' style='font-size: 8.80px; font-family: Arial;' textLength='14.69px' lengthAdjust='spacingAndGlyphs'>130</text>
<text x='375.56' y='323.71' style='font-size: 8.80px; font-family: Arial;' textLength='14.69px' lengthAdjust='spacingAndGlyphs'>156</text>
<text x='418.48' y='323.71' style='font-size: 8.80px; font-family: Arial;' textLength='12.24px' lengthAdjust='spacingAndGlyphs'>0.5</text>
<text x='458.96' y='323.71' style='font-size: 8.80px; font-family: Arial;' textLength='9.79px' lengthAdjust='spacingAndGlyphs'>13</text>
<text x='496.99' y='323.71' style='font-size: 8.80px; font-family: Arial;' textLength='9.79px' lengthAdjust='spacingAndGlyphs'>14</text>
<text x='535.02' y='323.71' style='font-size: 8.80px; font-family: Arial;' textLength='9.79px' lengthAdjust='spacingAndGlyphs'>48</text>
<text x='573.05' y='323.71' style='font-size: 8.80px; font-family: Arial;' textLength='9.79px' lengthAdjust='spacingAndGlyphs'>90</text>
<text x='611.09' y='323.71' style='font-size: 8.80px; font-family: Arial;' textLength='14.69px' lengthAdjust='spacingAndGlyphs'>120</text>
<text x='654.01' y='323.71' style='font-size: 8.80px; font-family: Arial;' textLength='9.79px' lengthAdjust='spacingAndGlyphs'>40</text>
<text x='692.04' y='323.71' style='font-size: 8.80px; font-family: Arial;' textLength='9.79px' lengthAdjust='spacingAndGlyphs'>19</text>
</g>
</svg>
