<?xml version='1.0' encoding='UTF-8' ?>
<svg xmlns='http://www.w3.org/2000/svg' xmlns:xlink='http://www.w3.org/1999/xlink' class='svglite' width='566.93pt' height='340.16pt' viewBox='0 0 566.93 340.16'>
<defs>
  <style type='text/css'><![CDATA[
    .svglite line, .svglite polyline, .svglite polygon, .svglite path, .svglite rect, .svglite circle {
      fill: none;
      stroke: #000000;
      stroke-linecap: round;
      stroke-linejoin: round;
      stroke-miterlimit: 10.00;
    }
  ]]></style>
</defs>
<rect width='100%' height='100%' style='stroke: none; fill: none;'/>
<defs>
  <clipPath id='cpMC4wMHw1NjYuOTN8MC4wMHwzNDAuMTY='>
    <rect x='0.00' y='0.00' width='566.93' height='340.16' />
  </clipPath>
</defs>
<g clip-path='url(#cpMC4wMHw1NjYuOTN8MC4wMHwzNDAuMTY=)'>
</g>
<defs>
  <clipPath id='cpMTQxLjUyfDU2MS40NXw1LjQ4fDI1OS42NA=='>
    <rect x='141.52' y='5.48' width='419.93' height='254.16' />
  </clipPath>
</defs>
<g clip-path='url(#cpMTQxLjUyfDU2MS40NXw1LjQ4fDI1OS42NA==)'>
<polyline points='208.32,259.64 208.32,5.48 ' style='stroke-width: 0.53; stroke: #EBEBEB; stroke-linecap: butt;' />
<polyline points='303.76,259.64 303.76,5.48 ' style='stroke-width: 0.53; stroke: #EBEBEB; stroke-linecap: butt;' />
<polyline points='399.20,259.64 399.20,5.48 ' style='stroke-width: 0.53; stroke: #EBEBEB; stroke-linecap: butt;' />
<polyline points='494.64,259.64 494.64,5.48 ' style='stroke-width: 0.53; stroke: #EBEBEB; stroke-linecap: butt;' />
<polyline points='141.52,241.04 561.45,241.04 ' style='stroke-width: 1.07; stroke: #EBEBEB; stroke-linecap: butt;' />
<polyline points='141.52,210.05 561.45,210.05 ' style='stroke-width: 1.07; stroke: #EBEBEB; stroke-linecap: butt;' />
<polyline points='141.52,179.05 561.45,179.05 ' style='stroke-width: 1.07; stroke: #EBEBEB; stroke-linecap: butt;' />
<polyline points='141.52,148.06 561.45,148.06 ' style='stroke-width: 1.07; stroke: #EBEBEB; stroke-linecap: butt;' />
<polyline points='141.52,117.06 561.45,117.06 ' style='stroke-width: 1.07; stroke: #EBEBEB; stroke-linecap: butt;' />
<polyline points='141.52,86.07 561.45,86.07 ' style='stroke-width: 1.07; stroke: #EBEBEB; stroke-linecap: butt;' />
<polyline points='141.52,55.07 561.45,55.07 ' style='stroke-width: 1.07; stroke: #EBEBEB; stroke-linecap: butt;' />
<polyline points='141.52,24.08 561.45,24.08 ' style='stroke-width: 1.07; stroke: #EBEBEB; stroke-linecap: butt;' />
<polyline points='160.60,259.64 160.60,5.48 ' style='stroke-width: 1.07; stroke: #EBEBEB; stroke-linecap: butt;' />
<polyline points='256.04,259.64 256.04,5.48 ' style='stroke-width: 1.07; stroke: #EBEBEB; stroke-linecap: butt;' />
<polyline points='351.48,259.64 351.48,5.48 ' style='stroke-width: 1.07; stroke: #EBEBEB; stroke-linecap: butt;' />
<polyline points='446.92,259.64 446.92,5.48 ' style='stroke-width: 1.07; stroke: #EBEBEB; stroke-linecap: butt;' />
<polyline points='542.36,259.64 542.36,5.48 ' style='stroke-width: 1.07; stroke: #EBEBEB; stroke-linecap: butt;' />
<rect x='160.60' y='227.09' width='342.66' height='27.90' style='stroke-width: 1.07; stroke: none; stroke-linecap: square; stroke-linejoin: miter; fill: #440154;' />
<rect x='503.27' y='227.09' width='20.70' height='27.90' style='stroke-width: 1.07; stroke: none; stroke-linecap: square; stroke-linejoin: miter; fill: #482173;' />
<rect x='523.96' y='227.09' width='2.30' height='27.90' style='stroke-width: 1.07; stroke: none; stroke-linecap: square; stroke-linejoin: miter; fill: #433E85;' />
<rect x='526.26' y='227.09' width='2.30' height='27.90' style='stroke-width: 1.07; stroke: none; stroke-linecap: square; stroke-linejoin: miter; fill: #25858E;' />
<rect x='528.56' y='227.09' width='9.20' height='27.90' style='stroke-width: 1.07; stroke: none; stroke-linecap: square; stroke-linejoin: miter; fill: #1E9B8A;' />
<rect x='537.76' y='227.09' width='2.30' height='27.90' style='stroke-width: 1.07; stroke: none; stroke-linecap: square; stroke-linejoin: miter; fill: #85D54A;' />
<rect x='540.06' y='227.09' width='2.30' height='27.90' style='stroke-width: 1.07; stroke: none; stroke-linecap: square; stroke-linejoin: miter; fill: #FDE725;' />
<rect x='160.60' y='196.10' width='217.43' height='27.90' style='stroke-width: 1.07; stroke: none; stroke-linecap: square; stroke-linejoin: miter; fill: #440154;' />
<rect x='378.03' y='196.10' width='80.90' height='27.90' style='stroke-width: 1.07; stroke: none; stroke-linecap: square; stroke-linejoin: miter; fill: #482173;' />
<rect x='458.93' y='196.10' width='45.51' height='27.90' style='stroke-width: 1.07; stroke: none; stroke-linecap: square; stroke-linejoin: miter; fill: #433E85;' />
<rect x='504.44' y='196.10' width='5.06' height='27.90' style='stroke-width: 1.07; stroke: none; stroke-linecap: square; stroke-linejoin: miter; fill: #38598C;' />
<rect x='509.50' y='196.10' width='10.11' height='27.90' style='stroke-width: 1.07; stroke: none; stroke-linecap: square; stroke-linejoin: miter; fill: #2D708E;' />
<rect x='519.61' y='196.10' width='15.17' height='27.90' style='stroke-width: 1.07; stroke: none; stroke-linecap: square; stroke-linejoin: miter; fill: #1E9B8A;' />
<rect x='534.78' y='196.10' width='7.58' height='27.90' style='stroke-width: 1.07; stroke: none; stroke-linecap: square; stroke-linejoin: miter; fill: #85D54A;' />
<rect x='160.60' y='165.10' width='200.27' height='27.90' style='stroke-width: 1.07; stroke: none; stroke-linecap: square; stroke-linejoin: miter; fill: #440154;' />
<rect x='360.87' y='165.10' width='137.68' height='27.90' style='stroke-width: 1.07; stroke: none; stroke-linecap: square; stroke-linejoin: miter; fill: #482173;' />
<rect x='498.55' y='165.10' width='28.16' height='27.90' style='stroke-width: 1.07; stroke: none; stroke-linecap: square; stroke-linejoin: miter; fill: #433E85;' />
<rect x='526.72' y='165.10' width='3.13' height='27.90' style='stroke-width: 1.07; stroke: none; stroke-linecap: square; stroke-linejoin: miter; fill: #38598C;' />
<rect x='529.85' y='165.10' width='9.39' height='27.90' style='stroke-width: 1.07; stroke: none; stroke-linecap: square; stroke-linejoin: miter; fill: #1E9B8A;' />
<rect x='539.23' y='165.10' width='3.13' height='27.90' style='stroke-width: 1.07; stroke: none; stroke-linecap: square; stroke-linejoin: miter; fill: #51C56A;' />
<rect x='160.60' y='134.11' width='269.05' height='27.90' style='stroke-width: 1.07; stroke: none; stroke-linecap: square; stroke-linejoin: miter; fill: #440154;' />
<rect x='429.65' y='134.11' width='79.99' height='27.90' style='stroke-width: 1.07; stroke: none; stroke-linecap: square; stroke-linejoin: miter; fill: #482173;' />
<rect x='509.64' y='134.11' width='14.54' height='27.90' style='stroke-width: 1.07; stroke: none; stroke-linecap: square; stroke-linejoin: miter; fill: #433E85;' />
<rect x='524.18' y='134.11' width='3.64' height='27.90' style='stroke-width: 1.07; stroke: none; stroke-linecap: square; stroke-linejoin: miter; fill: #38598C;' />
<rect x='527.82' y='134.11' width='3.64' height='27.90' style='stroke-width: 1.07; stroke: none; stroke-linecap: square; stroke-linejoin: miter; fill: #25858E;' />
<rect x='531.45' y='134.11' width='7.27' height='27.90' style='stroke-width: 1.07; stroke: none; stroke-linecap: square; stroke-linejoin: miter; fill: #1E9B8A;' />
<rect x='538.73' y='134.11' width='3.64' height='27.90' style='stroke-width: 1.07; stroke: none; stroke-linecap: square; stroke-linejoin: miter; fill: #51C56A;' />
<rect x='160.60' y='103.11' width='263.28' height='27.90' style='stroke-width: 1.07; stroke: none; stroke-linecap: square; stroke-linejoin: miter; fill: #440154;' />
<rect x='423.89' y='103.11' width='92.15' height='27.90' style='stroke-width: 1.07; stroke: none; stroke-linecap: square; stroke-linejoin: miter; fill: #482173;' />
<rect x='516.03' y='103.11' width='9.87' height='27.90' style='stroke-width: 1.07; stroke: none; stroke-linecap: square; stroke-linejoin: miter; fill: #433E85;' />
<rect x='525.91' y='103.11' width='6.58' height='27.90' style='stroke-width: 1.07; stroke: none; stroke-linecap: square; stroke-linejoin: miter; fill: #1E9B8A;' />
<rect x='532.49' y='103.11' width='3.29' height='27.90' style='stroke-width: 1.07; stroke: none; stroke-linecap: square; stroke-linejoin: miter; fill: #2BB07F;' />
<rect x='535.78' y='103.11' width='3.29' height='27.90' style='stroke-width: 1.07; stroke: none; stroke-linecap: square; stroke-linejoin: miter; fill: #51C56A;' />
<rect x='539.07' y='103.11' width='3.29' height='27.90' style='stroke-width: 1.07; stroke: none; stroke-linecap: square; stroke-linejoin: miter; fill: #85D54A;' />
<rect x='160.60' y='72.12' width='279.13' height='27.90' style='stroke-width: 1.07; stroke: none; stroke-linecap: square; stroke-linejoin: miter; fill: #440154;' />
<rect x='439.74' y='72.12' width='82.10' height='27.90' style='stroke-width: 1.07; stroke: none; stroke-linecap: square; stroke-linejoin: miter; fill: #482173;' />
<rect x='521.84' y='72.12' width='12.31' height='27.90' style='stroke-width: 1.07; stroke: none; stroke-linecap: square; stroke-linejoin: miter; fill: #433E85;' />
<rect x='534.15' y='72.12' width='4.10' height='27.90' style='stroke-width: 1.07; stroke: none; stroke-linecap: square; stroke-linejoin: miter; fill: #25858E;' />
<rect x='538.26' y='72.12' width='4.10' height='27.90' style='stroke-width: 1.07; stroke: none; stroke-linecap: square; stroke-linejoin: miter; fill: #85D54A;' />
<rect x='160.60' y='41.12' width='300.53' height='27.90' style='stroke-width: 1.07; stroke: none; stroke-linecap: square; stroke-linejoin: miter; fill: #440154;' />
<rect x='461.14' y='41.12' width='64.98' height='27.90' style='stroke-width: 1.07; stroke: none; stroke-linecap: square; stroke-linejoin: miter; fill: #482173;' />
<rect x='526.12' y='41.12' width='4.06' height='27.90' style='stroke-width: 1.07; stroke: none; stroke-linecap: square; stroke-linejoin: miter; fill: #433E85;' />
<rect x='530.18' y='41.12' width='4.06' height='27.90' style='stroke-width: 1.07; stroke: none; stroke-linecap: square; stroke-linejoin: miter; fill: #1E9B8A;' />
<rect x='534.24' y='41.12' width='8.12' height='27.90' style='stroke-width: 1.07; stroke: none; stroke-linecap: square; stroke-linejoin: miter; fill: #51C56A;' />
<rect x='160.60' y='10.13' width='217.15' height='27.90' style='stroke-width: 1.07; stroke: none; stroke-linecap: square; stroke-linejoin: miter; fill: #440154;' />
<rect x='377.75' y='10.13' width='136.59' height='27.90' style='stroke-width: 1.07; stroke: none; stroke-linecap: square; stroke-linejoin: miter; fill: #482173;' />
<rect x='514.34' y='10.13' width='21.01' height='27.90' style='stroke-width: 1.07; stroke: none; stroke-linecap: square; stroke-linejoin: miter; fill: #433E85;' />
<rect x='535.36' y='10.13' width='3.50' height='27.90' style='stroke-width: 1.07; stroke: none; stroke-linecap: square; stroke-linejoin: miter; fill: #1E9B8A;' />
<rect x='538.86' y='10.13' width='3.50' height='27.90' style='stroke-width: 1.07; stroke: none; stroke-linecap: square; stroke-linejoin: miter; fill: #C2DF23;' />
<text x='331.93' y='238.98' text-anchor='middle' style='font-size: 5.69px; fill: #FFFFFF; font-family: Arial;' textLength='9.48px' lengthAdjust='spacingAndGlyphs'>149</text>
<text x='331.93' y='247.18' text-anchor='middle' style='font-size: 5.69px; fill: #FFFFFF; font-family: Arial;' textLength='15.16px' lengthAdjust='spacingAndGlyphs'>(90%)</text>
<text x='513.61' y='238.98' text-anchor='middle' style='font-size: 5.69px; fill: #FFFFFF; font-family: Arial;' textLength='3.16px' lengthAdjust='spacingAndGlyphs'>9</text>
<text x='513.61' y='247.18' text-anchor='middle' style='font-size: 5.69px; fill: #FFFFFF; font-family: Arial;' textLength='12.00px' lengthAdjust='spacingAndGlyphs'>(5%)</text>
<text x='525.11' y='238.98' text-anchor='middle' style='font-size: 5.69px; fill: #FFFFFF; font-family: Arial;' textLength='3.16px' lengthAdjust='spacingAndGlyphs'>1</text>
<text x='525.11' y='247.18' text-anchor='middle' style='font-size: 5.69px; fill: #FFFFFF; font-family: Arial;' textLength='12.00px' lengthAdjust='spacingAndGlyphs'>(1%)</text>
<text x='527.41' y='238.98' text-anchor='middle' style='font-size: 5.69px; fill: #FFFFFF; font-family: Arial;' textLength='3.16px' lengthAdjust='spacingAndGlyphs'>1</text>
<text x='527.41' y='247.18' text-anchor='middle' style='font-size: 5.69px; fill: #FFFFFF; font-family: Arial;' textLength='12.00px' lengthAdjust='spacingAndGlyphs'>(1%)</text>
<text x='533.16' y='238.98' text-anchor='middle' style='font-size: 5.69px; fill: #FFFFFF; font-family: Arial;' textLength='3.16px' lengthAdjust='spacingAndGlyphs'>4</text>
<text x='533.16' y='247.18' text-anchor='middle' style='font-size: 5.69px; fill: #FFFFFF; font-family: Arial;' textLength='12.00px' lengthAdjust='spacingAndGlyphs'>(2%)</text>
<text x='538.91' y='238.98' text-anchor='middle' style='font-size: 5.69px; fill: #FFFFFF; font-family: Arial;' textLength='3.16px' lengthAdjust='spacingAndGlyphs'>1</text>
<text x='538.91' y='247.18' text-anchor='middle' style='font-size: 5.69px; fill: #FFFFFF; font-family: Arial;' textLength='12.00px' lengthAdjust='spacingAndGlyphs'>(1%)</text>
<text x='541.21' y='238.98' text-anchor='middle' style='font-size: 5.69px; fill: #FFFFFF; font-family: Arial;' textLength='3.16px' lengthAdjust='spacingAndGlyphs'>1</text>
<text x='541.21' y='247.18' text-anchor='middle' style='font-size: 5.69px; fill: #FFFFFF; font-family: Arial;' textLength='12.00px' lengthAdjust='spacingAndGlyphs'>(1%)</text>
<text x='269.32' y='207.99' text-anchor='middle' style='font-size: 5.69px; fill: #FFFFFF; font-family: Arial;' textLength='6.32px' lengthAdjust='spacingAndGlyphs'>86</text>
<text x='269.32' y='216.18' text-anchor='middle' style='font-size: 5.69px; fill: #FFFFFF; font-family: Arial;' textLength='15.16px' lengthAdjust='spacingAndGlyphs'>(57%)</text>
<text x='418.48' y='207.99' text-anchor='middle' style='font-size: 5.69px; fill: #FFFFFF; font-family: Arial;' textLength='6.32px' lengthAdjust='spacingAndGlyphs'>32</text>
<text x='418.48' y='216.18' text-anchor='middle' style='font-size: 5.69px; fill: #FFFFFF; font-family: Arial;' textLength='15.16px' lengthAdjust='spacingAndGlyphs'>(21%)</text>
<text x='481.68' y='207.99' text-anchor='middle' style='font-size: 5.69px; fill: #FFFFFF; font-family: Arial;' textLength='6.32px' lengthAdjust='spacingAndGlyphs'>18</text>
<text x='481.68' y='216.18' text-anchor='middle' style='font-size: 5.69px; fill: #FFFFFF; font-family: Arial;' textLength='15.16px' lengthAdjust='spacingAndGlyphs'>(12%)</text>
<text x='506.97' y='207.99' text-anchor='middle' style='font-size: 5.69px; fill: #FFFFFF; font-family: Arial;' textLength='3.16px' lengthAdjust='spacingAndGlyphs'>2</text>
<text x='506.97' y='216.18' text-anchor='middle' style='font-size: 5.69px; fill: #FFFFFF; font-family: Arial;' textLength='12.00px' lengthAdjust='spacingAndGlyphs'>(1%)</text>
<text x='514.55' y='207.99' text-anchor='middle' style='font-size: 5.69px; fill: #FFFFFF; font-family: Arial;' textLength='3.16px' lengthAdjust='spacingAndGlyphs'>4</text>
<text x='514.55' y='216.18' text-anchor='middle' style='font-size: 5.69px; fill: #FFFFFF; font-family: Arial;' textLength='12.00px' lengthAdjust='spacingAndGlyphs'>(3%)</text>
<text x='527.19' y='207.99' text-anchor='middle' style='font-size: 5.69px; fill: #FFFFFF; font-family: Arial;' textLength='3.16px' lengthAdjust='spacingAndGlyphs'>6</text>
<text x='527.19' y='216.18' text-anchor='middle' style='font-size: 5.69px; fill: #FFFFFF; font-family: Arial;' textLength='12.00px' lengthAdjust='spacingAndGlyphs'>(4%)</text>
<text x='538.57' y='207.99' text-anchor='middle' style='font-size: 5.69px; fill: #FFFFFF; font-family: Arial;' textLength='3.16px' lengthAdjust='spacingAndGlyphs'>3</text>
<text x='538.57' y='216.18' text-anchor='middle' style='font-size: 5.69px; fill: #FFFFFF; font-family: Arial;' textLength='12.00px' lengthAdjust='spacingAndGlyphs'>(2%)</text>
<text x='260.74' y='176.99' text-anchor='middle' style='font-size: 5.69px; fill: #FFFFFF; font-family: Arial;' textLength='6.32px' lengthAdjust='spacingAndGlyphs'>64</text>
<text x='260.74' y='185.19' text-anchor='middle' style='font-size: 5.69px; fill: #FFFFFF; font-family: Arial;' textLength='15.16px' lengthAdjust='spacingAndGlyphs'>(52%)</text>
<text x='429.71' y='176.99' text-anchor='middle' style='font-size: 5.69px; fill: #FFFFFF; font-family: Arial;' textLength='6.32px' lengthAdjust='spacingAndGlyphs'>44</text>
<text x='429.71' y='185.19' text-anchor='middle' style='font-size: 5.69px; fill: #FFFFFF; font-family: Arial;' textLength='15.16px' lengthAdjust='spacingAndGlyphs'>(36%)</text>
<text x='512.63' y='176.99' text-anchor='middle' style='font-size: 5.69px; fill: #FFFFFF; font-family: Arial;' textLength='3.16px' lengthAdjust='spacingAndGlyphs'>9</text>
<text x='512.63' y='185.19' text-anchor='middle' style='font-size: 5.69px; fill: #FFFFFF; font-family: Arial;' textLength='12.00px' lengthAdjust='spacingAndGlyphs'>(7%)</text>
<text x='528.28' y='176.99' text-anchor='middle' style='font-size: 5.69px; fill: #FFFFFF; font-family: Arial;' textLength='3.16px' lengthAdjust='spacingAndGlyphs'>1</text>
<text x='528.28' y='185.19' text-anchor='middle' style='font-size: 5.69px; fill: #FFFFFF; font-family: Arial;' textLength='12.00px' lengthAdjust='spacingAndGlyphs'>(1%)</text>
<text x='534.54' y='176.99' text-anchor='middle' style='font-size: 5.69px; fill: #FFFFFF; font-family: Arial;' textLength='3.16px' lengthAdjust='spacingAndGlyphs'>3</text>
<text x='534.54' y='185.19' text-anchor='middle' style='font-size: 5.69px; fill: #FFFFFF; font-family: Arial;' textLength='12.00px' lengthAdjust='spacingAndGlyphs'>(2%)</text>
<text x='540.80' y='176.99' text-anchor='middle' style='font-size: 5.69px; fill: #FFFFFF; font-family: Arial;' textLength='3.16px' lengthAdjust='spacingAndGlyphs'>1</text>
<text x='540.80' y='185.19' text-anchor='middle' style='font-size: 5.69px; fill: #FFFFFF; font-family: Arial;' textLength='12.00px' lengthAdjust='spacingAndGlyphs'>(1%)</text>
<text x='295.13' y='146.00' text-anchor='middle' style='font-size: 5.69px; fill: #FFFFFF; font-family: Arial;' textLength='6.32px' lengthAdjust='spacingAndGlyphs'>74</text>
<text x='295.13' y='154.19' text-anchor='middle' style='font-size: 5.69px; fill: #FFFFFF; font-family: Arial;' textLength='15.16px' lengthAdjust='spacingAndGlyphs'>(70%)</text>
<text x='469.65' y='146.00' text-anchor='middle' style='font-size: 5.69px; fill: #FFFFFF; font-family: Arial;' textLength='6.32px' lengthAdjust='spacingAndGlyphs'>22</text>
<text x='469.65' y='154.19' text-anchor='middle' style='font-size: 5.69px; fill: #FFFFFF; font-family: Arial;' textLength='15.16px' lengthAdjust='spacingAndGlyphs'>(21%)</text>
<text x='516.91' y='146.00' text-anchor='middle' style='font-size: 5.69px; fill: #FFFFFF; font-family: Arial;' textLength='3.16px' lengthAdjust='spacingAndGlyphs'>4</text>
<text x='516.91' y='154.19' text-anchor='middle' style='font-size: 5.69px; fill: #FFFFFF; font-family: Arial;' textLength='12.00px' lengthAdjust='spacingAndGlyphs'>(4%)</text>
<text x='526.00' y='146.00' text-anchor='middle' style='font-size: 5.69px; fill: #FFFFFF; font-family: Arial;' textLength='3.16px' lengthAdjust='spacingAndGlyphs'>1</text>
<text x='526.00' y='154.19' text-anchor='middle' style='font-size: 5.69px; fill: #FFFFFF; font-family: Arial;' textLength='12.00px' lengthAdjust='spacingAndGlyphs'>(1%)</text>
<text x='529.64' y='146.00' text-anchor='middle' style='font-size: 5.69px; fill: #FFFFFF; font-family: Arial;' textLength='3.16px' lengthAdjust='spacingAndGlyphs'>1</text>
<text x='529.64' y='154.19' text-anchor='middle' style='font-size: 5.69px; fill: #FFFFFF; font-family: Arial;' textLength='12.00px' lengthAdjust='spacingAndGlyphs'>(1%)</text>
<text x='535.09' y='146.00' text-anchor='middle' style='font-size: 5.69px; fill: #FFFFFF; font-family: Arial;' textLength='3.16px' lengthAdjust='spacingAndGlyphs'>2</text>
<text x='535.09' y='154.19' text-anchor='middle' style='font-size: 5.69px; fill: #FFFFFF; font-family: Arial;' textLength='12.00px' lengthAdjust='spacingAndGlyphs'>(2%)</text>
<text x='540.54' y='146.00' text-anchor='middle' style='font-size: 5.69px; fill: #FFFFFF; font-family: Arial;' textLength='3.16px' lengthAdjust='spacingAndGlyphs'>1</text>
<text x='540.54' y='154.19' text-anchor='middle' style='font-size: 5.69px; fill: #FFFFFF; font-family: Arial;' textLength='12.00px' lengthAdjust='spacingAndGlyphs'>(1%)</text>
<text x='292.24' y='115.00' text-anchor='middle' style='font-size: 5.69px; fill: #FFFFFF; font-family: Arial;' textLength='6.32px' lengthAdjust='spacingAndGlyphs'>80</text>
<text x='292.24' y='123.20' text-anchor='middle' style='font-size: 5.69px; fill: #FFFFFF; font-family: Arial;' textLength='15.16px' lengthAdjust='spacingAndGlyphs'>(69%)</text>
<text x='469.96' y='115.00' text-anchor='middle' style='font-size: 5.69px; fill: #FFFFFF; font-family: Arial;' textLength='6.32px' lengthAdjust='spacingAndGlyphs'>28</text>
<text x='469.96' y='123.20' text-anchor='middle' style='font-size: 5.69px; fill: #FFFFFF; font-family: Arial;' textLength='15.16px' lengthAdjust='spacingAndGlyphs'>(24%)</text>
<text x='520.97' y='115.00' text-anchor='middle' style='font-size: 5.69px; fill: #FFFFFF; font-family: Arial;' textLength='3.16px' lengthAdjust='spacingAndGlyphs'>3</text>
<text x='520.97' y='123.20' text-anchor='middle' style='font-size: 5.69px; fill: #FFFFFF; font-family: Arial;' textLength='12.00px' lengthAdjust='spacingAndGlyphs'>(3%)</text>
<text x='529.20' y='115.00' text-anchor='middle' style='font-size: 5.69px; fill: #FFFFFF; font-family: Arial;' textLength='3.16px' lengthAdjust='spacingAndGlyphs'>2</text>
<text x='529.20' y='123.20' text-anchor='middle' style='font-size: 5.69px; fill: #FFFFFF; font-family: Arial;' textLength='12.00px' lengthAdjust='spacingAndGlyphs'>(2%)</text>
<text x='534.13' y='115.00' text-anchor='middle' style='font-size: 5.69px; fill: #FFFFFF; font-family: Arial;' textLength='3.16px' lengthAdjust='spacingAndGlyphs'>1</text>
<text x='534.13' y='123.20' text-anchor='middle' style='font-size: 5.69px; fill: #FFFFFF; font-family: Arial;' textLength='12.00px' lengthAdjust='spacingAndGlyphs'>(1%)</text>
<text x='537.43' y='115.00' text-anchor='middle' style='font-size: 5.69px; fill: #FFFFFF; font-family: Arial;' textLength='3.16px' lengthAdjust='spacingAndGlyphs'>1</text>
<text x='537.43' y='123.20' text-anchor='middle' style='font-size: 5.69px; fill: #FFFFFF; font-family: Arial;' textLength='12.00px' lengthAdjust='spacingAndGlyphs'>(1%)</text>
<text x='540.72' y='115.00' text-anchor='middle' style='font-size: 5.69px; fill: #FFFFFF; font-family: Arial;' textLength='3.16px' lengthAdjust='spacingAndGlyphs'>1</text>
<text x='540.72' y='123.20' text-anchor='middle' style='font-size: 5.69px; fill: #FFFFFF; font-family: Arial;' textLength='12.00px' lengthAdjust='spacingAndGlyphs'>(1%)</text>
<text x='300.17' y='84.01' text-anchor='middle' style='font-size: 5.69px; fill: #FFFFFF; font-family: Arial;' textLength='6.32px' lengthAdjust='spacingAndGlyphs'>68</text>
<text x='300.17' y='92.20' text-anchor='middle' style='font-size: 5.69px; fill: #FFFFFF; font-family: Arial;' textLength='15.16px' lengthAdjust='spacingAndGlyphs'>(73%)</text>
<text x='480.79' y='84.01' text-anchor='middle' style='font-size: 5.69px; fill: #FFFFFF; font-family: Arial;' textLength='6.32px' lengthAdjust='spacingAndGlyphs'>20</text>
<text x='480.79' y='92.20' text-anchor='middle' style='font-size: 5.69px; fill: #FFFFFF; font-family: Arial;' textLength='15.16px' lengthAdjust='spacingAndGlyphs'>(22%)</text>
<text x='527.99' y='84.01' text-anchor='middle' style='font-size: 5.69px; fill: #FFFFFF; font-family: Arial;' textLength='3.16px' lengthAdjust='spacingAndGlyphs'>3</text>
<text x='527.99' y='92.20' text-anchor='middle' style='font-size: 5.69px; fill: #FFFFFF; font-family: Arial;' textLength='12.00px' lengthAdjust='spacingAndGlyphs'>(3%)</text>
<text x='536.20' y='84.01' text-anchor='middle' style='font-size: 5.69px; fill: #FFFFFF; font-family: Arial;' textLength='3.16px' lengthAdjust='spacingAndGlyphs'>1</text>
<text x='536.20' y='92.20' text-anchor='middle' style='font-size: 5.69px; fill: #FFFFFF; font-family: Arial;' textLength='12.00px' lengthAdjust='spacingAndGlyphs'>(1%)</text>
<text x='540.31' y='84.01' text-anchor='middle' style='font-size: 5.69px; fill: #FFFFFF; font-family: Arial;' textLength='3.16px' lengthAdjust='spacingAndGlyphs'>1</text>
<text x='540.31' y='92.20' text-anchor='middle' style='font-size: 5.69px; fill: #FFFFFF; font-family: Arial;' textLength='12.00px' lengthAdjust='spacingAndGlyphs'>(1%)</text>
<text x='310.87' y='53.01' text-anchor='middle' style='font-size: 5.69px; fill: #FFFFFF; font-family: Arial;' textLength='6.32px' lengthAdjust='spacingAndGlyphs'>74</text>
<text x='310.87' y='61.21' text-anchor='middle' style='font-size: 5.69px; fill: #FFFFFF; font-family: Arial;' textLength='15.16px' lengthAdjust='spacingAndGlyphs'>(79%)</text>
<text x='493.63' y='53.01' text-anchor='middle' style='font-size: 5.69px; fill: #FFFFFF; font-family: Arial;' textLength='6.32px' lengthAdjust='spacingAndGlyphs'>16</text>
<text x='493.63' y='61.21' text-anchor='middle' style='font-size: 5.69px; fill: #FFFFFF; font-family: Arial;' textLength='15.16px' lengthAdjust='spacingAndGlyphs'>(17%)</text>
<text x='528.15' y='53.01' text-anchor='middle' style='font-size: 5.69px; fill: #FFFFFF; font-family: Arial;' textLength='3.16px' lengthAdjust='spacingAndGlyphs'>1</text>
<text x='528.15' y='61.21' text-anchor='middle' style='font-size: 5.69px; fill: #FFFFFF; font-family: Arial;' textLength='12.00px' lengthAdjust='spacingAndGlyphs'>(1%)</text>
<text x='532.21' y='53.01' text-anchor='middle' style='font-size: 5.69px; fill: #FFFFFF; font-family: Arial;' textLength='3.16px' lengthAdjust='spacingAndGlyphs'>1</text>
<text x='532.21' y='61.21' text-anchor='middle' style='font-size: 5.69px; fill: #FFFFFF; font-family: Arial;' textLength='12.00px' lengthAdjust='spacingAndGlyphs'>(1%)</text>
<text x='538.30' y='53.01' text-anchor='middle' style='font-size: 5.69px; fill: #FFFFFF; font-family: Arial;' textLength='3.16px' lengthAdjust='spacingAndGlyphs'>2</text>
<text x='538.30' y='61.21' text-anchor='middle' style='font-size: 5.69px; fill: #FFFFFF; font-family: Arial;' textLength='12.00px' lengthAdjust='spacingAndGlyphs'>(2%)</text>
<text x='269.18' y='22.02' text-anchor='middle' style='font-size: 5.69px; fill: #FFFFFF; font-family: Arial;' textLength='6.32px' lengthAdjust='spacingAndGlyphs'>62</text>
<text x='269.18' y='30.21' text-anchor='middle' style='font-size: 5.69px; fill: #FFFFFF; font-family: Arial;' textLength='15.16px' lengthAdjust='spacingAndGlyphs'>(57%)</text>
<text x='446.05' y='22.02' text-anchor='middle' style='font-size: 5.69px; fill: #FFFFFF; font-family: Arial;' textLength='6.32px' lengthAdjust='spacingAndGlyphs'>39</text>
<text x='446.05' y='30.21' text-anchor='middle' style='font-size: 5.69px; fill: #FFFFFF; font-family: Arial;' textLength='15.16px' lengthAdjust='spacingAndGlyphs'>(36%)</text>
<text x='524.85' y='22.02' text-anchor='middle' style='font-size: 5.69px; fill: #FFFFFF; font-family: Arial;' textLength='3.16px' lengthAdjust='spacingAndGlyphs'>6</text>
<text x='524.85' y='30.21' text-anchor='middle' style='font-size: 5.69px; fill: #FFFFFF; font-family: Arial;' textLength='12.00px' lengthAdjust='spacingAndGlyphs'>(6%)</text>
<text x='537.11' y='22.02' text-anchor='middle' style='font-size: 5.69px; fill: #FFFFFF; font-family: Arial;' textLength='3.16px' lengthAdjust='spacingAndGlyphs'>1</text>
<text x='537.11' y='30.21' text-anchor='middle' style='font-size: 5.69px; fill: #FFFFFF; font-family: Arial;' textLength='12.00px' lengthAdjust='spacingAndGlyphs'>(1%)</text>
<text x='540.61' y='22.02' text-anchor='middle' style='font-size: 5.69px; fill: #FFFFFF; font-family: Arial;' textLength='3.16px' lengthAdjust='spacingAndGlyphs'>1</text>
<text x='540.61' y='30.21' text-anchor='middle' style='font-size: 5.69px; fill: #FFFFFF; font-family: Arial;' textLength='12.00px' lengthAdjust='spacingAndGlyphs'>(1%)</text>
</g>
<g clip-path='url(#cpMC4wMHw1NjYuOTN8MC4wMHwzNDAuMTY=)'>
<text x='136.58' y='244.19' text-anchor='end' style='font-size: 8.80px; fill: #4D4D4D; font-family: Arial;' textLength='103.26px' lengthAdjust='spacingAndGlyphs'>leftVenueFreq_houseparty</text>
<text x='136.58' y='213.20' text-anchor='end' style='font-size: 8.80px; fill: #4D4D4D; font-family: Arial;' textLength='76.34px' lengthAdjust='spacingAndGlyphs'>leftVenueFreq_cafe</text>
<text x='136.58' y='182.20' text-anchor='end' style='font-size: 8.80px; fill: #4D4D4D; font-family: Arial;' textLength='80.24px' lengthAdjust='spacingAndGlyphs'>leftVenueFreq_disco</text>
<text x='136.58' y='151.21' text-anchor='end' style='font-size: 8.80px; fill: #4D4D4D; font-family: Arial;' textLength='79.29px' lengthAdjust='spacingAndGlyphs'>leftVenueFreq_band</text>
<text x='136.58' y='120.21' text-anchor='end' style='font-size: 8.80px; fill: #4D4D4D; font-family: Arial;' textLength='124.26px' lengthAdjust='spacingAndGlyphs'>leftVenueFreq_smallPartyInside</text>
<text x='136.58' y='89.22' text-anchor='end' style='font-size: 8.80px; fill: #4D4D4D; font-family: Arial;' textLength='115.47px' lengthAdjust='spacingAndGlyphs'>leftVenueFreq_bigPartyInside</text>
<text x='136.58' y='58.22' text-anchor='end' style='font-size: 8.80px; fill: #4D4D4D; font-family: Arial;' textLength='131.10px' lengthAdjust='spacingAndGlyphs'>leftVenueFreq_smallPartyOutside</text>
<text x='136.58' y='27.23' text-anchor='end' style='font-size: 8.80px; fill: #4D4D4D; font-family: Arial;' textLength='122.32px' lengthAdjust='spacingAndGlyphs'>leftVenueFreq_bigPartyOutside</text>
<text x='160.60' y='270.87' text-anchor='middle' style='font-size: 8.80px; fill: #4D4D4D; font-family: Arial;' textLength='4.90px' lengthAdjust='spacingAndGlyphs'>0</text>
<text x='256.04' y='270.87' text-anchor='middle' style='font-size: 8.80px; fill: #4D4D4D; font-family: Arial;' textLength='9.79px' lengthAdjust='spacingAndGlyphs'>25</text>
<text x='351.48' y='270.87' text-anchor='middle' style='font-size: 8.80px; fill: #4D4D4D; font-family: Arial;' textLength='9.79px' lengthAdjust='spacingAndGlyphs'>50</text>
<text x='446.92' y='270.87' text-anchor='middle' style='font-size: 8.80px; fill: #4D4D4D; font-family: Arial;' textLength='9.79px' lengthAdjust='spacingAndGlyphs'>75</text>
<text x='542.36' y='270.87' text-anchor='middle' style='font-size: 8.80px; fill: #4D4D4D; font-family: Arial;' textLength='14.69px' lengthAdjust='spacingAndGlyphs'>100</text>
<rect x='248.47' y='289.87' width='15.86' height='15.86' style='stroke-width: 1.07; stroke: none; stroke-linecap: square; stroke-linejoin: miter; fill: #440154;' />
<rect x='281.61' y='289.87' width='15.86' height='15.86' style='stroke-width: 1.07; stroke: none; stroke-linecap: square; stroke-linejoin: miter; fill: #482173;' />
<rect x='314.74' y='289.87' width='15.86' height='15.86' style='stroke-width: 1.07; stroke: none; stroke-linecap: square; stroke-linejoin: miter; fill: #433E85;' />
<rect x='352.77' y='289.87' width='15.86' height='15.86' style='stroke-width: 1.07; stroke: none; stroke-linecap: square; stroke-linejoin: miter; fill: #38598C;' />
<rect x='390.81' y='289.87' width='15.86' height='15.86' style='stroke-width: 1.07; stroke: none; stroke-linecap: square; stroke-linejoin: miter; fill: #2D708E;' />
<rect x='428.84' y='289.87' width='15.86' height='15.86' style='stroke-width: 1.07; stroke: none; stroke-linecap: square; stroke-linejoin: miter; fill: #25858E;' />
<rect x='248.47' y='312.63' width='15.86' height='15.86' style='stroke-width: 1.07; stroke: none; stroke-linecap: square; stroke-linejoin: miter; fill: #1E9B8A;' />
<rect x='281.61' y='312.63' width='15.86' height='15.86' style='stroke-width: 1.07; stroke: none; stroke-linecap: square; stroke-linejoin: miter; fill: #2BB07F;' />
<rect x='314.74' y='312.63' width='15.86' height='15.86' style='stroke-width: 1.07; stroke: none; stroke-linecap: square; stroke-linejoin: miter; fill: #51C56A;' />
<rect x='352.77' y='312.63' width='15.86' height='15.86' style='stroke-width: 1.07; stroke: none; stroke-linecap: square; stroke-linejoin: miter; fill: #85D54A;' />
<rect x='390.81' y='312.63' width='15.86' height='15.86' style='stroke-width: 1.07; stroke: none; stroke-linecap: square; stroke-linejoin: miter; fill: #C2DF23;' />
<rect x='428.84' y='312.63' width='15.86' height='15.86' style='stroke-width: 1.07; stroke: none; stroke-linecap: square; stroke-linejoin: miter; fill: #FDE725;' />
<text x='270.52' y='300.95' style='font-size: 8.80px; font-family: Arial;' textLength='4.90px' lengthAdjust='spacingAndGlyphs'>0</text>
<text x='303.66' y='300.95' style='font-size: 8.80px; font-family: Arial;' textLength='4.90px' lengthAdjust='spacingAndGlyphs'>1</text>
<text x='336.79' y='300.95' style='font-size: 8.80px; font-family: Arial;' textLength='4.90px' lengthAdjust='spacingAndGlyphs'>2</text>
<text x='374.83' y='300.95' style='font-size: 8.80px; font-family: Arial;' textLength='4.90px' lengthAdjust='spacingAndGlyphs'>3</text>
<text x='412.86' y='300.95' style='font-size: 8.80px; font-family: Arial;' textLength='4.90px' lengthAdjust='spacingAndGlyphs'>4</text>
<text x='450.89' y='300.95' style='font-size: 8.80px; font-family: Arial;' textLength='4.90px' lengthAdjust='spacingAndGlyphs'>5</text>
<text x='270.52' y='323.71' style='font-size: 8.80px; font-family: Arial;' textLength='4.90px' lengthAdjust='spacingAndGlyphs'>6</text>
<text x='303.66' y='323.71' style='font-size: 8.80px; font-family: Arial;' textLength='4.90px' lengthAdjust='spacingAndGlyphs'>7</text>
<text x='336.79' y='323.71' style='font-size: 8.80px; font-family: Arial;' textLength='9.79px' lengthAdjust='spacingAndGlyphs'>10</text>
<text x='374.83' y='323.71' style='font-size: 8.80px; font-family: Arial;' textLength='9.79px' lengthAdjust='spacingAndGlyphs'>12</text>
<text x='412.86' y='323.71' style='font-size: 8.80px; font-family: Arial;' textLength='9.79px' lengthAdjust='spacingAndGlyphs'>15</text>
<text x='450.89' y='323.71' style='font-size: 8.80px; font-family: Arial;' textLength='9.79px' lengthAdjust='spacingAndGlyphs'>18</text>
</g>
</svg>
